{
    "_id": "su4TRBOoso4vjkoK",
    "data": {
        "attributes": {
            "ac": {
                "value": 10
            },
            "hardness": 0,
            "hasHealth": false,
            "hp": {
                "details": "",
                "max": 0,
                "temp": 0,
                "tempmax": 0,
                "value": 0
            },
            "stealth": {
                "details": "<p>(trained)</p>",
                "value": 21
            }
        },
        "creatureType": "",
        "details": {
            "description": "<p>An object haunted by the echoes of a vicious mind attempts to kill someone who comes near.</p>",
            "disable": "<p>Religion DC 29 (master) to exorcise the spirit or Diplomacy DC 31 (expert) to talk it down</p>",
            "isComplex": false,
            "level": {
                "value": 10
            },
            "reset": "",
            "routine": ""
        },
        "saves": {
            "fortitude": {
                "saveDetail": "",
                "value": 0
            },
            "reflex": {
                "saveDetail": "",
                "value": 0
            },
            "will": {
                "saveDetail": "",
                "value": 0
            }
        },
        "source": {
            "value": "Pathfinder Core Rulebook"
        },
        "statusEffects": [],
        "traits": {
            "ci": [],
            "di": {
                "custom": "",
                "selected": {},
                "value": []
            },
            "dr": [],
            "dv": [],
            "rarity": "common",
            "size": {
                "value": "med"
            },
            "traits": {
                "custom": "",
                "value": [
                    "haunt"
                ]
            }
        }
    },
    "effects": [],
    "flags": {},
    "img": "systems/pf2e/icons/default-icons/hazard.svg",
    "items": [
        {
            "_id": "0FpzSygcs7G688GT",
            "data": {
                "actionCategory": {
                    "value": ""
                },
                "actionType": {
                    "value": "reaction"
                },
                "actions": {
                    "value": null
                },
                "description": {
                    "value": "<p data-visibility=\"gm\"><strong>Trigger</strong> A creature moves within 10 feet of the haunted object.</p>\n<p><strong>Effect</strong> The haunt takes control of the triggering creature, forcing it to attack itself. The creature must attempt a @Check[type:will|dc:29] save.</p>\n<hr />\n<p><strong>Critical Success</strong> The target is unaffected.</p>\n<p><strong>Success</strong> The target makes a Strike against itself and automatically hits; the target also becomes frightened 1.</p>\n<p><strong>Failure</strong> The target makes a Strike against itself and automatically scores a critical hit; the target also becomes frightened 2.</p>\n<p><strong>Critical Failure</strong> The target attempts a Fortitude save. If the target succeeds, it is subject to the effects of a failure instead. If the target fails, it is reduced to 0 Hit Points and dies.</p>"
                },
                "requirements": {
                    "value": ""
                },
                "rules": [],
                "slug": null,
                "source": {
                    "value": ""
                },
                "traits": {
                    "custom": "",
                    "rarity": "common",
                    "value": [
                        "death",
                        "emotion",
                        "fear",
                        "illusion",
                        "mental",
                        "occult"
                    ]
                },
                "trigger": {
                    "value": ""
                },
                "weapon": {
                    "value": ""
                }
            },
            "effects": [],
            "flags": {},
            "img": "systems/pf2e/icons/actions/Reaction.webp",
            "name": "Quietus",
            "sort": 100000,
            "type": "action"
        }
    ],
    "name": "Bloodthirsty Urge",
    "token": {
        "disposition": 0,
        "height": 1,
        "img": "systems/pf2e/icons/default-icons/hazard.svg",
        "name": "Bloodthirsty Urge",
        "width": 1
    },
    "type": "hazard"
}
