{
    "_id": "8gAoSgBJN8QqzP1R",
    "data": {
        "attributes": {
            "ac": {
                "value": 10
            },
            "hardness": 0,
            "hasHealth": false,
            "hp": {
                "details": "",
                "max": 0,
                "temp": 0,
                "tempmax": 0,
                "value": 0
            },
            "stealth": {
                "details": "<p>(master)</p>",
                "value": 30
            }
        },
        "creatureType": "",
        "details": {
            "description": "<p>Warding magic attempts to trap intruders or would-be thieves in a disrupted time flow.</p>",
            "disable": "<p>Thievery DC 38 (legendary) to rapidly disassemble the spell's myriad components in a single blink of an eye; or <i>dispel magic </i>(9th level; counteract DC 36) to counteract the trap before it triggers or to counteract the effect on one creature after the trap is triggered</p>",
            "isComplex": false,
            "level": {
                "value": 17
            },
            "reset": "",
            "routine": ""
        },
        "saves": {
            "fortitude": {
                "saveDetail": "",
                "value": 0
            },
            "reflex": {
                "saveDetail": "",
                "value": 0
            },
            "will": {
                "saveDetail": "",
                "value": 0
            }
        },
        "source": {
            "value": "Pathfinder Core Rulebook"
        },
        "statusEffects": [],
        "traits": {
            "ci": [],
            "di": {
                "custom": "",
                "selected": {},
                "value": []
            },
            "dr": [],
            "dv": [],
            "rarity": "common",
            "size": {
                "value": "med"
            },
            "traits": {
                "custom": "",
                "value": [
                    "magical"
                ]
            }
        }
    },
    "effects": [],
    "flags": {},
    "img": "systems/pf2e/icons/default-icons/hazard.svg",
    "items": [
        {
            "_id": "SoObyOgEreU0KLDs",
            "data": {
                "actionCategory": {
                    "value": ""
                },
                "actionType": {
                    "value": "reaction"
                },
                "actions": {
                    "value": null
                },
                "description": {
                    "value": "<p data-visibility=\"gm\"><strong>Trigger</strong> A creature touches the warded object or area.</p>\n<p><strong>Effect</strong> The triggering creature and all creatures within 30 feet are trapped in a disrupted time flow (@Check[type:fortitude|dc:38] negates). The creatures' minds move so quickly that each round seems to last a century, but their bodies and magical energies move so slowly that they can't use any actions except Recall Knowledge. An affected creature must attempt a @Check[type:will|dc:36] saving throw against a <i>warp mind</i> spell immediately and again for every minute of real time that passes while the creature is trapped in the frozen moment. This effect has an unlimited duration but can be counteracted.</p>"
                },
                "requirements": {
                    "value": ""
                },
                "rules": [],
                "slug": null,
                "source": {
                    "value": ""
                },
                "traits": {
                    "custom": "",
                    "rarity": "common",
                    "value": [
                        "occult",
                        "transmutation"
                    ]
                },
                "trigger": {
                    "value": ""
                },
                "weapon": {
                    "value": ""
                }
            },
            "effects": [],
            "flags": {},
            "img": "systems/pf2e/icons/actions/Reaction.webp",
            "name": "Adrift in Time",
            "sort": 100000,
            "type": "action"
        }
    ],
    "name": "Frozen Moment",
    "token": {
        "disposition": 0,
        "height": 1,
        "img": "systems/pf2e/icons/default-icons/hazard.svg",
        "name": "Frozen Moment",
        "width": 1
    },
    "type": "hazard"
}
