{
    "_id": "4L38nr9t17thMZrB",
    "data": {
        "attributes": {
            "ac": {
                "value": 31
            },
            "hardness": 20,
            "hasHealth": true,
            "hp": {
                "details": "",
                "max": 80,
                "temp": 0,
                "tempmax": 0,
                "value": 80
            },
            "stealth": {
                "details": "<p>(expert) or DC 30 (expert) to notice the three launching mechanisms built into the wall</p>",
                "value": 20
            }
        },
        "creatureType": "",
        "details": {
            "description": "<p>Three launching mechanisms built into the mudbrick walls expel darts containing acidic chemicals. All three launching mechanisms must be disabled or destroyed to deactivate the trap.</p>",
            "disable": "<p>DC 32 Thievery (master) to sufficiently jam the tubes to make the trap unable to attack creatures in a single 5-foot square in the room, or DC 34 Crafting (master) to alter one of the three launching mechanisms.</p>",
            "isComplex": true,
            "level": {
                "value": 11
            },
            "reset": "<p>The trap deactivates and resets 1 minute after no creatures are in area C7</p>",
            "routine": "[[3-actions]] The trap uses each action for a caustic dart Strike. The trap loses 1 action for each launching mechanism that is broken or destroyed."
        },
        "saves": {
            "fortitude": {
                "saveDetail": "",
                "value": 24
            },
            "reflex": {
                "saveDetail": "",
                "value": 15
            },
            "will": {
                "saveDetail": "",
                "value": 0
            }
        },
        "source": {
            "value": "Pathfinder #153: Life's Long Shadows"
        },
        "statusEffects": [],
        "traits": {
            "ci": [],
            "di": {
                "custom": "",
                "selected": {},
                "value": [
                    "critical-hits",
                    "object-immunities",
                    "precision"
                ]
            },
            "dr": [],
            "dv": [],
            "rarity": "common",
            "size": {
                "value": "med"
            },
            "traits": {
                "custom": "",
                "value": [
                    "mechanical"
                ]
            }
        }
    },
    "effects": [],
    "flags": {},
    "img": "systems/pf2e/icons/default-icons/hazard.svg",
    "items": [
        {
            "_id": "MEvSBSRMvbzou7sj",
            "data": {
                "actionCategory": {
                    "value": ""
                },
                "actionType": {
                    "value": "reaction"
                },
                "actions": {
                    "value": null
                },
                "description": {
                    "value": "<p data-visibility=\"gm\"><strong>Trigger</strong> A creature reaches the midpoint of the hall</p>\n<p><strong>Effect</strong> The trap makes an acid dart against three different random creatures in the hall. The trap then rolls initiative.</p>"
                },
                "requirements": {
                    "value": ""
                },
                "rules": [],
                "slug": null,
                "source": {
                    "value": ""
                },
                "traits": {
                    "custom": "",
                    "rarity": "common",
                    "value": [
                        "attack"
                    ]
                },
                "trigger": {
                    "value": ""
                },
                "weapon": {
                    "value": ""
                }
            },
            "effects": [],
            "flags": {},
            "img": "systems/pf2e/icons/actions/Reaction.webp",
            "name": "Dart Barrage",
            "sort": 100000,
            "type": "action"
        },
        {
            "_id": "lnChTLzpk1PEBJ0E",
            "data": {
                "attack": {
                    "value": ""
                },
                "attackEffects": {
                    "value": []
                },
                "bonus": {
                    "value": 28
                },
                "damageRolls": {
                    "3ln4roi2dzrzhqf6m82i0s": {
                        "damage": "2d4+5",
                        "damageType": "piercing"
                    },
                    "tutd4l57u3mxyyf770o87j": {
                        "damage": "4d4+8",
                        "damageType": "acid"
                    }
                },
                "description": {
                    "value": ""
                },
                "rules": [],
                "slug": null,
                "source": {
                    "value": ""
                },
                "traits": {
                    "custom": "",
                    "rarity": "common",
                    "value": []
                },
                "weaponType": {
                    "value": "ranged"
                }
            },
            "effects": [],
            "flags": {},
            "img": "systems/pf2e/icons/default-icons/melee.svg",
            "name": "Caustic Dart",
            "sort": 200000,
            "type": "melee"
        }
    ],
    "name": "Caustic Dart Trap",
    "token": {
        "disposition": 0,
        "height": 1,
        "img": "systems/pf2e/icons/default-icons/hazard.svg",
        "name": "Caustic Dart Trap",
        "width": 1
    },
    "type": "hazard"
}
