{
    "_id": "kWc1fhmv9LBiTuei",
    "data": {
        "active": true,
        "alsoApplies": {
            "linked": [
                {
                    "condition": "Flat-Footed"
                },
                {
                    "condition": "Immobilized"
                }
            ],
            "unlinked": []
        },
        "base": "Grabbed",
        "description": {
            "value": "<p>You're held in place by another creature, giving you the @Compendium[pf2e.conditionitems.Flat-Footed]{Flat-Footed} and @Compendium[pf2e.conditionitems.Immobilized]{Immobilized} conditions. If you attempt a manipulate action while grabbed, you must succeed at a @Check[type:flat|dc:5] check or it is lost; roll the check after spending the action, but before any effects are applied.</p>"
        },
        "duration": {
            "perpetual": true,
            "text": "",
            "value": 0
        },
        "group": "",
        "hud": {
            "img": {
                "useStatusName": true,
                "value": "systems/pf2e/icons/conditions-2/grabbed.webp"
            },
            "selectable": true,
            "statusName": "grabbed"
        },
        "modifiers": [],
        "overrides": [],
        "references": {
            "children": [],
            "immunityFrom": [],
            "overriddenBy": [],
            "overrides": []
        },
        "removable": true,
        "rules": [],
        "source": {
            "value": ""
        },
        "sources": {
            "hud": true
        },
        "traits": {
            "custom": "",
            "rarity": "common",
            "value": []
        },
        "value": {
            "immutable": false,
            "isValued": false,
            "modifiers": [],
            "value": null
        }
    },
    "effects": [],
    "flags": {
        "pf2e": {
            "condition": true
        }
    },
    "img": "systems/pf2e/icons/conditions/grabbed.webp",
    "name": "Grabbed",
    "type": "condition"
}
