{
    "_id": "1wQY3JYyhMYeeV2G",
    "data": {
        "active": true,
        "alsoApplies": {
            "linked": [],
            "unlinked": []
        },
        "base": "Observed",
        "description": {
            "value": "<p>Anything in plain view is observed by you. If a creature takes measures to avoid detection, such as by using Stealth to @Compendium[pf2e.actionspf2e.Hide]{Hide}, it can become @Compendium[pf2e.conditionitems.Hidden]{Hidden} or @Compendium[pf2e.conditionitems.Undetected]{Undetected} instead of observed. If you have another precise sense instead of or in addition to sight, you might be able to observe a creature or object using that sense instead. You can observe a creature only with precise senses. When @Compendium[pf2e.actionspf2e.Seek]{Seeking} a creature using only imprecise senses, it remains hidden, rather than observed.</p>"
        },
        "duration": {
            "perpetual": true,
            "text": "",
            "value": 0
        },
        "group": "detection",
        "hud": {
            "img": {
                "useStatusName": true,
                "value": "systems/pf2e/icons/conditions-2/observed.webp"
            },
            "selectable": true,
            "statusName": "observed"
        },
        "modifiers": [],
        "overrides": [],
        "references": {
            "children": [],
            "immunityFrom": [],
            "overriddenBy": [],
            "overrides": []
        },
        "removable": true,
        "rules": [],
        "source": {
            "value": ""
        },
        "sources": {
            "hud": false
        },
        "traits": {
            "custom": "",
            "rarity": "common",
            "value": []
        },
        "value": {
            "immutable": false,
            "isValued": false,
            "modifiers": [],
            "value": null
        }
    },
    "effects": [],
    "flags": {
        "pf2e": {
            "condition": true
        }
    },
    "img": "systems/pf2e/icons/conditions/observed.webp",
    "name": "Observed",
    "type": "condition"
}
