{
    "_id": "idZxjeEv8B3x44r1",
    "content": "<p>You were captured by marauding giants and fought your way free.</p>\n<p>Add the @Compendium[pf2e.feats-srd.Titan Wrestler]{Titan Wrestler} skill feat to your background options</p>",
    "flags": {},
    "name": "Captured by Giants",
    "permission": {
        "default": 0
    }
}
