{
    "_id": "bvhckAGjcCJVs0jn",
    "content": "<p>You were bequeathed great wealth or property at an early age. You retained some of it; add a piece of common adventuring gear worth 15 gp or less to your background options. If you select it instead of a skill feat, you are trained in Society.</p>",
    "flags": {},
    "name": "Claimed an Inheritance",
    "permission": {
        "default": 0
    }
}
