{
    "_id": "nzOpdMVLPhoNTxzR",
    "content": "<p>You and this character were once comrades in military service, and you trained yourself and this character to improve your physical fitness.</p>\n<p>Add the @Compendium[pf2e.feats-srd.Assurance]{Assurance} skill feat for Athletics to your background options</p>",
    "flags": {},
    "name": "Comrade-in-Arms",
    "permission": {
        "default": 0
    }
}
