{
    "_id": "IJ3nFDu2YcoP6ynd",
    "content": "<p>You gain a permanent +4 status bonus to Diplomacy checks, and you now own a small castle in any open area you wish. You must choose its location within 1 hour.</p>\n<p>@Compendium[pf2e.equipment-effects.Effect: Throne Card]{Effect: Throne Card}</p>",
    "flags": {},
    "name": "Throne",
    "permission": {
        "default": 0
    }
}
