{
    "_id": "xbyQ1RAF6x4ceXLf",
    "data": {
        "boosts": {
            "0": {
                "value": [
                    "con"
                ]
            },
            "1": {
                "value": [
                    "cha",
                    "con",
                    "dex",
                    "int",
                    "str",
                    "wis"
                ]
            }
        },
        "description": {
            "value": "<p>Exposure to a significant magical event overloaded you with magical energy. Perhaps you were exposed to dangerous levels of magical energy that left you near death, or it built up over long-term exposure to a powerful source of magic.</p>\n<p>Choose two ability boosts. One must be <strong>Constitution</strong> and one is a free ability boost.</p>\n<p>Your innate magical trait is primal. Choose acid, cold, electricity, fire, force, negative, positive, or sonic. You are trained in a Lore skill associated with the chosen energy (such as Fire Lore) and you gain resistance to that energy type equal to half your level (minimum 1).</p>"
        },
        "items": {},
        "rules": [
            {
                "choices": [
                    {
                        "label": "PF2E.TraitAcid",
                        "value": "acid"
                    },
                    {
                        "label": "PF2E.TraitCold",
                        "value": "cold"
                    },
                    {
                        "label": "PF2E.TraitElectricity",
                        "value": "electricity"
                    },
                    {
                        "label": "PF2E.TraitFire",
                        "value": "fire"
                    },
                    {
                        "label": "PF2E.TraitForce",
                        "value": "force"
                    },
                    {
                        "label": "PF2E.TraitNegative",
                        "value": "negative"
                    },
                    {
                        "label": "PF2E.TraitPositive",
                        "value": "positive"
                    },
                    {
                        "label": "PF2E.TraitSonic",
                        "value": "sonic"
                    }
                ],
                "flag": "backgroundEnergyScarred",
                "key": "ChoiceSet"
            },
            {
                "key": "Resistance",
                "type": "{item|flags.pf2e.rulesSelections.backgroundEnergyScarred}",
                "value": "max(1,floor(@actor.level/2))"
            }
        ],
        "source": {
            "value": "Pathfinder Secrets of Magic"
        },
        "trainedLore": "Lore associated with the chosen energy",
        "trainedSkills": {
            "value": []
        },
        "traits": {
            "custom": "",
            "rarity": "rare",
            "value": []
        }
    },
    "effects": [],
    "flags": {},
    "img": "systems/pf2e/icons/default-icons/background.svg",
    "name": "Energy Scarred",
    "type": "background"
}
