{
    "_id": "1M91pTjatEejBjEl",
    "data": {
        "boosts": {
            "0": {
                "value": [
                    "dex",
                    "str"
                ]
            },
            "1": {
                "value": [
                    "cha",
                    "con",
                    "dex",
                    "int",
                    "str",
                    "wis"
                ]
            }
        },
        "description": {
            "value": "<p>Your life truly began after your first kill. Maybe you killed in self-defense, maybe it was a crime of passion, or maybe it was just an accident and you were a kid in the wrong place at the wrong time. In the end, the why doesn't matter. You got away with it. And then you found that maybe it didn't bother you as much as it should have. And maybe, just maybe, you had a talent you could use to forge a life for yourself. A blood-soaked talent and a blood-soaked life, sure. But it's yours.</p>\n<p>Choose two ability boosts. One boost must be to <strong>Strength</strong> or <strong>Dexterity</strong>, and one is a free ability boost.</p>\n<p>You're trained in the Stealth skill and the Underworld Lore skill. You gain the @Compendium[pf2e.feats-srd.Terrain Stalker]{Terrain Stalker} skill feat, choosing a terrain appropriate for where you make your kills.</p>"
        },
        "items": {
            "p53i3": {
                "id": "beyw5bdA5hkQbmaG",
                "img": "systems/pf2e/icons/features/feats/feats.webp",
                "level": 1,
                "name": "Terrain Stalker",
                "pack": "pf2e.feats-srd"
            }
        },
        "rules": [],
        "source": {
            "value": ""
        },
        "trainedLore": "Underworld",
        "trainedSkills": {
            "custom": "",
            "value": [
                "ste"
            ]
        },
        "traits": {
            "custom": "",
            "rarity": "common",
            "value": []
        }
    },
    "effects": [],
    "flags": {},
    "img": "systems/pf2e/icons/default-icons/background.svg",
    "name": "Hired Killer",
    "type": "background"
}
