{
    "_id": "T537wo3aem8GvnmR",
    "data": {
        "boosts": {
            "0": {
                "value": [
                    "dex",
                    "wis"
                ]
            },
            "1": {
                "value": [
                    "cha",
                    "con",
                    "dex",
                    "int",
                    "str",
                    "wis"
                ]
            }
        },
        "description": {
            "value": "<p>Some time ago, you stole a unique item from a strange individual. It might have been a piece of clockwork from a far-off land or some other bit of strange technology. You might still have it or you might have sold it, but either way, you can't shake the feeling that you're being followed and watched, likely by forces who want to retrieve what you took. Luckily, a life of adventure keeps you on the move.</p>\n<p>Choose two ability boosts. One must be to <strong>Dexterity</strong> or <strong>Wisdom</strong>, and one is a free ability boost.</p>\n<p>You're trained in the Thievery skill and the Underworld Lore skill. You gain the @Compendium[pf2e.feats-srd.Pickpocket]{Pickpocket} skill feat.</p>"
        },
        "items": {
            "l8gqm": {
                "id": "jDdOqFmZLwE4dblQ",
                "img": "systems/pf2e/icons/features/feats/feats.webp",
                "level": 1,
                "name": "Pickpocket",
                "pack": "pf2e.feats-srd"
            }
        },
        "rules": [],
        "source": {
            "value": "Pathfinder Guns & Gears"
        },
        "trainedLore": "Underworld",
        "trainedSkills": {
            "custom": "",
            "value": [
                "thi"
            ]
        },
        "traits": {
            "custom": "",
            "rarity": "common",
            "value": []
        }
    },
    "effects": [],
    "flags": {},
    "img": "systems/pf2e/icons/default-icons/background.svg",
    "name": "Hounded Thief",
    "type": "background"
}
