{
    "_id": "EYPorNgoYcp37akm",
    "data": {
        "boosts": {
            "0": {
                "value": [
                    "dex",
                    "int"
                ]
            },
            "1": {
                "value": [
                    "cha",
                    "con",
                    "dex",
                    "int",
                    "str",
                    "wis"
                ]
            }
        },
        "description": {
            "value": "<p>You don't understand folks who claim that magical talent is some sort of burden or great responsibility; you've always used your magic to cause trouble and to escape the consequences. Whether becoming an adventurer is your attempt to make amends or just a new way to make some mischief, you're excited to see where it takes you, and you still delight in using your skills to get out of trouble.</p>\n<p>Choose two ability boosts. One must be to <strong>Intelligence</strong> or <strong>Dexterity</strong>, and one is a free ability boost.</p>\n<p>You're trained in Arcana and Underworld Lore. You gain the @Compendium[pf2e.feats-srd.Trick Magic Item]{Trick Magic Item} skill feat.</p>"
        },
        "items": {
            "lu6zt": {
                "id": "uR62fVC9FyQAMCO1",
                "img": "systems/pf2e/icons/features/feats/feats.webp",
                "level": 1,
                "name": "Trick Magic Item",
                "pack": "pf2e.feats-srd"
            }
        },
        "rules": [],
        "source": {
            "value": "Pathfinder Secrets of Magic"
        },
        "trainedLore": "Underworld Lore",
        "trainedSkills": {
            "custom": "",
            "value": [
                "arc"
            ]
        },
        "traits": {
            "custom": "",
            "rarity": "common",
            "value": []
        }
    },
    "effects": [],
    "flags": {},
    "img": "systems/pf2e/icons/default-icons/background.svg",
    "name": "Magical Misfit",
    "type": "background"
}
