{
    "_id": "vHeP960qjhfob4Je",
    "data": {
        "boosts": {
            "0": {
                "value": [
                    "int",
                    "wis"
                ]
            },
            "1": {
                "value": [
                    "cha",
                    "con",
                    "dex",
                    "int",
                    "str",
                    "wis"
                ]
            }
        },
        "description": {
            "value": "<p>You've made a living sorting through the things society throws away. You might have scavenged simply to survive, or plied a trade as a ragpicker, dung carter, or the like. While you've left that life behind, you still keep one eye on the ground out of habit.</p>\n<p>Choose two ability boosts. One must be to <strong>Intelligence</strong> or <strong>Wisdom</strong>, and one is a free ability boost.</p>\n<p>You're trained in the Survival skill and the Lore skill for the settlement you grew up scavenging in. You gain the @Compendium[pf2e.feats-srd.Forager]{Forager} skill feat.</p>"
        },
        "items": {
            "y8g6e": {
                "id": "8qebBeOJsyRIchcu",
                "img": "systems/pf2e/icons/features/feats/feats.webp",
                "level": "1",
                "name": "Forager",
                "pack": "pf2e.feats-srd"
            }
        },
        "rules": [],
        "source": {
            "value": "Pathfinder Advanced Player's Guide"
        },
        "trainedLore": "<City> Lore",
        "trainedSkills": {
            "value": [
                "sur"
            ]
        },
        "traits": {
            "custom": "",
            "rarity": "common",
            "value": []
        }
    },
    "effects": [],
    "flags": {},
    "img": "systems/pf2e/icons/default-icons/background.svg",
    "name": "Scavenger",
    "type": "background"
}
