{
    "_id": "fzrXTLDPu3P06joW",
    "data": {
        "boosts": {
            "0": {
                "value": [
                    "cha",
                    "int"
                ]
            },
            "1": {
                "value": [
                    "cha",
                    "con",
                    "dex",
                    "int",
                    "str",
                    "wis"
                ]
            }
        },
        "description": {
            "value": "<p>Several members of your family have studied at the Magaambya, although not all of them have graduated as lore-speakers (or even advanced past initiates to become attendants). Your family has decided that you're an excellent candidate to join their ranks. Although lore-speakers of the Magaambya know they are supported by the strength of thousands of graduates who have come before them, you can take the smaller, more personal comfort in the support of your family.</p>\n<p>Choose two ability boosts. One must be to <strong>Intelligence</strong> or <strong>Charisma</strong>, and one is a free ability boost.</p>\n<p>You're trained in the Society skill. You gain the @Compendium[pf2e.feats-srd.Eye For Numbers]{Eye For Numbers} skill feat. You're also trained in Magaambya Lore.</p>\n<p>Your recommended primary branch is the Uzunjati.</p>"
        },
        "items": {
            "9hxie": {
                "id": "0N8TtGSk5enoLBZ8",
                "img": "systems/pf2e/icons/features/feats/feats.webp",
                "level": 1,
                "name": "Eye For Numbers",
                "pack": "pf2e.feats-srd"
            }
        },
        "rules": [],
        "source": {
            "value": "Strength of Thousands Player's Guide"
        },
        "trainedLore": "Magaambya Lore",
        "trainedSkills": {
            "custom": "",
            "value": [
                "soc"
            ]
        },
        "traits": {
            "custom": "",
            "rarity": "uncommon",
            "value": []
        }
    },
    "effects": [],
    "flags": {},
    "img": "systems/pf2e/icons/default-icons/background.svg",
    "name": "Sponsored by Family (Society)",
    "type": "background"
}
