{
    "_id": "9IwSktj0Xj7A2Ruh",
    "data": {
        "baseItem": null,
        "brokenThreshold": {
            "value": 0
        },
        "bulkCapacity": {
            "value": ""
        },
        "collapsed": {
            "value": false
        },
        "containerId": {
            "value": ""
        },
        "description": {
            "value": "<p>These gem-studded golden anklets give you a +3 item bonus to Acrobatics checks. When you invest the anklets, you either increase your Dexterity score by 2 or increase it to 18, whichever would give you a higher score.</p>\n<hr />\n<p><strong>Activate</strong> <span class=\"pf2-icon\">A</span> Interact</p>\n<p><strong>Frequency</strong> once per day</p>\n<p><strong>Effect</strong> You click the anklets together, gaining a +20-foot status bonus to all your Speeds and the effects of <em>@Compendium[pf2e.spells-srd.Water Walk]{Water Walk}</em> for the next 10 minutes.</p>\n<p>@Compendium[pf2e.equipment-effects.Effect: Anklets of Alacrity]{Effect: Anklets of Alacrity}</p>\n<hr />\n<p>Automatically applied effects:</p>\n<ul>\n<li>+3 item bonus to Acrobatics</li>\n</ul>"
        },
        "equipped": {
            "value": false
        },
        "equippedBulk": {
            "value": ""
        },
        "hardness": {
            "value": 0
        },
        "hp": {
            "value": 0
        },
        "identification": {
            "misidentified": {},
            "status": "identified",
            "unidentified": {
                "data": {
                    "description": {
                        "value": ""
                    }
                },
                "img": "",
                "name": ""
            }
        },
        "invested": {
            "value": false
        },
        "level": {
            "value": 17
        },
        "maxHp": {
            "value": 0
        },
        "negateBulk": {
            "value": "0"
        },
        "preciousMaterial": {
            "value": ""
        },
        "preciousMaterialGrade": {
            "value": ""
        },
        "price": {
            "value": "15000 gp"
        },
        "quantity": {
            "value": 1
        },
        "rules": [
            {
                "key": "FlatModifier",
                "label": "Anklets of Alacrity",
                "selector": "acrobatics",
                "type": "item",
                "value": 3
            },
            {
                "key": "ActiveEffectLike",
                "mode": "add",
                "path": "data.abilities.dex.value",
                "value": 2
            },
            {
                "key": "ActiveEffectLike",
                "mode": "upgrade",
                "path": "data.abilities.dex.value",
                "value": 18
            }
        ],
        "size": {
            "value": "med"
        },
        "source": {
            "value": "Pathfinder Core Rulebook"
        },
        "stackGroup": {
            "value": ""
        },
        "traits": {
            "custom": "",
            "rarity": "common",
            "value": [
                "apex",
                "invested",
                "magical",
                "transmutation"
            ]
        },
        "usage": {
            "value": "wornanklets"
        },
        "weight": {
            "value": "-"
        }
    },
    "effects": [],
    "flags": {},
    "img": "systems/pf2e/icons/equipment/worn-items/apex-items/anklets-of-alacrity.webp",
    "name": "Anklets of Alacrity",
    "type": "equipment"
}
