{
    "_id": "i9hF185TRK0cH8B4",
    "data": {
        "baseItem": null,
        "brokenThreshold": {
            "value": 0
        },
        "bulkCapacity": {
            "value": ""
        },
        "collapsed": {
            "value": false
        },
        "containerId": {
            "value": null
        },
        "description": {
            "value": "<p>A <em>demolishing</em> weapon is made to destroy constructs. Damage inflicted on a construct with a demolishing weapon continues to spread throughout the creature-cracks form, linkages fail, surfaces erode-and otherwise dismantle its body. When you damage a construct using a <em>demolishing</em> weapon, you deal an extra [[/r {1d6}[persistent,force]]] @Compendium[pf2e.conditionitems.Persistent Damage]{Persistent Force Damage}. On a critical hit, you deal an extra [[/r {1d12}[persistent,force]]] @Compendium[pf2e.conditionitems.Persistent Damage]{Persistent Force Damage} instead</p>"
        },
        "equipped": {
            "value": false
        },
        "equippedBulk": {
            "value": ""
        },
        "hardness": {
            "value": 0
        },
        "hp": {
            "value": 0
        },
        "identification": {
            "misidentified": {},
            "status": "identified",
            "unidentified": {
                "data": {
                    "description": {
                        "value": ""
                    }
                },
                "img": "",
                "name": ""
            }
        },
        "invested": {
            "value": null
        },
        "level": {
            "value": 6
        },
        "maxHp": {
            "value": 0
        },
        "negateBulk": {
            "value": "0"
        },
        "preciousMaterial": {
            "value": null
        },
        "preciousMaterialGrade": {
            "value": null
        },
        "price": {
            "value": "225 gp"
        },
        "quantity": {
            "value": 1
        },
        "rules": [],
        "size": {
            "value": "med"
        },
        "source": {
            "value": "Pathfinder Special: Fumbus!"
        },
        "stackGroup": {
            "value": ""
        },
        "traits": {
            "custom": "",
            "rarity": "rare",
            "value": [
                "evocation",
                "magical"
            ]
        },
        "usage": {
            "value": "etched-onto-a-weapon"
        },
        "weight": {
            "value": "-"
        }
    },
    "effects": [],
    "flags": {},
    "img": "systems/pf2e/icons/equipment/consumables/other-consumables/runestone.webp",
    "name": "Demolishing",
    "type": "equipment"
}
