{
    "_id": "TO8UvbBy1NfVbrdB",
    "data": {
        "MAP": {
            "value": ""
        },
        "baseItem": "trident",
        "bonus": {
            "value": 0
        },
        "bonusDamage": {
            "value": 0
        },
        "brokenThreshold": {
            "value": 0
        },
        "bulkCapacity": {
            "value": ""
        },
        "category": "martial",
        "collapsed": {
            "value": false
        },
        "containerId": {
            "value": ""
        },
        "damage": {
            "damageType": "piercing",
            "dice": 1,
            "die": "d8",
            "value": ""
        },
        "description": {
            "value": "<p>This <em>+1 striking returning trident</em> is made of an ancient black metal that glistens unnaturally and is cold to the touch. The prongs of this trident drip with metallic lake water. Strikes with the <em>Devil's Trident</em> trigger the weaknesses of any creature with a weakness to water.</p>\n<p><strong>Activate</strong> <span class=\"pf2-icon\">r</span> Command</p>\n<p><strong>Trigger</strong> You critically hit a creature</p>\n<p><strong>Effect</strong> The target must succeed at a @Check[type:fortitude|dc:25|traits:disease,virulent] save or become infected with sewer haze.</p>\n<hr />\n<p><strong>Activate</strong> <span class=\"pf2-icon\">2</span> envision, Interact</p>\n<p><strong>Frequency</strong> once per hour</p>\n<p><strong>Effect</strong> The trident casts 3rd-level <em>@Compendium[pf2e.spells-srd.Quench]{Quench}</em> with a DC of 25 and a counteract modifier of [[/r 1d20+15 #Quench Counteract Modifier]]{+15}. You can Sustain the Spell as normal.</p>\n<hr />\n<p><strong>Activate</strong> <span class=\"pf2-icon\">3</span> envision, Interact</p>\n<p><strong>Frequency</strong> once per day</p>\n<p><strong>Effect</strong> You call upon the corrupted power of the trident to stay a foe. Attempt a Strike. On a hit, the trident casts 3rd-level <em>@Compendium[pf2e.spells-srd.Paralyze]{Paralyze}</em> on the target (DC 25). If the Strike was a critical hit, the target is @Compendium[pf2e.conditionitems.Stunned]{Stunned 1} even if it critically succeeds at the save.</p>"
        },
        "equipped": {
            "value": false
        },
        "equippedBulk": {
            "value": ""
        },
        "group": "spear",
        "hands": {
            "value": ""
        },
        "hardness": {
            "value": 0
        },
        "hp": {
            "value": 0
        },
        "identification": {
            "misidentified": {},
            "status": "identified",
            "unidentified": {
                "data": {
                    "description": {
                        "value": ""
                    }
                },
                "img": "",
                "name": ""
            }
        },
        "invested": {
            "value": false
        },
        "level": {
            "value": 9
        },
        "maxHp": {
            "value": 0
        },
        "negateBulk": {
            "value": "0"
        },
        "potencyRune": {
            "value": 1
        },
        "preciousMaterial": {
            "value": null
        },
        "preciousMaterialGrade": {
            "value": null
        },
        "price": {
            "value": "100 gp"
        },
        "property1": {
            "critDamage": "",
            "critDamageType": "",
            "critDice": null,
            "critDie": "",
            "criticalConditionType": "",
            "criticalConditionValue": null,
            "damageType": "",
            "dice": null,
            "die": "",
            "strikeConditionType": "",
            "strikeConditionValue": null,
            "value": ""
        },
        "propertyRune1": {
            "value": "returning"
        },
        "propertyRune2": {
            "value": null
        },
        "propertyRune3": {
            "value": null
        },
        "propertyRune4": {
            "value": null
        },
        "quantity": {
            "value": 1
        },
        "range": null,
        "reload": {
            "value": ""
        },
        "rules": [],
        "size": {
            "value": "med"
        },
        "source": {
            "value": "Pathfinder Lost Omens: Monsters of Myth"
        },
        "specific": {
            "material": null,
            "runes": {
                "potency": 1,
                "striking": "striking"
            },
            "value": true
        },
        "splashDamage": {
            "value": 0
        },
        "stackGroup": {
            "value": ""
        },
        "strikingRune": {
            "value": "striking"
        },
        "traits": {
            "custom": "",
            "rarity": "unique",
            "value": [
                "thrown-20"
            ]
        },
        "usage": {
            "value": "held-in-one-hand"
        },
        "weight": {
            "value": "1"
        }
    },
    "effects": [],
    "flags": {},
    "img": "systems/pf2e/icons/equipment/weapons/trident.webp",
    "name": "Devil's Trident",
    "type": "weapon"
}
