{
    "_id": "rh4T08EsddrwfHcs",
    "data": {
        "armor": {
            "value": 1
        },
        "baseItem": null,
        "brokenThreshold": {
            "value": 12
        },
        "bulkCapacity": {
            "value": ""
        },
        "category": "shield",
        "check": {
            "value": 0
        },
        "collapsed": {
            "value": false
        },
        "containerId": {
            "value": null
        },
        "description": {
            "value": "<p>A spiked glove is attached to the front of this <em>buckler</em>, functioning as <em>+1 striking shield spikes</em>. Perforations and slits line the defensive side, shining bright light through them when the item's magic is activated.</p>\n<hr />\n<p><strong>Activate</strong> <span class=\"pf2-icon\">2</span> envision</p>\n<p><strong>Frequency</strong> once per hour</p>\n<p><strong>Effect</strong> You activate the shield's inner light. Attempt a melee Strike with the duelist's beacon. On a hit, the target must succeed at a @Check[type:fortitude|dc:22|name:Duelist's Beacon Blinding Light] save or be @Compendium[pf2e.conditionitems.Blinded]{Blinded} for 1 round. On a critical hit, the target uses the result one degree of success worse than it rolled for its Fortitude save.</p>\n<table class=\"pf2-table\">\n<thead>\n<tr>\n<th>Hardness</th>\n<th>HP</th>\n<th>BT</th>\n</tr>\n</thead>\n<tbody>\n<tr>\n<td>6</td>\n<td>24</td>\n<td>12</td>\n</tr>\n</tbody>\n</table>"
        },
        "dex": {
            "value": 0
        },
        "equipped": {
            "value": false
        },
        "equippedBulk": {
            "value": ""
        },
        "group": null,
        "hardness": {
            "value": 6
        },
        "hp": {
            "value": 24
        },
        "identification": {
            "misidentified": {},
            "status": "identified",
            "unidentified": {
                "data": {
                    "description": {
                        "value": ""
                    }
                },
                "img": "",
                "name": ""
            }
        },
        "invested": {
            "value": null
        },
        "level": {
            "value": 8
        },
        "maxHp": {
            "value": 24
        },
        "negateBulk": {
            "value": "0"
        },
        "potencyRune": {
            "value": 0
        },
        "preciousMaterial": {
            "value": null
        },
        "preciousMaterialGrade": {
            "value": null
        },
        "price": {
            "value": "450 gp"
        },
        "propertyRune1": {
            "value": ""
        },
        "propertyRune2": {
            "value": ""
        },
        "propertyRune3": {
            "value": ""
        },
        "propertyRune4": {
            "value": ""
        },
        "quantity": {
            "value": 1
        },
        "resiliencyRune": {
            "value": ""
        },
        "rules": [],
        "size": {
            "value": "med"
        },
        "source": {
            "value": "Pathfinder Lost Omens: The Grand Bazaar"
        },
        "speed": {
            "value": 0
        },
        "stackGroup": {
            "value": ""
        },
        "strength": {
            "value": 0
        },
        "traits": {
            "custom": "",
            "rarity": "uncommon",
            "value": [
                "evocation",
                "light",
                "magical"
            ]
        },
        "usage": {
            "value": "held-in-one-hand"
        },
        "weight": {
            "value": "L"
        }
    },
    "effects": [],
    "flags": {},
    "img": "systems/pf2e/icons/default-icons/armor.svg",
    "name": "Duelist's Beacon",
    "type": "armor"
}
