{
    "_id": "HEvuhktgeFXdlDKm",
    "data": {
        "baseItem": null,
        "brokenThreshold": {
            "value": 0
        },
        "bulkCapacity": {
            "value": "5"
        },
        "capacity": {
            "type": "weight",
            "value": 0,
            "weightless": false
        },
        "collapsed": {
            "value": false
        },
        "containerId": {
            "value": null
        },
        "currency": {
            "cp": 0,
            "gp": 0,
            "pp": 0,
            "sp": 0
        },
        "description": {
            "value": "<p>Granted by @Compendium[pf2e.feats-srd.Extradimensional Stash]{Extradimensional Stash}</p>\n<p>When you perform sleight of hand, you fold space so that objects really do disappear. You create a small extradimensional space somewhere within in your clothing that can hold up to 5 Bulk worth of objects. The space functions as a bag of holding, but can hold only up to 5 Bulk, has no Bulk of its own, and can be Interacted with using only one hand.</p>\n<p>In addition, when you Palm an Object, you can place it directly into this extradimensional space as long as the space has sufficient free space to hold the object.</p>"
        },
        "equipped": {
            "value": false
        },
        "equippedBulk": {
            "value": ""
        },
        "hardness": {
            "value": 0
        },
        "hp": {
            "value": 0
        },
        "identification": {
            "misidentified": {},
            "status": "identified",
            "unidentified": {
                "data": {
                    "description": {
                        "value": ""
                    }
                },
                "img": "",
                "name": ""
            }
        },
        "level": {
            "value": 20
        },
        "maxHp": {
            "value": 0
        },
        "negateBulk": {
            "value": "0"
        },
        "preciousMaterial": {
            "value": null
        },
        "preciousMaterialGrade": {
            "value": null
        },
        "price": {
            "value": "0 gp"
        },
        "quantity": {
            "value": 1
        },
        "rules": [],
        "size": {
            "value": "med"
        },
        "source": {
            "value": "Pathfinder #168: King of the Mountain"
        },
        "stackGroup": {
            "value": ""
        },
        "stowing": true,
        "traits": {
            "custom": "",
            "rarity": "uncommon",
            "value": [
                "extradimensional"
            ]
        },
        "usage": {
            "value": "worn"
        },
        "weight": {
            "value": "-"
        }
    },
    "effects": [],
    "flags": {},
    "img": "systems/pf2e/icons/default-icons/backpack.svg",
    "name": "Extradimensional Stash",
    "type": "backpack"
}
