{
    "_id": "LfiGXU03Khb1o6fs",
    "data": {
        "baseItem": null,
        "brokenThreshold": {
            "value": 0
        },
        "bulkCapacity": {
            "value": ""
        },
        "collapsed": {
            "value": false
        },
        "containerId": {
            "value": ""
        },
        "description": {
            "value": "<p>These wicked-looking spiked metal wheels fit around the ankles and jingle when the wearer walks, imposing a -1 item penalty on Stealth checks. If used as a weapon, they are treated as a @Compendium[pf2e.equipment-srd.Spiked Gauntlet]{Spiked Gauntlet}.</p>\n<p><strong>Activate</strong> <span class=\"pf2-icon\">A</span> Interact</p>\n<p><strong>Frequency</strong> once per 10 minutes</p>\n<p><strong>Requirements</strong> You are riding a mount</p>\n<p><strong>Effect</strong> You kick both spurs into your mount's flank. Your mount takes [[/r {2d6}[persistent,bleed]]] @Compendium[pf2e.conditionitems.Persistent Damage]{Persistent Bleed Damage} and gains the quickened condition for 1 minute or until the persistent bleed damage ends, whichever comes first. It can use the extra action only to Stride.</p>\n<hr />\n<p>Automatically applied effects:</p>\n<ul>\n<li> -1 item penalty on Stealth checks</li>\n</ul>"
        },
        "equipped": {
            "value": false
        },
        "equippedBulk": {
            "value": ""
        },
        "hardness": {
            "value": 0
        },
        "hp": {
            "value": 0
        },
        "identification": {
            "misidentified": {},
            "status": "identified",
            "unidentified": {
                "data": {
                    "description": {
                        "value": ""
                    }
                },
                "img": "",
                "name": ""
            }
        },
        "invested": {
            "value": false
        },
        "level": {
            "value": 15
        },
        "maxHp": {
            "value": 0
        },
        "negateBulk": {
            "value": "0"
        },
        "preciousMaterial": {
            "value": ""
        },
        "preciousMaterialGrade": {
            "value": ""
        },
        "price": {
            "value": "5,200 gp"
        },
        "quantity": {
            "value": 1
        },
        "rules": [
            {
                "key": "FlatModifier",
                "selector": "stealth",
                "type": "item",
                "value": -1
            }
        ],
        "size": {
            "value": "med"
        },
        "source": {
            "value": "Pathfinder #155: Lord of the Black Sands"
        },
        "stackGroup": {
            "value": ""
        },
        "traits": {
            "custom": "",
            "rarity": "rare",
            "value": [
                "abjuration",
                "magical"
            ]
        },
        "usage": {
            "value": "wornanklets"
        },
        "weight": {
            "value": "L"
        }
    },
    "effects": [],
    "flags": {},
    "img": "systems/pf2e/icons/equipment/worn-items/other-worn-items/heedless-spurs.webp",
    "name": "Heedless Spurs",
    "type": "equipment"
}
