{
    "_id": "O7pgJB6M5UqUZ9Qq",
    "data": {
        "MAP": {
            "value": ""
        },
        "baseItem": "hand-cannon",
        "bonus": {
            "value": 0
        },
        "bonusDamage": {
            "value": 0
        },
        "brokenThreshold": {
            "value": 0
        },
        "bulkCapacity": {
            "value": ""
        },
        "category": "simple",
        "collapsed": {
            "value": false
        },
        "containerId": {
            "value": null
        },
        "damage": {
            "damageType": "piercing",
            "dice": 1,
            "die": "d6",
            "value": ""
        },
        "description": {
            "value": "<p>This <em>+2 greater striking hand cannon</em> is carved and crafted from a single large fang, worn with age and cracked with red lines. The tip of the fang has been filed down, but still leaks black fluid occasionally. It was fashioned from the tooth of the tor linnorm Hyldarf by a half-Ulfen gunsmith from Tian Xia who sought the title of linnorm king. Though the smith failed to slay the linnorm, he did claim the mighty dragon's tooth and fashion it into a magic firearm that still drips warm venom. Hyldarf survived the encounter with her attacker and slew the gunsmith years later, though by then the smith had already bequeathed the weapon to his chosen heir and it was far out of her grasp. The linnorm still searches for her missing tooth, portending potential doom for the weapon's owner.</p>\n<p>The weapon deals an additional [[/r {2d6}[fire]]]{2d6 fire damage} on a successful Strike, plus [[/r {3d10}[persistent,fire]]]{3d10} @Compendium[pf2e.conditionitems.Persistent Damage]{Persistent Fire Damage} on a critical hit. Fire damage dealt by this weapon (including persistent fire damage and damage from Hyldarf's Venom) ignores the target's fire resistance.</p>\n<hr />\n<p><strong>Activate</strong> <span class=\"pf2-icon\">1</span> command, envision</p>\n<p><strong>Frequency</strong> once per day</p>\n<p><strong>Effect</strong> You call upon Hyldarf's power to gain the magic of a linnorm for a brief time. For 1 minute, you gain the effects of @Compendium[pf2e.spells-srd.Fly]{Fly}, @Compendium[pf2e.spells-srd.Freedom of Movement]{Freedom of Movement}, and @Compendium[pf2e.spells-srd.True Seeing]{True Seeing} as well as fire resistance 20.</p>\n<p>@Compendium[pf2e.equipment-effects.Effect: Hyldarf's Fang]{Effect: Hyldarf's Fang}</p>\n<hr />\n<p><strong>Activate</strong> <span class=\"pf2-icon\">1</span> Interact</p>\n<p><strong>Frequency</strong> Once per minute</p>\n<p><strong>Effect</strong> You soak your shot in the fluid of the fang, imbuing it with Hyldarf's venom. The next Strike you make with Hydalf's Fang before the end of your next turn delivers the venom to the target.</p>\n<hr />\n<p><strong>Hyldarf's Venom</strong> (fire, injury, poison)</p>\n<p><strong>Saving Throw</strong> DC 34 @Check[type:fortitude|dc:34|name:Hyldarf's Venom|traits:fire,injury,poison] save</p>\n<p><strong>Maximum Duration</strong> 3 rounds</p>\n<p><strong>Stage 1</strong> [[/r {3d6}[fire]]]{3d6 fire damage} and @Compendium[pf2e.conditionitems.Sickened]{Sickened 1}</p>\n<p><strong>Stage 2</strong> [[/r {6d6}[fire]]]{6d6 fire damage} and @Compendium[pf2e.conditionitems.Sickened]{Sickened 2}.</p>"
        },
        "equipped": {
            "value": false
        },
        "equippedBulk": {
            "value": ""
        },
        "group": "firearm",
        "hands": {
            "value": false
        },
        "hardness": {
            "value": 0
        },
        "hp": {
            "value": 0
        },
        "identification": {
            "misidentified": {},
            "status": "identified",
            "unidentified": {
                "data": {
                    "description": {
                        "value": ""
                    }
                },
                "img": "",
                "name": ""
            }
        },
        "invested": {
            "value": null
        },
        "level": {
            "value": 12
        },
        "maxHp": {
            "value": 0
        },
        "negateBulk": {
            "value": "0"
        },
        "potencyRune": {
            "value": 2
        },
        "preciousMaterial": {
            "value": null
        },
        "preciousMaterialGrade": {
            "value": null
        },
        "price": {
            "value": "2000 gp"
        },
        "property1": {
            "critDamage": "",
            "critDamageType": "",
            "critDice": 0,
            "critDie": "",
            "criticalConditionType": "",
            "criticalConditionValue": null,
            "damageType": "",
            "dice": 0,
            "die": "",
            "strikeConditionType": "",
            "strikeConditionValue": null,
            "value": ""
        },
        "propertyRune1": {
            "value": null
        },
        "propertyRune2": {
            "value": null
        },
        "propertyRune3": {
            "value": null
        },
        "propertyRune4": {
            "value": null
        },
        "quantity": {
            "value": 1
        },
        "range": 30,
        "reload": {
            "value": "1"
        },
        "rules": [
            {
                "damageType": "fire",
                "diceNumber": 2,
                "dieSize": "d6",
                "key": "DamageDice",
                "selector": "{item|_id}-damage"
            },
            {
                "key": "Note",
                "outcome": [
                    "criticalSuccess"
                ],
                "selector": "{item|_id}-damage",
                "text": "<p class='compact-text'><strong>Hyldarf's Fang</strong> Hyldarf's Fang also deals [[/r {3d10}[persistent,fire]]]{3d10} @Compendium[pf2e.conditionitems.Persistent Damage]{Persistent Fire Damage} on a critical hit.</p>"
            },
            {
                "key": "Note",
                "selector": "{item|_id}-damage",
                "text": "<p class='compact-text'><strong>Hyldarf's Fang</strong> Fire damage dealt by this weapon (including persistent fire damage and damage from Hyldarf's Venom) ignores the target's fire resistance.</p>"
            }
        ],
        "size": {
            "value": "med"
        },
        "source": {
            "value": "Pathfinder Guns & Gears"
        },
        "specific": {
            "value": false
        },
        "splashDamage": {
            "value": 0
        },
        "stackGroup": {
            "value": ""
        },
        "strikingRune": {
            "value": "greaterStriking"
        },
        "traits": {
            "custom": "",
            "rarity": "uncommon",
            "value": [
                "modular"
            ]
        },
        "usage": {
            "value": "held-in-one-hand"
        },
        "weight": {
            "value": "1"
        }
    },
    "effects": [],
    "flags": {},
    "img": "systems/pf2e/icons/default-icons/weapon.svg",
    "name": "Hyldarf's Fang",
    "type": "weapon"
}
