{
    "_id": "eMDt5vCQztp7cC6B",
    "data": {
        "armor": {
            "value": 2
        },
        "baseItem": null,
        "brokenThreshold": {
            "value": 18
        },
        "bulkCapacity": {
            "value": ""
        },
        "category": "shield",
        "check": {
            "value": 0
        },
        "collapsed": {
            "value": false
        },
        "containerId": {
            "value": ""
        },
        "description": {
            "value": "<p>This steel shield (Hardness 6, HP 36, BT 18) is forged into the shape of a roaring lion's head. The lion's head functions as +1 striking shield boss that can't be removed from the shield.</p>\n<hr />\n<p><strong>Activate</strong> <span class=\"pf2-icon\">A</span> Raise a Shield</p>\n<p><strong>Frequency</strong> once per day</p>\n<p><strong>Effect</strong> You animate the lion's head. You Raise the Shield and make a melee Strike with it as part of the same action.</p>\n<p>The shield's biting maw is a martial melee weapon that deals 2d6 piercing damage and has the deadly 1d6 trait; it can't be enhanced by runes. The shield remains animated for 1 minute, during which time you can Strike with it each time you Raise the Shield, as well as with a Strike action.</p>"
        },
        "dex": {
            "value": 0
        },
        "equipped": {
            "value": false
        },
        "equippedBulk": {
            "value": ""
        },
        "group": null,
        "hardness": {
            "value": 6
        },
        "hp": {
            "value": 36
        },
        "identification": {
            "misidentified": {},
            "status": "identified",
            "unidentified": {
                "data": {
                    "description": {
                        "value": ""
                    }
                },
                "img": "",
                "name": ""
            }
        },
        "invested": {
            "value": false
        },
        "level": {
            "value": 6
        },
        "maxHp": {
            "value": 36
        },
        "negateBulk": {
            "value": "0"
        },
        "potency": {},
        "potencyRune": {
            "value": 0
        },
        "preciousMaterial": {
            "value": null
        },
        "preciousMaterialGrade": {
            "value": null
        },
        "price": {
            "value": "245 gp"
        },
        "propertyRune1": {
            "value": ""
        },
        "propertyRune2": {
            "value": ""
        },
        "propertyRune3": {
            "value": ""
        },
        "propertyRune4": {
            "value": ""
        },
        "quantity": {
            "value": 1
        },
        "resiliencyRune": {
            "value": ""
        },
        "rules": [
            {
                "key": "FlatModifier",
                "label": "Potency Rune",
                "selector": "{item|_id}-attack",
                "type": "item",
                "value": 1
            },
            {
                "category": "martial",
                "damage": {
                    "base": {
                        "damageType": "bludgeoning",
                        "dice": 2,
                        "die": "d6"
                    }
                },
                "group": "shield",
                "key": "Strike",
                "range": null
            },
            {
                "category": "martial",
                "damage": {
                    "base": {
                        "damageType": "piercing",
                        "dice": 2,
                        "die": "d6"
                    }
                },
                "group": "shield",
                "key": "Strike",
                "label": "Lion's Shield (Activation)",
                "predicate": {
                    "all": [
                        "self:shield:raised"
                    ]
                },
                "range": null,
                "traits": [
                    "deadly-d6"
                ]
            }
        ],
        "size": {
            "value": "med"
        },
        "source": {
            "value": "Pathfinder Core Rulebook"
        },
        "speed": {
            "value": 0
        },
        "stackGroup": {
            "value": ""
        },
        "strength": {
            "value": 0
        },
        "traits": {
            "custom": "",
            "rarity": "common",
            "value": [
                "conjuration",
                "magical"
            ]
        },
        "usage": {
            "value": "held-in-one-hand"
        },
        "weight": {
            "value": "1"
        }
    },
    "effects": [],
    "flags": {},
    "img": "systems/pf2e/icons/equipment/shields/specific-shields/lions-shield.webp",
    "name": "Lion's Shield",
    "type": "armor"
}
