{
    "_id": "PeS3J9r4ss7gNytK",
    "data": {
        "armor": {
            "value": 2
        },
        "baseItem": null,
        "brokenThreshold": {
            "value": 32
        },
        "bulkCapacity": {
            "value": ""
        },
        "category": "shield",
        "check": {
            "value": 0
        },
        "collapsed": {
            "value": false
        },
        "containerId": {
            "value": ""
        },
        "description": {
            "value": "<p>Orichalcum shields' time-bending properties are particularly useful for keeping them intact. The first time each day an orichalcum shield would be destroyed, it is instead left with 1 Hit Point and the broken condition.</p>\n<p>The shield has Hardness 16, HP 64, and BT 32.</p>\n<hr />\n<p><strong>Craft Requirements</strong> orichalcum worth at least 6,600 gp</p>"
        },
        "dex": {
            "value": 0
        },
        "equipped": {
            "value": false
        },
        "equippedBulk": {
            "value": ""
        },
        "group": null,
        "hardness": {
            "value": 16
        },
        "hp": {
            "value": 64
        },
        "identification": {
            "misidentified": {},
            "status": "identified",
            "unidentified": {
                "data": {
                    "description": {
                        "value": ""
                    }
                },
                "img": "",
                "name": ""
            }
        },
        "invested": {
            "value": false
        },
        "level": {
            "value": 17
        },
        "maxHp": {
            "value": 64
        },
        "negateBulk": {
            "value": "0"
        },
        "potencyRune": {
            "value": 0
        },
        "preciousMaterial": {
            "value": "orichalcum"
        },
        "preciousMaterialGrade": {
            "value": "high"
        },
        "price": {
            "value": "13,200 gp"
        },
        "propertyRune1": {
            "value": ""
        },
        "propertyRune2": {
            "value": ""
        },
        "propertyRune3": {
            "value": ""
        },
        "propertyRune4": {
            "value": ""
        },
        "quantity": {
            "value": 1
        },
        "resiliencyRune": {
            "value": ""
        },
        "rules": [],
        "size": {
            "value": "med"
        },
        "source": {
            "value": "Pathfinder Core Rulebook"
        },
        "speed": {
            "value": 0
        },
        "stackGroup": {
            "value": ""
        },
        "strength": {
            "value": 0
        },
        "traits": {
            "custom": "",
            "rarity": "rare",
            "value": []
        },
        "usage": {
            "value": "held-in-one-hand"
        },
        "weight": {
            "value": "1"
        }
    },
    "effects": [],
    "flags": {},
    "img": "systems/pf2e/icons/equipment/shields/precious-material-shields/orichalcum-shield.webp",
    "name": "Orichalcum Shield (High-Grade)",
    "type": "armor"
}
