{
    "_id": "ScU1DrBKn0ONHnq4",
    "data": {
        "armor": {
            "value": 0
        },
        "baseItem": null,
        "brokenThreshold": {
            "value": 18
        },
        "bulkCapacity": {
            "value": ""
        },
        "category": "shield",
        "check": {
            "value": 0
        },
        "collapsed": {
            "value": false
        },
        "containerId": {
            "value": null
        },
        "description": {
            "value": "<p>The shield's blue enameled face is cool to the touch, and displays the moon's current phase at night. When you lay your head on the reverse side of this steel shield, it becomes as pliant and supportive as the best pillows. If you complete a period of rest using the pillow shield, you can choose to transfer your recovery to the shield. Instead of recovering a number of Hit Points after resting, the shield is restored an equal number of Hit Points instead.</p>\n<table class=\"pf2-table\">\n<thead>\n<tr>\n<th>Hardness</th>\n<th>HP</th>\n<th>BT</th>\n</tr>\n</thead>\n<tbody>\n<tr>\n<td>6</td>\n<td>36</td>\n<td>18</td>\n</tr>\n</tbody>\n</table>\n<hr />\n<p><strong>Activate</strong> <span class=\"pf2-icon\">2</span> command, envision</p>\n<p><strong>Frequency</strong> once per day</p>\n<p><strong>Effect</strong> The shield creates an area of vigilance. It casts <em>@Compendium[pf2e.spells-srd.Alarm]{Alarm}</em> centered on itself; you decide whether it creates a mental alarm or an audible alarm. The alarm goes off at the end of the spell's duration or when triggered as normal, whichever comes first.</p>"
        },
        "dex": {
            "value": 0
        },
        "equipped": {
            "value": false
        },
        "equippedBulk": {
            "value": ""
        },
        "group": null,
        "hardness": {
            "value": 6
        },
        "hp": {
            "value": 36
        },
        "identification": {
            "misidentified": {},
            "status": "identified",
            "unidentified": {
                "data": {
                    "description": {
                        "value": ""
                    }
                },
                "img": "",
                "name": ""
            }
        },
        "invested": {
            "value": null
        },
        "level": {
            "value": 4
        },
        "maxHp": {
            "value": 36
        },
        "negateBulk": {
            "value": "0"
        },
        "potencyRune": {
            "value": 0
        },
        "preciousMaterial": {
            "value": null
        },
        "preciousMaterialGrade": {
            "value": null
        },
        "price": {
            "value": "80 gp"
        },
        "propertyRune1": {
            "value": ""
        },
        "propertyRune2": {
            "value": ""
        },
        "propertyRune3": {
            "value": ""
        },
        "propertyRune4": {
            "value": ""
        },
        "quantity": {
            "value": 1
        },
        "resiliencyRune": {
            "value": ""
        },
        "rules": [],
        "size": {
            "value": "med"
        },
        "source": {
            "value": "Pathfinder Lost Omens: The Grand Bazaar"
        },
        "speed": {
            "value": 0
        },
        "stackGroup": {
            "value": ""
        },
        "strength": {
            "value": 0
        },
        "traits": {
            "custom": "",
            "rarity": "uncommon",
            "value": [
                "magical",
                "transmutation"
            ]
        },
        "usage": {
            "value": "held-in-one-hand"
        },
        "weight": {
            "value": "-"
        }
    },
    "effects": [],
    "flags": {},
    "img": "systems/pf2e/icons/default-icons/armor.svg",
    "name": "Pillow Shield",
    "type": "armor"
}
