{
    "_id": "Yed5EEEWdJyf2AVX",
    "data": {
        "baseItem": null,
        "brokenThreshold": {
            "value": 0
        },
        "bulkCapacity": {
            "value": ""
        },
        "collapsed": {
            "value": false
        },
        "containerId": {
            "value": null
        },
        "description": {
            "value": "<p>This four-person tent provides several benefits for those who rest within. The climate inside the tent is comfortable and allows creatures inside it to withstand most hostile weather conditions, but incredible heat or cold, powerful storms, and winds of hurricane force or greater can still damage or destroy the tent. Mundane pests such as solitary ordinary insects avoid the tent, though swarms and giant insects can attack the tent as normal. Once you pitch the tent, only you can easily move it; any other creatures must succeed at a @Check[type:athletics|dc:20|name:Move Tent|showDC:all] check to do so. Finally, the tent automatically camouflages with its surroundings, requiring a Searching creature to succeed at a @Check[type:perception|dc:22|name:Spot Camouflaged Tent|showDC:all] check to notice it.</p>"
        },
        "equipped": {
            "value": false
        },
        "equippedBulk": {
            "value": ""
        },
        "hardness": {
            "value": 0
        },
        "hp": {
            "value": 0
        },
        "identification": {
            "misidentified": {},
            "status": "identified",
            "unidentified": {
                "data": {
                    "description": {
                        "value": ""
                    }
                },
                "img": "",
                "name": ""
            }
        },
        "invested": {
            "value": null
        },
        "level": {
            "value": 7
        },
        "maxHp": {
            "value": 0
        },
        "negateBulk": {
            "value": "0"
        },
        "preciousMaterial": {
            "value": null
        },
        "preciousMaterialGrade": {
            "value": null
        },
        "price": {
            "value": "320 gp"
        },
        "quantity": {
            "value": 1
        },
        "rules": [],
        "size": {
            "value": "med"
        },
        "source": {
            "value": "Pathfinder Secrets of Magic"
        },
        "stackGroup": {
            "value": ""
        },
        "traits": {
            "custom": "",
            "rarity": "common",
            "value": [
                "enchantment",
                "magical"
            ]
        },
        "usage": {
            "value": "held-in-one-hand"
        },
        "weight": {
            "value": "1"
        }
    },
    "effects": [],
    "flags": {},
    "img": "systems/pf2e/icons/default-icons/equipment.svg",
    "name": "Restful Tent",
    "type": "equipment"
}
