{
    "_id": "7ynjS9llFg7tPMoj",
    "data": {
        "armor": {
            "value": 0
        },
        "baseItem": "explorers-clothing",
        "brokenThreshold": {
            "value": 0
        },
        "bulkCapacity": {
            "value": ""
        },
        "category": "unarmored",
        "check": {
            "value": 0
        },
        "collapsed": {
            "value": false
        },
        "containerId": {
            "value": ""
        },
        "description": {
            "value": "<p>Embroidered with fine silver thread in ornate arcane patterns, these robes come in one of three colors depending on their attuned alignment. Good robes are white, neutral robes are gray, and evil robes are black. An evil or good robe gains the appropriate trait. The robes benefit only characters who can cast arcane spells and whose alignment on the good-evil axis matches that of the robe. If your alignment does not match that of the robe, or you are not an arcane spellcaster, you are instead stupefied 2 while wearing a robe of the archmagi. This condition can't be removed in any way until you remove the robe.</p>\n<p>The robes are <em>+2 greater resilient explorer's clothing</em>, and they grant a +1 circumstance bonus to saving throws against arcane spells and resistance 10 to damage from arcane spells.</p>\n<hr />\n<p><strong>Activate</strong> <span class=\"pf2-icon\">R</span> command</p>\n<p><strong>Frequency</strong> once per day</p>\n<p><strong>Trigger</strong> You or an ally within 30 feet attempts a saving throw against an arcane spell, but you haven't rolled yet</p>\n<p><strong>Effect</strong> You or the ally automatically succeed at your save against the triggering arcane spell.</p>\n<hr />\n<p><strong>Craft Requirements</strong> You are an arcane spellcaster.</p>\n<hr />\n<p>Automatically applied effects:</p>\n<ul>\n<li>+1 circumstance bonus to saving throws against arcane spells </li>\n</ul>"
        },
        "dex": {
            "value": 5
        },
        "equipped": {
            "value": false
        },
        "equippedBulk": {
            "value": ""
        },
        "group": null,
        "hardness": {
            "value": 0
        },
        "hp": {
            "value": 0
        },
        "identification": {
            "misidentified": {},
            "status": "identified",
            "unidentified": {
                "data": {
                    "description": {
                        "value": ""
                    }
                },
                "img": "",
                "name": ""
            }
        },
        "invested": {
            "value": false
        },
        "level": {
            "value": 19
        },
        "maxHp": {
            "value": 0
        },
        "negateBulk": {
            "value": "0"
        },
        "potencyRune": {
            "value": 2
        },
        "preciousMaterial": {
            "value": ""
        },
        "preciousMaterialGrade": {
            "value": ""
        },
        "price": {
            "value": "32,000 gp"
        },
        "propertyRune1": {
            "value": ""
        },
        "propertyRune2": {
            "value": ""
        },
        "propertyRune3": {
            "value": ""
        },
        "propertyRune4": {
            "value": ""
        },
        "quantity": {
            "value": 1
        },
        "resiliencyRune": {
            "value": "greaterResilient"
        },
        "rules": [
            {
                "key": "FlatModifier",
                "label": "Robe of the Archmagi (against arcane spells)",
                "predicate": {
                    "all": [
                        "arcane"
                    ]
                },
                "selector": "saving-throw",
                "type": "circumstance",
                "value": 1
            }
        ],
        "size": {
            "value": "med"
        },
        "source": {
            "value": "Pathfinder Core Rulebook"
        },
        "speed": {
            "value": 0
        },
        "stackGroup": {
            "value": ""
        },
        "strength": {
            "value": 0
        },
        "traits": {
            "custom": "",
            "rarity": "uncommon",
            "value": [
                "comfort"
            ]
        },
        "usage": {
            "value": "wornarmor"
        },
        "weight": {
            "value": "1"
        }
    },
    "effects": [],
    "flags": {},
    "img": "systems/pf2e/icons/equipment/worn-items/other-worn-items/robe-of-the-archmagi.webp",
    "name": "Robe of the Archmagi (Greater)",
    "type": "armor"
}
