{
    "_id": "y8T7k0kkqxNbMAAD",
    "data": {
        "baseItem": null,
        "brokenThreshold": {
            "value": 0
        },
        "bulkCapacity": {
            "value": ""
        },
        "collapsed": {
            "value": false
        },
        "containerId": {
            "value": null
        },
        "description": {
            "value": "<p>This carved wooden full-head mask sports several holes along each side of the face. The first time each day that you begin your turn unconscious and within 25 feet of an enemy, metallic insect legs emerge from the holes in the mask and Step 15 feet away from the nearest enemy, dragging your body along with the mask. For 1 minute, each time you begin your turn unconscious and within 25 feet of an enemy, the mask Steps 15 feet away from the nearest enemy again. An ally can signal the mask with a single action, which has the auditory and concentrate traits. If the mask hears the signal, it attempts to move you towards that ally when it Steps away from the nearest enemy.</p>\n<p>If more than one enemy is equidistant, the mask Steps away from one of them at random. The mask possesses no special senses and does not react to @Compendium[pf2e.conditionitems.Hidden]{Hidden} or @Compendium[pf2e.conditionitems.Undetected]{Undetected} enemies, nor can it distinguish that a creature not acting openly hostile is an enemy.</p>"
        },
        "equipped": {
            "value": false
        },
        "equippedBulk": {
            "value": ""
        },
        "hardness": {
            "value": 0
        },
        "hp": {
            "value": 0
        },
        "identification": {
            "misidentified": {},
            "status": "identified",
            "unidentified": {
                "data": {
                    "description": {
                        "value": ""
                    }
                },
                "img": "",
                "name": ""
            }
        },
        "invested": {
            "value": null
        },
        "level": {
            "value": 8
        },
        "maxHp": {
            "value": 0
        },
        "negateBulk": {
            "value": "0"
        },
        "preciousMaterial": {
            "value": null
        },
        "preciousMaterialGrade": {
            "value": null
        },
        "price": {
            "value": "500 gp"
        },
        "quantity": {
            "value": 1
        },
        "rules": [],
        "size": {
            "value": "med"
        },
        "source": {
            "value": "Pathfinder #169: Kindled Magic"
        },
        "stackGroup": {
            "value": ""
        },
        "traits": {
            "custom": "",
            "rarity": "uncommon",
            "value": [
                "invested",
                "magical",
                "transmutation"
            ]
        },
        "usage": {
            "value": "wornmask"
        },
        "weight": {
            "value": "1"
        }
    },
    "effects": [],
    "flags": {},
    "img": "systems/pf2e/icons/default-icons/equipment.svg",
    "name": "Skittering Mask (Greater)",
    "type": "equipment"
}
