{
    "_id": "LGbyZ4z6SLRC1cuB",
    "data": {
        "MAP": {
            "value": ""
        },
        "baseItem": null,
        "bonus": {
            "value": 0
        },
        "bonusDamage": {
            "value": 0
        },
        "brokenThreshold": {
            "value": 0
        },
        "bulkCapacity": {
            "value": ""
        },
        "category": "martial",
        "collapsed": {
            "value": false
        },
        "containerId": {
            "value": null
        },
        "damage": {
            "damageType": "poison",
            "dice": 1,
            "die": "d10",
            "value": ""
        },
        "description": {
            "value": "<p>A <em>major spider gun</em> is a <em>+2 greater striking weapon</em>. It's a distinct type of martial firearm made from the fangs and spinneret of a Large spider. It deals [[/r {1d10}[poison]]]{1d10 poison damage} with a range increment of 30 feet and reload 1. On a critical hit, the venom clings to the target and they take @Compendium[pf2e.conditionitems.Persistent Damage]{Persistent Poison Damage} equal to [[/r {1d4+1+@item.data.data.runes.striking}[persistent,poison]]]{1d4 + the number of weapon damage dice}. A <em>spider gun</em> does not add critical specialization effects. The gun can be activated to fire webbing that hampers other creatures.</p>\n<hr />\n<p><strong>Activate</strong> <span class=\"pf2-icon\">1</span> Interact (conjuration, magical)</p>\n<p><strong>Frequency</strong> once per round</p>\n<p><strong>Effect</strong> You fire a mass of webbing at a square within 30 feet. That square becomes covered in webbing for 1 minute. A square covered with the webbing from a <em>spider gun</em> can be cleared by a single attack or effect that deals at least 25 slashing damage or 15 fire damage. A square has AC 5, and it automatically fails its saving throws. The first time each turn a creature in the webbing begins to use a move action or enters the webbing during a move action, it must attempt an @Check[type:athletics|dc:34|name:Spider Gun Athletics|traits:conjuration] check or @Check[type:reflex|dc:34|name:Spider Gun Reflex|traits:conjuration] save against DC 34. On a success, it moves normally through the webbing and clears away the webbing from any squares it enters this turn. On a failure, it treats squares of webbing as difficult terrain this turn, and on a critical failure, it's @Compendium[pf2e.conditionitems.Immobilized]{Immobilized} for 1 round or until it @Compendium[pf2e.actionspf2e.Escape]{Escapes} (DC 34) or destroys the webbing.</p>\n<p><strong>Craft Requirements</strong> The initial raw materials for the <em>spider gun</em> must include the fangs and spinneret of a giant spider or other Large spider.</p>"
        },
        "equipped": {
            "value": false
        },
        "equippedBulk": {
            "value": ""
        },
        "group": "firearm",
        "hands": {
            "value": false
        },
        "hardness": {
            "value": 0
        },
        "hp": {
            "value": 0
        },
        "identification": {
            "misidentified": {},
            "status": "identified",
            "unidentified": {
                "data": {
                    "description": {
                        "value": ""
                    }
                },
                "img": "",
                "name": ""
            }
        },
        "invested": {
            "value": null
        },
        "level": {
            "value": 15
        },
        "maxHp": {
            "value": 0
        },
        "negateBulk": {
            "value": "0"
        },
        "potencyRune": {
            "value": 2
        },
        "preciousMaterial": {
            "value": null
        },
        "preciousMaterialGrade": {
            "value": null
        },
        "price": {
            "value": "6500 gp"
        },
        "property1": {
            "critDamage": "",
            "critDamageType": "",
            "critDice": 0,
            "critDie": "",
            "criticalConditionType": "",
            "criticalConditionValue": null,
            "damageType": "",
            "dice": 0,
            "die": "",
            "strikeConditionType": "",
            "strikeConditionValue": null,
            "value": ""
        },
        "propertyRune1": {
            "value": null
        },
        "propertyRune2": {
            "value": null
        },
        "propertyRune3": {
            "value": null
        },
        "propertyRune4": {
            "value": null
        },
        "quantity": {
            "value": 1
        },
        "range": 30,
        "reload": {
            "value": "1"
        },
        "rules": [
            {
                "key": "Note",
                "outcome": [
                    "criticalSuccess"
                ],
                "selector": "{item|_id}-damage",
                "text": "<p class='compact text'><strong>Spider Gun</strong> On a critical hit, the venom clings to the target and they take @Compendium[pf2e.conditionitems.Persistent Damage]{Persistent Poison Damage} equal to [[/r {1d4+1+@item.data.data.runes.striking}[persistent,poison]]]{1d4 + the number of weapon damage dice}. A <em>spider gun</em> does not add critical specialization effects.</p>"
            }
        ],
        "size": {
            "value": "med"
        },
        "source": {
            "value": "Pathfinder Guns & Gears"
        },
        "specific": {
            "material": null,
            "price": "250",
            "runes": {
                "potency": 1,
                "striking": "striking"
            },
            "value": true
        },
        "splashDamage": {
            "value": 0
        },
        "stackGroup": {
            "value": ""
        },
        "strikingRune": {
            "value": "greaterStriking"
        },
        "traits": {
            "custom": "",
            "rarity": "uncommon",
            "value": [
                "evocation",
                "magical"
            ]
        },
        "usage": {
            "value": "held-in-two-hands"
        },
        "weight": {
            "value": "2"
        }
    },
    "effects": [],
    "flags": {},
    "img": "systems/pf2e/icons/default-icons/weapon.svg",
    "name": "Spider Gun (Major)",
    "type": "weapon"
}
