{
    "_id": "xec2kwqFjxHjFwLa",
    "data": {
        "MAP": {
            "value": ""
        },
        "baseItem": "staff",
        "bonus": {
            "value": 0
        },
        "bonusDamage": {
            "value": 0
        },
        "brokenThreshold": {
            "value": 0
        },
        "bulkCapacity": {
            "value": ""
        },
        "category": "simple",
        "collapsed": {
            "value": false
        },
        "containerId": {
            "value": null
        },
        "damage": {
            "damageType": "bludgeoning",
            "dice": 1,
            "die": "d4",
            "value": ""
        },
        "description": {
            "value": "<p>This white marble staff is carved into the figure of an abstract knight, its shield bearing the symbol of Lastwall, with a wickedly pointed sword made of dark wood raised high above its head. When you wield it as a weapon, it gains the versatile P trait and functions as a wooden stake, allowing you to use it to stake vampires, and your Strikes with the staff gain a +2 circumstance bonus to damage rolls against undead.</p>\n<hr />\n<p><strong>Activate</strong> Cast a Spell</p>\n<p><strong>Effect</strong> You expend a number of charges from the staff to cast a spell from its list.</p>\n<ul>\n<li><strong>Cantrip</strong> <em>@Compendium[pf2e.spells-srd.Disrupt Undead]{Disrupt Undead}</em></li>\n<li><strong>1st</strong> <em>@Compendium[pf2e.spells-srd.Disrupting Weapons]{Disrupting Weapons}</em>, <em>@Compendium[pf2e.spells-srd.Heal]{Heal}</em></li>\n<li><strong>2nd</strong> <em>@Compendium[pf2e.spells-srd.Heal]{Heal}</em>, <em>@Compendium[pf2e.spells-srd.Gentle Repose]{Gentle Repose}</em></li>\n<li><strong>3rd</strong> <em>@Compendium[pf2e.spells-srd.Bind Undead]{Bind Undead}</em>, <em>@Compendium[pf2e.spells-srd.Disrupting Weapons]{Disrupting Weapons}</em>, <em>@Compendium[pf2e.spells-srd.Heal]{Heal}</em></li>\n<li><strong>4th</strong> <em>@Compendium[pf2e.spells-srd.Heal]{Heal}</em>, <em>@Compendium[pf2e.spells-srd.Holy Cascade]{Holy Cascade}</em></li>\n</ul>\n<hr />\n<p><strong>Craft Requirements</strong> Supply one casting of all listed levels of all listed spells.</p>"
        },
        "equipped": {
            "value": false
        },
        "equippedBulk": {
            "value": ""
        },
        "group": "club",
        "hands": {
            "value": false
        },
        "hardness": {
            "value": 0
        },
        "hp": {
            "value": 0
        },
        "identification": {
            "misidentified": {},
            "status": "identified",
            "unidentified": {
                "data": {
                    "description": {
                        "value": ""
                    }
                },
                "img": "",
                "name": ""
            }
        },
        "invested": {
            "value": null
        },
        "level": {
            "value": 10
        },
        "maxHp": {
            "value": 0
        },
        "negateBulk": {
            "value": "0"
        },
        "potencyRune": {
            "value": null
        },
        "preciousMaterial": {
            "value": null
        },
        "preciousMaterialGrade": {
            "value": null
        },
        "price": {
            "value": "900 gp"
        },
        "property1": {
            "critDamage": "",
            "critDamageType": "",
            "critDice": 0,
            "critDie": "",
            "criticalConditionType": "",
            "criticalConditionValue": null,
            "damageType": "",
            "dice": 0,
            "die": "",
            "strikeConditionType": "",
            "strikeConditionValue": null,
            "value": ""
        },
        "propertyRune1": {
            "value": null
        },
        "propertyRune2": {
            "value": null
        },
        "propertyRune3": {
            "value": null
        },
        "propertyRune4": {
            "value": null
        },
        "quantity": {
            "value": 1
        },
        "range": null,
        "reload": {
            "value": ""
        },
        "rules": [
            {
                "key": "FlatModifier",
                "predicate": {
                    "all": [
                        "target:undead"
                    ]
                },
                "selector": "{item|_id}-damage",
                "type": "circumstance",
                "value": 2
            }
        ],
        "size": {
            "value": "med"
        },
        "source": {
            "value": "Pathfinder Lost Omens: The Grand Bazaar"
        },
        "specific": {
            "value": false
        },
        "splashDamage": {
            "value": 0
        },
        "stackGroup": {
            "value": ""
        },
        "strikingRune": {
            "value": ""
        },
        "traits": {
            "custom": "",
            "rarity": "uncommon",
            "value": [
                "magical",
                "necromancy",
                "staff",
                "two-hand-d8"
            ]
        },
        "usage": {
            "value": "held-in-one-hand"
        },
        "weight": {
            "value": "1"
        }
    },
    "effects": [],
    "flags": {},
    "img": "systems/pf2e/icons/default-icons/weapon.svg",
    "name": "Staff of Final Rest (Greater)",
    "type": "weapon"
}
