{
    "_id": "oT4pyqLKpJVXDb46",
    "data": {
        "MAP": {
            "value": ""
        },
        "baseItem": "staff",
        "bonus": {
            "value": 0
        },
        "bonusDamage": {
            "value": 0
        },
        "brokenThreshold": {
            "value": 0
        },
        "bulkCapacity": {
            "value": ""
        },
        "category": "simple",
        "collapsed": {
            "value": false
        },
        "containerId": {
            "value": ""
        },
        "damage": {
            "damageType": "bludgeoning",
            "dice": 1,
            "die": "d4",
            "value": ""
        },
        "description": {
            "value": "<p>This bizarre staff is made from oak, capped with a cluster of eye-shaped gemstones that seem to move and undulate at the corner of your vision. While wielding the staff, you can peer through the eyes, using your normal visual senses (including any benefits of spells affecting your vision, like <em>see invisibility</em>). You can maneuver the staff to see things around corners, at higher elevations, or in places where the staff can fit but your head can't. This doesn't provide sufficient line of effect to target creatures around corners. The eyes are as vulnerable as your eyes and can be affected by anything that alters your vision, such as a blinding flash of light.</p>\n<p><strong>Activate</strong> Cast a Spell</p>\n<p><strong>Effect</strong> You expend a number of charges from the staff to cast a spell from its list.</p>\n<p><strong>Craft Requirements</strong> Supply one casting of all listed levels of all listed spells.</p>\n<ul>\n<li><strong>Cantrip</strong> <em>@Compendium[pf2e.spells-srd.Daze]{Daze}</em></li>\n<li><strong>1st</strong> <em>@Compendium[pf2e.spells-srd.Fear]{Fear}</em>, <em>@Compendium[pf2e.spells-srd.Phantom Pain]{Phantom Pain}</em></li>\n<li><strong>2nd</strong> <em>@Compendium[pf2e.spells-srd.Augury]{Augury}</em>, <em>@Compendium[pf2e.spells-srd.Paranoia]{Paranoia}</em></li>\n<li><strong>3rd</strong> <em>@Compendium[pf2e.spells-srd.Hypnotic Pattern]{Hypnotic Pattern}</em>, <em>@Compendium[pf2e.spells-srd.Paralyze]{Paralyze}</em></li>\n<li><strong>4th</strong> <em>@Compendium[pf2e.spells-srd.Countless Eyes]{Countless Eyes}</em>, <em>@Compendium[pf2e.spells-srd.Phantasmal Killer]{Phantasmal Killer}</em></li>\n<li><strong>5th</strong> <em>@Compendium[pf2e.spells-srd.Strange Geometry]{Strange Geometry}</em></li>\n<li><strong>6th</strong> <em>@Compendium[pf2e.spells-srd.Blinding Fury]{Blinding Fury}</em>, <em>@Compendium[pf2e.spells-srd.Phantasmal Calamity]{Phantasmal Calamity}</em></li>\n<li><strong>7th</strong> <em>@Compendium[pf2e.spells-srd.Visions of Danger]{Visions of Danger}</em>, <em>@Compendium[pf2e.spells-srd.Warp Mind]{Warp Mind}</em></li>\n</ul>"
        },
        "equipped": {
            "value": false
        },
        "equippedBulk": {
            "value": ""
        },
        "group": "club",
        "hands": {
            "value": ""
        },
        "hardness": {
            "value": 0
        },
        "hp": {
            "value": 0
        },
        "identification": {
            "misidentified": {},
            "status": "identified",
            "unidentified": {
                "data": {
                    "description": {
                        "value": ""
                    }
                },
                "img": "",
                "name": ""
            }
        },
        "invested": {
            "value": false
        },
        "level": {
            "value": 16
        },
        "maxHp": {
            "value": 0
        },
        "negateBulk": {
            "value": "0"
        },
        "potencyRune": {
            "value": null
        },
        "preciousMaterial": {
            "value": ""
        },
        "preciousMaterialGrade": {
            "value": ""
        },
        "price": {
            "value": "10,000 gp"
        },
        "property1": {
            "critDamage": "",
            "critDamageType": "",
            "critDice": null,
            "critDie": "",
            "criticalConditionType": "",
            "criticalConditionValue": null,
            "damageType": "",
            "dice": null,
            "die": "",
            "strikeConditionType": "",
            "strikeConditionValue": null,
            "value": ""
        },
        "propertyRune1": {
            "value": ""
        },
        "propertyRune2": {
            "value": ""
        },
        "propertyRune3": {
            "value": ""
        },
        "propertyRune4": {
            "value": ""
        },
        "quantity": {
            "value": 1
        },
        "range": null,
        "reload": {
            "value": ""
        },
        "rules": [],
        "size": {
            "value": "med"
        },
        "source": {
            "value": "Pathfinder Advanced Player's Guide"
        },
        "splashDamage": {
            "value": 0
        },
        "stackGroup": {
            "value": ""
        },
        "strikingRune": {
            "value": ""
        },
        "traits": {
            "custom": "",
            "rarity": "uncommon",
            "value": [
                "illusion",
                "magical",
                "staff",
                "two-hand-d8"
            ]
        },
        "usage": {
            "value": "held-in-one-hand"
        },
        "weight": {
            "value": "1"
        }
    },
    "effects": [],
    "flags": {},
    "img": "systems/pf2e/icons/equipment/staves/staff-of-impossible-visions.webp",
    "name": "Staff of Impossible Visions (Major)",
    "type": "weapon"
}
