{
    "_id": "WW8uv3Nhg56UTZ35",
    "data": {
        "baseItem": null,
        "brokenThreshold": {
            "value": 0
        },
        "bulkCapacity": {
            "value": ""
        },
        "collapsed": {
            "value": false
        },
        "containerId": {
            "value": ""
        },
        "description": {
            "value": "<p>Created by the priests of a Qadiran sect of Sarenites, the sun wheels were designed to protect the Dawnflower's followers in their quest to hunt down a dangerous cult trying to raise a spawn of the evil god Rovagug. Once they completed their crusade, these priests disbanded and went on to minister other congregations. They each took their sun wheels with them, handing them down to the next generations.</p>\n<p>This copper medallion is etched with a stylized sun, its rays shaped like the spokes of a wagon wheel. It tends to glint brightly when exposed to sunlight. While wearing this pendant, you gain a +1 item bonus to Religion checks. You must be good-aligned to use the sun wheel's true power: the following activation, which provides you a shield of burning force.</p>\n<hr />\n<p><strong>Activate</strong> <span class=\"pf2-icon\">A</span> Concentrate</p>\n<p>The sun wheel casts a <em>@Compendium[pf2e.spells-srd.Shield]{Shield}</em> spell benefiting you.</p>\n<p>When you use the spell to prevent damage, you prevent 10 damage instead of 5. If the attacker is adjacent to you, you can choose to deal [[/roll 2d6]] fire damage to it, which it gets a @Check[type:reflex|dc:21|basic:true|traits:consumable,talisman] save to resist.</p>\n<p>If you choose to deal the fire damage, you can't Activate the sun wheel again until the next morning. If you prevent damage but don't deal the fire damage, you can use it again in 10 minutes, as normal for shield</p>\n<hr />\n<p>Automatically applied effects:</p>\n<ul>\n<li>+1 item bonus to Religion checks</li>\n</ul>"
        },
        "equipped": {
            "value": false
        },
        "equippedBulk": {
            "value": ""
        },
        "hardness": {
            "value": 0
        },
        "hp": {
            "value": 0
        },
        "identification": {
            "misidentified": {},
            "status": "identified",
            "unidentified": {
                "data": {
                    "description": {
                        "value": ""
                    }
                },
                "img": "",
                "name": ""
            }
        },
        "invested": {
            "value": false
        },
        "level": {
            "value": 5
        },
        "maxHp": {
            "value": 0
        },
        "negateBulk": {
            "value": "0"
        },
        "preciousMaterial": {
            "value": ""
        },
        "preciousMaterialGrade": {
            "value": ""
        },
        "price": {
            "value": "150 gp"
        },
        "quantity": {
            "value": 1
        },
        "rules": [
            {
                "key": "FlatModifier",
                "selector": "religion",
                "type": "item",
                "value": 1
            }
        ],
        "size": {
            "value": "med"
        },
        "source": {
            "value": "Pathfinder Adventure: Troubles in Otari"
        },
        "stackGroup": {
            "value": ""
        },
        "traits": {
            "custom": "",
            "rarity": "rare",
            "value": [
                "abjuration",
                "invested",
                "magical"
            ]
        },
        "usage": {
            "value": "worn"
        },
        "weight": {
            "value": "-"
        }
    },
    "effects": [],
    "flags": {},
    "img": "systems/pf2e/icons/equipment/consumables/talismans/vanishing-coin.webp",
    "name": "Sun Wheel",
    "type": "equipment"
}
