{
    "_id": "5Qkz4RVJr2Kx3RL6",
    "data": {
        "MAP": {
            "value": ""
        },
        "baseItem": "alchemical-bomb",
        "bonus": {
            "value": 2
        },
        "bonusDamage": {
            "value": 0
        },
        "brokenThreshold": {
            "value": 0
        },
        "bulkCapacity": {
            "value": ""
        },
        "category": "martial",
        "collapsed": {
            "value": false
        },
        "containerId": {
            "value": ""
        },
        "damage": {
            "damageType": "bludgeoning",
            "dice": 1,
            "die": "",
            "value": ""
        },
        "description": {
            "value": "<p>A tanglefoot bag is filled with sticky substances. When you hit a creature with a tanglefoot bag, that creature takes a -15-foot status penalty to its Speeds for 1 minute. You gain a +2 item bonus to attack rolls, and the Escape DC is 28.</p>\n<p>On a critical hit, a creature in contact with a solid surface becomes stuck to the surface and @Compendium[pf2e.conditionitems.Immobilized]{Immobilized} for 1 round, and a creature flying via wings has its wings tangled, causing it to fall safely to the ground and become unable to Fly again for 1 round. Tanglefoot bags are not effective when used on a creature that is in water.</p>\n<p>The target can end any effects by Escaping or spending a total of 3 actions to carefully remove the sticky substances. These Interact actions don't have to be consecutive, and other creatures can provide the actions as well.</p>"
        },
        "equipped": {
            "value": false
        },
        "equippedBulk": {
            "value": ""
        },
        "group": "bomb",
        "hands": {
            "value": ""
        },
        "hardness": {
            "value": 0
        },
        "hp": {
            "value": 0
        },
        "identification": {
            "misidentified": {},
            "status": "identified",
            "unidentified": {
                "data": {
                    "description": {
                        "value": ""
                    }
                },
                "img": "",
                "name": ""
            }
        },
        "invested": {
            "value": false
        },
        "level": {
            "value": 11
        },
        "maxHp": {
            "value": 0
        },
        "negateBulk": {
            "value": "0"
        },
        "potencyRune": {
            "value": null
        },
        "preciousMaterial": {
            "value": ""
        },
        "preciousMaterialGrade": {
            "value": ""
        },
        "price": {
            "value": "250 gp"
        },
        "property1": {
            "critDamage": "",
            "critDamageType": "",
            "critDice": null,
            "critDie": "",
            "criticalConditionType": "",
            "criticalConditionValue": null,
            "damageType": "",
            "dice": null,
            "die": "",
            "strikeConditionType": "",
            "strikeConditionValue": null,
            "value": ""
        },
        "propertyRune1": {
            "value": ""
        },
        "propertyRune2": {
            "value": ""
        },
        "propertyRune3": {
            "value": ""
        },
        "propertyRune4": {
            "value": ""
        },
        "quantity": {
            "value": 1
        },
        "range": 20,
        "reload": {
            "value": ""
        },
        "rules": [
            {
                "key": "Note",
                "outcome": [
                    "success"
                ],
                "selector": "{item|_id}-attack",
                "text": "<p class='compact-text'><strong>Effect</strong> On hit, @Compendium[pf2e.equipment-effects.Effect: Tanglefoot Bag (Greater)]{-15 ft Speed Penalty} for 1 minute. <hr /><i>Tanglefoot bags do not do any damage</i>.</p>"
            },
            {
                "key": "Note",
                "outcome": [
                    "criticalSuccess"
                ],
                "selector": "{item|_id}-attack",
                "text": "<p class='compact-text'><strong>Effect</strong> On hit,  @Compendium[pf2e.equipment-effects.Effect: Tanglefoot Bag (Greater)]{-15 ft Speed Penalty} for 1 minute. On critical hit, @Compendium[pf2e.conditionitems.Immobilized]{Immobilized} for 1 round. <hr /><i>Tanglefoot bags do not do any damage</i>.</p>"
            }
        ],
        "size": {
            "value": "med"
        },
        "source": {
            "value": "Pathfinder Core Rulebook"
        },
        "splashDamage": {
            "value": null
        },
        "stackGroup": {
            "value": ""
        },
        "strikingRune": {
            "value": ""
        },
        "traits": {
            "custom": "",
            "rarity": "common",
            "value": [
                "alchemical",
                "bomb",
                "consumable"
            ]
        },
        "usage": {
            "value": "held-in-one-hand"
        },
        "weight": {
            "value": "L"
        }
    },
    "effects": [],
    "flags": {},
    "img": "systems/pf2e/icons/equipment/alchemical-items/alchemical-bombs/tanglefoot-bag.webp",
    "name": "Tanglefoot Bag (Greater)",
    "type": "weapon"
}
