{
    "_id": "5W86t6I92rRNSmwR",
    "data": {
        "baseItem": null,
        "brokenThreshold": {
            "value": 0
        },
        "bulkCapacity": {
            "value": ""
        },
        "collapsed": {
            "value": false
        },
        "containerId": {
            "value": null
        },
        "description": {
            "value": "<p>The crystal chamber within this split geode is divided into three lobes of equal size. The spell DC of any spell cast by Activating this item is 24.</p>\n<ul>\n<li><strong>Armor</strong> After you cast an earth spell by Activating the geode, you gain resistance 3 to physical damage (except adamantine) until the end of your next turn, or double the resistance for a non-cantrip spell.</li>\n<li><strong>Weapon</strong> After you cast an earth spell by Activating the geode, your Strikes with the weapon deal an additional 1d6 bludgeoning damage until the end of your next turn.</li>\n</ul>\n<p><strong>Activate</strong> Cast a Spell</p>\n<p><strong>Effect</strong> You cast <em>@Compendium[pf2e.spells-srd.Scatter Scree]{Scatter Scree}</em>.</p>\n<hr />\n<p><strong>Activate</strong> Cast a Spell</p>\n<p><strong>Frequency</strong> once per day</p>\n<p><strong>Effect</strong> You cast <em>@Compendium[pf2e.spells-srd.Meld into Stone]{Meld into Stone}</em>.</p>"
        },
        "equipped": {
            "value": false
        },
        "equippedBulk": {
            "value": ""
        },
        "hardness": {
            "value": 0
        },
        "hp": {
            "value": 0
        },
        "identification": {
            "misidentified": {},
            "status": "identified",
            "unidentified": {
                "data": {
                    "description": {
                        "value": ""
                    }
                },
                "img": "",
                "name": ""
            }
        },
        "invested": {
            "value": null
        },
        "level": {
            "value": 8
        },
        "maxHp": {
            "value": 0
        },
        "negateBulk": {
            "value": "0"
        },
        "preciousMaterial": {
            "value": null
        },
        "preciousMaterialGrade": {
            "value": null
        },
        "price": {
            "value": "460 gp"
        },
        "quantity": {
            "value": 1
        },
        "rules": [],
        "size": {
            "value": "med"
        },
        "source": {
            "value": "Pathfinder Secrets of Magic"
        },
        "stackGroup": {
            "value": ""
        },
        "traits": {
            "custom": "",
            "rarity": "common",
            "value": [
                "earth",
                "evocation",
                "magical",
                "spellheart"
            ]
        },
        "usage": {
            "value": "held-in-one-hand"
        },
        "weight": {
            "value": "-"
        }
    },
    "effects": [],
    "flags": {},
    "img": "systems/pf2e/icons/default-icons/equipment.svg",
    "name": "Trinity Geode (Greater)",
    "type": "equipment"
}
