{
    "_id": "297RUMeetOWyciDe",
    "data": {
        "MAP": {
            "value": ""
        },
        "baseItem": "scythe",
        "bonus": {
            "value": 0
        },
        "bonusDamage": {
            "value": 0
        },
        "brokenThreshold": {
            "value": 0
        },
        "bulkCapacity": {
            "value": ""
        },
        "category": "martial",
        "collapsed": {
            "value": false
        },
        "containerId": {
            "value": null
        },
        "damage": {
            "damageType": "slashing",
            "dice": 1,
            "die": "d10",
            "value": ""
        },
        "description": {
            "value": "<p>The blade of this <em>+2 greater striking wounding scythe</em> is sharp enough to produce a whistling sound when swung through the air. The shaft is made of ebony wood with a sickly shine to it, much like the shine of infected wounds and contaminated water.</p>\n<hr />\n<p><strong>Activate</strong> <span class=\"pf2-icon\">r</span> command</p>\n<p><strong>Trigger</strong> An enemy critically succeeds at an attempt to Disarm you</p>\n<p><strong>Effect</strong> As the scythe leaves your hand, it drinks the triggering creature's blood. The creature must succeed at a @Check[type:fortitude|dc:30|name:Vampiric Scythe Disarm|traits:uncommon] save or become @Compendium[pf2e.conditionitems.Drained]{Drained 2} (@Compendium[pf2e.conditionitems.Drained]{Drained 3} on a critical failure). If the triggering creature becomes drained, you gain temporary Hit Points equal to the triggering creature's level. You lose any remaining temporary Hit Points after 1 minute.</p>\n<hr />\n<p><strong>Activate</strong> <span class=\"pf2-icon\">r</span> command</p>\n<p><strong>Frequency</strong> once per hour</p>\n<p><strong>Trigger</strong> You critically succeed at a Strike against a living opponent</p>\n<p><strong>Effect</strong> The scythe drains life essence from your opponent into you. You gain a number of temporary Hit Points equal to half the slashing damage the scythe dealt to the foe. You lose any remaining temporary Hit Points after 1 minute.</p>"
        },
        "equipped": {
            "value": false
        },
        "equippedBulk": {
            "value": ""
        },
        "group": "polearm",
        "hands": {
            "value": false
        },
        "hardness": {
            "value": 0
        },
        "hp": {
            "value": 0
        },
        "identification": {
            "misidentified": {},
            "status": "identified",
            "unidentified": {
                "data": {
                    "description": {
                        "value": ""
                    }
                },
                "img": "",
                "name": ""
            }
        },
        "invested": {
            "value": null
        },
        "level": {
            "value": 13
        },
        "maxHp": {
            "value": 0
        },
        "negateBulk": {
            "value": "0"
        },
        "potencyRune": {
            "value": 2
        },
        "preciousMaterial": {
            "value": null
        },
        "preciousMaterialGrade": {
            "value": null
        },
        "price": {
            "value": "3000 gp"
        },
        "property1": {
            "critDamage": "",
            "critDamageType": "",
            "critDice": 0,
            "critDie": "",
            "criticalConditionType": "",
            "criticalConditionValue": null,
            "damageType": "",
            "dice": 0,
            "die": "",
            "strikeConditionType": "",
            "strikeConditionValue": null,
            "value": ""
        },
        "propertyRune1": {
            "value": "wounding"
        },
        "propertyRune2": {
            "value": null
        },
        "propertyRune3": {
            "value": null
        },
        "propertyRune4": {
            "value": null
        },
        "quantity": {
            "value": 1
        },
        "range": null,
        "reload": {
            "value": ""
        },
        "rules": [],
        "size": {
            "value": "med"
        },
        "source": {
            "value": "Pathfinder Lost Omens: The Grand Bazaar"
        },
        "specific": {
            "material": null,
            "runes": {
                "potency": 2,
                "striking": "greaterStriking"
            },
            "value": true
        },
        "splashDamage": {
            "value": 0
        },
        "stackGroup": {
            "value": ""
        },
        "strikingRune": {
            "value": "greaterStriking"
        },
        "traits": {
            "custom": "",
            "rarity": "uncommon",
            "value": [
                "deadly-d10",
                "evil",
                "magical",
                "necromancy",
                "negative",
                "trip"
            ]
        },
        "usage": {
            "value": "held-in-two-hands"
        },
        "weight": {
            "value": "2"
        }
    },
    "effects": [],
    "flags": {},
    "img": "systems/pf2e/icons/default-icons/weapon.svg",
    "name": "Vampiric Scythe",
    "type": "weapon"
}
