{
    "_id": "saEUzIgUtV2AzKhl",
    "data": {
        "abilities": {
            "cha": {
                "mod": 1
            },
            "con": {
                "mod": 1
            },
            "dex": {
                "mod": 3
            },
            "int": {
                "mod": 1
            },
            "str": {
                "mod": 4
            },
            "wis": {
                "mod": 3
            }
        },
        "attributes": {
            "ac": {
                "details": "",
                "value": 18
            },
            "allSaves": {
                "value": ""
            },
            "hp": {
                "details": "negative healing",
                "max": 48,
                "temp": 0,
                "value": 48
            },
            "initiative": {
                "ability": "perception"
            },
            "perception": {
                "value": 8
            },
            "speed": {
                "details": "",
                "otherSpeeds": [
                    {
                        "type": "burrow",
                        "value": "5"
                    },
                    {
                        "type": "climb",
                        "value": "20"
                    }
                ],
                "value": "30"
            }
        },
        "details": {
            "alignment": {
                "value": "CN"
            },
            "blurb": "Male morlock ghoul exile",
            "creatureType": "",
            "level": {
                "value": 3
            },
            "privateNotes": "",
            "publicNotes": "",
            "source": {
                "value": "Pathfinder #163: Ruins of Gauntlight"
            }
        },
        "resources": {},
        "saves": {
            "fortitude": {
                "saveDetail": "",
                "value": 8
            },
            "reflex": {
                "saveDetail": "",
                "value": 12
            },
            "will": {
                "saveDetail": "",
                "value": 10
            }
        },
        "traits": {
            "ci": [],
            "di": {
                "custom": "",
                "value": [
                    "death-effects",
                    "disease",
                    "paralyzed",
                    "poison",
                    "unconscious"
                ]
            },
            "dr": [],
            "dv": [],
            "languages": {
                "custom": "",
                "selected": [],
                "value": [
                    "aklo",
                    "common",
                    "necril",
                    "undercommon"
                ]
            },
            "rarity": "unique",
            "senses": {
                "value": "darkvision"
            },
            "size": {
                "value": "med"
            },
            "traits": {
                "custom": "",
                "value": [
                    "ghoul",
                    "undead"
                ]
            }
        }
    },
    "effects": [],
    "flags": {},
    "img": "systems/pf2e/icons/default-icons/npc.svg",
    "items": [
        {
            "_id": "hwoQ4oeElvvImKgQ",
            "data": {
                "attack": {
                    "value": ""
                },
                "attackEffects": {
                    "custom": "",
                    "value": [
                        "ghoul-ghoul-fever",
                        "ghoul-paralysis"
                    ]
                },
                "bonus": {
                    "value": 12
                },
                "damageRolls": {
                    "ou93vhqsealplz91c7mk": {
                        "damage": "1d8+7",
                        "damageType": "piercing"
                    }
                },
                "description": {
                    "value": ""
                },
                "rules": [],
                "slug": null,
                "source": {
                    "value": ""
                },
                "traits": {
                    "custom": "",
                    "rarity": "common",
                    "value": []
                },
                "weaponType": {
                    "value": "melee"
                }
            },
            "effects": [],
            "flags": {},
            "img": "systems/pf2e/icons/default-icons/melee.svg",
            "name": "Jaws",
            "sort": 100000,
            "type": "melee"
        },
        {
            "_id": "SuNMXHWTyC2lF2Pa",
            "data": {
                "attack": {
                    "value": ""
                },
                "attackEffects": {
                    "custom": "",
                    "value": [
                        "paralysis"
                    ]
                },
                "bonus": {
                    "value": 12
                },
                "damageRolls": {
                    "5mpyiwumgc2c7d6m22bi": {
                        "damage": "1d6+7",
                        "damageType": "slashing"
                    }
                },
                "description": {
                    "value": ""
                },
                "rules": [],
                "slug": null,
                "source": {
                    "value": ""
                },
                "traits": {
                    "custom": "",
                    "rarity": "common",
                    "value": [
                        "agile"
                    ]
                },
                "weaponType": {
                    "value": "melee"
                }
            },
            "effects": [],
            "flags": {},
            "img": "systems/pf2e/icons/default-icons/melee.svg",
            "name": "Claw",
            "sort": 200000,
            "type": "melee"
        },
        {
            "_id": "p9kCNA8Mq9cXm23t",
            "data": {
                "actionCategory": {
                    "value": "interaction"
                },
                "actionType": {
                    "value": "passive"
                },
                "actions": {
                    "value": null
                },
                "description": {
                    "value": "<p>@Localize[PF2E.NPC.Abilities.Glossary.Darkvision]</p>"
                },
                "requirements": {
                    "value": ""
                },
                "rules": [],
                "slug": "darkvision",
                "source": {
                    "value": ""
                },
                "traits": {
                    "custom": "",
                    "rarity": "common",
                    "value": []
                },
                "trigger": {
                    "value": ""
                },
                "weapon": {
                    "value": ""
                }
            },
            "effects": [],
            "flags": {
                "core": {
                    "sourceId": "Compendium.pf2e.bestiary-ability-glossary-srd.qCCLZhnp2HhP3Ex6"
                }
            },
            "img": "systems/pf2e/icons/actions/Passive.webp",
            "name": "Darkvision",
            "sort": 300000,
            "type": "action"
        },
        {
            "_id": "DriJGrzzm1Qq0NNX",
            "data": {
                "actionCategory": {
                    "value": "interaction"
                },
                "actionType": {
                    "value": "passive"
                },
                "actions": {
                    "value": null
                },
                "description": {
                    "value": "<p>@Localize[PF2E.NPC.Abilities.Glossary.LightBlindness]</p>"
                },
                "requirements": {
                    "value": ""
                },
                "rules": [],
                "slug": "light-blindness",
                "source": {
                    "value": ""
                },
                "traits": {
                    "custom": "",
                    "rarity": "common",
                    "value": []
                },
                "trigger": {
                    "value": ""
                },
                "weapon": {
                    "value": ""
                }
            },
            "effects": [],
            "flags": {
                "core": {
                    "sourceId": "Compendium.pf2e.bestiary-ability-glossary-srd.I0HYG0ctCLP5JRsW"
                }
            },
            "img": "systems/pf2e/icons/actions/Passive.webp",
            "name": "Light Blindness",
            "sort": 400000,
            "type": "action"
        },
        {
            "_id": "nkgGXuCapE0gTVxH",
            "data": {
                "actionCategory": {
                    "value": "defensive"
                },
                "actionType": {
                    "value": "passive"
                },
                "actions": {
                    "value": null
                },
                "description": {
                    "value": "<p>@Localize[PF2E.NPC.Abilities.Glossary.NegativeHealing]</p>"
                },
                "requirements": {
                    "value": ""
                },
                "rules": [
                    {
                        "key": "ActiveEffectLike",
                        "mode": "override",
                        "path": "data.attributes.hp.negativeHealing",
                        "value": true
                    }
                ],
                "slug": "negative-healing",
                "source": {
                    "value": ""
                },
                "traits": {
                    "custom": "",
                    "rarity": "common",
                    "value": []
                },
                "trigger": {
                    "value": ""
                },
                "weapon": {
                    "value": ""
                }
            },
            "effects": [],
            "flags": {
                "core": {
                    "sourceId": "Compendium.pf2e.bestiary-ability-glossary-srd.TTCw5NusiSSkJU1x"
                }
            },
            "img": "systems/pf2e/icons/actions/Passive.webp",
            "name": "Negative Healing",
            "sort": 500000,
            "type": "action"
        },
        {
            "_id": "NyXCVjhHwWZtpfOI",
            "data": {
                "actionCategory": {
                    "value": "offensive"
                },
                "actionType": {
                    "value": "action"
                },
                "actions": {
                    "value": 1
                },
                "description": {
                    "value": "<p><strong>Requirements</strong> Augrael is adjacent to the corpse of an undead creature that was destroyed within the last hour.</p>\n<p><strong>Effect</strong> Augrael devours a chunk of the corpse and regains [[/r {2d6}[healing]]]{2d6 Hit Points}.</p>\n<p>He can regain Hit Points from any given corpse only once.</p>"
                },
                "requirements": {
                    "value": ""
                },
                "rules": [],
                "slug": "ghoul-consume-flesh",
                "source": {
                    "value": ""
                },
                "traits": {
                    "custom": "",
                    "rarity": "common",
                    "value": [
                        "manipulate"
                    ]
                },
                "trigger": {
                    "value": ""
                },
                "weapon": {
                    "value": ""
                }
            },
            "effects": [],
            "flags": {
                "core": {
                    "sourceId": "Compendium.pf2e.bestiary-family-ability-glossary.ixPqVlqLaYTB1b23"
                }
            },
            "img": "systems/pf2e/icons/actions/OneAction.webp",
            "name": "Consume Flesh",
            "sort": 600000,
            "type": "action"
        },
        {
            "_id": "XKiDDCClxzUDYSO8",
            "data": {
                "actionCategory": {
                    "value": "offensive"
                },
                "actionType": {
                    "value": "passive"
                },
                "actions": {
                    "value": null
                },
                "description": {
                    "value": "<p><strong>Saving Throw</strong> @Check[type:fortitude|dc:20]</p>\n<div data-visibility=\"gm\"><hr />\n<p><strong>Stage 1</strong> carrier with no ill effect (1 day)</p>\n<p><strong>Stage 2</strong> [[/r {2d6}[negative]]]{2d6 negative damage} and regains half as many Hit Points from all healing (1 day)</p>\n<p><strong>Stage 3</strong> as stage 2 (1 day)</p>\n<p><strong>Stage 4</strong> [[/r {2d6}[negative]]]{2d6 negative damage} and gains no benefit from healing (1 day)</p>\n<p><strong>Stage 5</strong> as stage 4 (1 day)</p>\n<p><strong>Stage 6</strong> dead, and rises as a ghoul the next midnight.</p>\n</div>"
                },
                "requirements": {
                    "value": ""
                },
                "rules": [],
                "slug": "ghoul-ghoul-fever",
                "source": {
                    "value": ""
                },
                "traits": {
                    "custom": "",
                    "rarity": "common",
                    "value": [
                        "disease"
                    ]
                },
                "trigger": {
                    "value": ""
                },
                "weapon": {
                    "value": ""
                }
            },
            "effects": [],
            "flags": {
                "core": {
                    "sourceId": "Compendium.pf2e.bestiary-family-ability-glossary.N7UV5CZXtcoxDxCF"
                }
            },
            "img": "systems/pf2e/icons/actions/Passive.webp",
            "name": "Ghoul Fever",
            "sort": 700000,
            "type": "action"
        },
        {
            "_id": "0QhLcUbXJtWWVCmp",
            "data": {
                "actionCategory": {
                    "value": "offensive"
                },
                "actionType": {
                    "value": "passive"
                },
                "actions": {
                    "value": null
                },
                "description": {
                    "value": "<p>Any living, non-elf creature hit by Augrael's attack must succeed at a @Check[type:fortitude|dc:20] save or become @Compendium[pf2e.conditionitems.Paralyzed]{Paralyzed}. It can attempt a new save at the end of each of its turns, and the DC cumulatively decreases by 1 on each such save.</p>"
                },
                "requirements": {
                    "value": ""
                },
                "rules": [],
                "slug": "ghoul-paralysis",
                "source": {
                    "value": ""
                },
                "traits": {
                    "custom": "",
                    "rarity": "common",
                    "value": [
                        "incapacitation",
                        "necromancy",
                        "occult"
                    ]
                },
                "trigger": {
                    "value": ""
                },
                "weapon": {
                    "value": ""
                }
            },
            "effects": [],
            "flags": {
                "core": {
                    "sourceId": "Compendium.pf2e.bestiary-family-ability-glossary.FW4KAUHb7r8WkxUc"
                }
            },
            "img": "systems/pf2e/icons/actions/Passive.webp",
            "name": "Paralysis",
            "sort": 800000,
            "type": "action"
        },
        {
            "_id": "D8o83tvKi46maS3U",
            "data": {
                "actionCategory": {
                    "value": "offensive"
                },
                "actionType": {
                    "value": "passive"
                },
                "actions": {
                    "value": null
                },
                "description": {
                    "value": "<p>Augrael deals an extra [[/r {1d6}[precision]]]{1d6 precision damage} to @Compendium[pf2e.conditionitems.Flat-Footed]{Flat-Footed} creatures.</p>\n<hr />\n<p>When the monster Strikes a creature that has the flat-footed condition with an agile or finesse melee weapon, an agile or finesse unarmed attack, or a ranged weapon attack, it also deals the listed precision damage. For a ranged attack with a thrown weapon, that weapon must also be an agile or finesse weapon.</p>"
                },
                "requirements": {
                    "value": ""
                },
                "rules": [
                    {
                        "category": "precision",
                        "diceNumber": 1,
                        "dieSize": "d6",
                        "key": "DamageDice",
                        "predicate": {
                            "all": [
                                "target:flatFooted"
                            ],
                            "any": [
                                "finesse",
                                "agile",
                                "ranged"
                            ]
                        },
                        "selector": "damage"
                    }
                ],
                "slug": "sneak-attack",
                "source": {
                    "value": ""
                },
                "traits": {
                    "custom": "",
                    "rarity": "common",
                    "value": []
                },
                "trigger": {
                    "value": ""
                },
                "weapon": {
                    "value": ""
                }
            },
            "effects": [],
            "flags": {
                "core": {
                    "sourceId": "Compendium.pf2e.bestiary-ability-glossary-srd.AWvNPE4U0kEJSL1T"
                }
            },
            "img": "systems/pf2e/icons/actions/Passive.webp",
            "name": "Sneak Attack",
            "sort": 900000,
            "type": "action"
        },
        {
            "_id": "zZQXw3WG7NLAQrux",
            "data": {
                "actionCategory": {
                    "value": "offensive"
                },
                "actionType": {
                    "value": "action"
                },
                "actions": {
                    "value": 1
                },
                "description": {
                    "value": "<p>Augrael jumps up to half his Speed. This movement doesn't trigger reactions.</p>"
                },
                "requirements": {
                    "value": ""
                },
                "rules": [],
                "slug": "ghoul-swift-leap",
                "source": {
                    "value": ""
                },
                "traits": {
                    "custom": "",
                    "rarity": "common",
                    "value": [
                        "move"
                    ]
                },
                "trigger": {
                    "value": ""
                },
                "weapon": {
                    "value": ""
                }
            },
            "effects": [],
            "flags": {
                "core": {
                    "sourceId": "Compendium.pf2e.bestiary-family-ability-glossary.UU1Fp3PRuTFONjC9"
                }
            },
            "img": "systems/pf2e/icons/actions/OneAction.webp",
            "name": "Swift Leap",
            "sort": 1000000,
            "type": "action"
        },
        {
            "_id": "8FlplslQBa9P8xN6",
            "data": {
                "description": {
                    "value": ""
                },
                "mod": {
                    "value": 8
                },
                "proficient": {
                    "value": 0
                },
                "rules": [],
                "slug": null,
                "source": {
                    "value": ""
                },
                "traits": {
                    "custom": "",
                    "rarity": "common",
                    "value": []
                }
            },
            "effects": [],
            "flags": {},
            "img": "systems/pf2e/icons/default-icons/lore.svg",
            "name": "Acrobatics",
            "sort": 1100000,
            "type": "lore"
        },
        {
            "_id": "Xd2kZ5dL4yuq4lr3",
            "data": {
                "description": {
                    "value": ""
                },
                "mod": {
                    "value": 9
                },
                "proficient": {
                    "value": 0
                },
                "rules": [
                    {
                        "key": "FlatModifier",
                        "label": "PF2E.SkillVariant.Climb",
                        "predicate": {
                            "all": [
                                "action:climb"
                            ]
                        },
                        "selector": "athletics",
                        "value": 3
                    }
                ],
                "slug": null,
                "source": {
                    "value": ""
                },
                "traits": {
                    "custom": "",
                    "rarity": "common",
                    "value": []
                },
                "variants": {
                    "0": {
                        "label": "+12 to Climb",
                        "options": "action:climb"
                    }
                }
            },
            "effects": [],
            "flags": {},
            "img": "systems/pf2e/icons/default-icons/lore.svg",
            "name": "Athletics",
            "sort": 1200000,
            "type": "lore"
        },
        {
            "_id": "vmnzh7dfffPn9ub8",
            "data": {
                "description": {
                    "value": ""
                },
                "mod": {
                    "value": 9
                },
                "proficient": {
                    "value": 0
                },
                "rules": [],
                "slug": null,
                "source": {
                    "value": ""
                },
                "traits": {
                    "custom": "",
                    "rarity": "common",
                    "value": []
                },
                "variants": {
                    "0": {
                        "label": "Repair only",
                        "options": ""
                    }
                }
            },
            "effects": [],
            "flags": {},
            "img": "systems/pf2e/icons/default-icons/lore.svg",
            "name": "Crafting",
            "sort": 1300000,
            "type": "lore"
        },
        {
            "_id": "UMz4vdEfRApAloJr",
            "data": {
                "description": {
                    "value": ""
                },
                "mod": {
                    "value": 10
                },
                "proficient": {
                    "value": 0
                },
                "rules": [],
                "slug": null,
                "source": {
                    "value": ""
                },
                "traits": {
                    "custom": "",
                    "rarity": "common",
                    "value": []
                }
            },
            "effects": [],
            "flags": {},
            "img": "systems/pf2e/icons/default-icons/lore.svg",
            "name": "Occultism",
            "sort": 1400000,
            "type": "lore"
        },
        {
            "_id": "0JzZUWMA8ATS7nxW",
            "data": {
                "description": {
                    "value": ""
                },
                "mod": {
                    "value": 10
                },
                "proficient": {
                    "value": 0
                },
                "rules": [],
                "slug": null,
                "source": {
                    "value": ""
                },
                "traits": {
                    "custom": "",
                    "rarity": "common",
                    "value": []
                }
            },
            "effects": [],
            "flags": {},
            "img": "systems/pf2e/icons/default-icons/lore.svg",
            "name": "Stealth",
            "sort": 1500000,
            "type": "lore"
        }
    ],
    "name": "Augrael",
    "token": {
        "disposition": -1,
        "height": 1,
        "img": "systems/pf2e/icons/default-icons/npc.svg",
        "name": "Augrael",
        "width": 1
    },
    "type": "npc"
}
