{
    "_id": "E0FMRiGNCv5n7AVH",
    "data": {
        "attributes": {
            "ac": {
                "value": 0
            },
            "hardness": 0,
            "hasHealth": true,
            "hp": {
                "details": "",
                "max": 0,
                "temp": 0,
                "tempmax": 0,
                "value": 0
            },
            "stealth": {
                "details": "<p>(expert)</p>",
                "value": 18
            }
        },
        "creatureType": "",
        "details": {
            "description": "<p>When any creature other than a devil enters the light, the magic interwoven in the light holds the creature in place and rings an alarm.</p>",
            "disable": "<p>DC 26 Thievery (master) to distort or diffuse the light, keeping the light cone intact but preventing the trap from triggering, or dispel magic (4th level; counteract DC 26) to dispel the light, leaving the room in darkness</p>",
            "isComplex": true,
            "level": {
                "value": 8
            },
            "reset": "<p>The stasis magic in the light builds up over the course of an hour, after which the trap can trigger again.</p>",
            "routine": "<p>(1 action) All stunned and paralyzed creatures in the room take [[/roll 1d10]] mental damage (DC 26 basic Will save). Creatures who fail also become paralyzed for 1 round but can use a reaction to mentally fight off this stasis; creatures who do so take [[/roll 5d10]] mental damage but are no longer paralyzed.</p>"
        },
        "saves": {
            "fortitude": {
                "saveDetail": "",
                "value": 0
            },
            "reflex": {
                "saveDetail": "",
                "value": 0
            },
            "will": {
                "saveDetail": "",
                "value": 0
            }
        },
        "source": {
            "value": "Pathfinder #164: Hands of the Devil"
        },
        "statusEffects": [],
        "traits": {
            "ci": [],
            "di": {
                "custom": "",
                "selected": {},
                "value": []
            },
            "dr": [],
            "dv": [],
            "rarity": "common",
            "size": {
                "value": "med"
            },
            "traits": {
                "custom": "",
                "value": [
                    "magical"
                ]
            }
        }
    },
    "effects": [],
    "flags": {},
    "img": "systems/pf2e/icons/default-icons/hazard.svg",
    "items": [
        {
            "_id": "wyQSk60Np0UavJiY",
            "data": {
                "actionCategory": {
                    "value": "offensive"
                },
                "actionType": {
                    "value": "reaction"
                },
                "actions": {
                    "value": null
                },
                "description": {
                    "value": "<p data-visibility=\"gm\"><strong>Trigger</strong> A non-devil creature moves into the light</p>\n<p><strong>Effect</strong> The light expands to fill the room, and each nondevil creature within the room must attempt a @Check[type:will|dc:26] save. A high-pitched chime sounds in the barracks (area <strong>D15</strong>), audible in this room as well. The trap then rolls initiative.</p>\n<hr />\n<p><strong>Critical Success</strong> The target is unaffected.</p>\n<p><strong>Success</strong> The target is stunned 2.</p>\n<p><strong>Failure</strong> The target is paralyzed for 1 round.</p>\n<p><strong>Critical Failure</strong> The target is stupefied 2 for [[/br 1d4 #rounds]]{1d4 rounds} and paralyzed for 1 round.</p>"
                },
                "requirements": {
                    "value": ""
                },
                "rules": [],
                "slug": null,
                "source": {
                    "value": ""
                },
                "traits": {
                    "custom": "",
                    "rarity": "common",
                    "value": [
                        "enchantment",
                        "incapacitation",
                        "mental",
                        "occult"
                    ]
                },
                "trigger": {
                    "value": ""
                },
                "weapon": {
                    "value": ""
                }
            },
            "effects": [],
            "flags": {},
            "img": "systems/pf2e/icons/actions/Reaction.webp",
            "name": "Stasis Field",
            "sort": 100000,
            "type": "action"
        }
    ],
    "name": "Paralyzing Light Trap",
    "token": {
        "disposition": 0,
        "height": 1,
        "img": "systems/pf2e/icons/default-icons/hazard.svg",
        "name": "Paralyzing Light Trap",
        "width": 1
    },
    "type": "hazard"
}
