{
    "_id": "chOtDyemBuw2yNN2",
    "data": {
        "attributes": {
            "ac": {
                "value": 21
            },
            "hardness": 12,
            "hasHealth": true,
            "hp": {
                "details": "",
                "max": 50,
                "temp": 0,
                "tempmax": 0,
                "value": 50
            },
            "stealth": {
                "details": "<p>(expert)</p>",
                "value": 12
            }
        },
        "creatureType": "",
        "details": {
            "description": "<p>An overwhelming feeling of being watched wells up in the minds of those in the room, an instant before an eerie red eye opens in the western wall.</p>",
            "disable": "<p>@Check[type:deception|dc:22|name:Appear Uninteresting|traits:haunt] (trained) to appear uninteresting to the watching eye (and thus be ignored by it) or @Check[type:religion|dc:22|name:Ward Against Being Seen|traits:haunt] (trained) to ward against being seen by or affected by the eye.</p>",
            "isComplex": true,
            "level": {
                "value": 4
            },
            "reset": "<p>The haunt becomes inert at the end of any round in which there are no frightened creatures it can see. It stays dormant for 1 hour, after which point it resets.</p>",
            "routine": "<p>(1 action) The eye glances about, and those it can see (whether in area <strong>C4</strong> or outside of it) take [[/r {4d6}[mental]]]{4d6 mental damage} (@Check[type:will|dc:21|basic:true|traits:haunt] save) as fears of being watched impart ripples of pain.</p>\n<p>A creature that takes mental damage from this effect doesn't reduce their frightened value at the end of their next turn</p>"
        },
        "saves": {
            "fortitude": {
                "saveDetail": "",
                "value": 14
            },
            "reflex": {
                "saveDetail": "",
                "value": 8
            },
            "will": {
                "saveDetail": "",
                "value": 8
            }
        },
        "source": {
            "value": "Pathfinder #163: Ruins of Gauntlight"
        },
        "statusEffects": [],
        "traits": {
            "ci": [],
            "di": {
                "custom": "",
                "selected": {},
                "value": []
            },
            "dr": [],
            "dv": [],
            "rarity": "common",
            "size": {
                "value": "med"
            },
            "traits": {
                "custom": "",
                "value": [
                    "haunt"
                ]
            }
        }
    },
    "effects": [],
    "flags": {},
    "img": "systems/pf2e/icons/default-icons/hazard.svg",
    "items": [
        {
            "_id": "V5Ok21wotF3DQNBZ",
            "data": {
                "actionCategory": {
                    "value": "offensive"
                },
                "actionType": {
                    "value": "reaction"
                },
                "actions": {
                    "value": null
                },
                "description": {
                    "value": "<p data-visibility=\"gm\"><strong>Trigger</strong> A living creature remains in area <strong>C4</strong> for at least 1 round</p>\n<p><strong>Effect</strong> An overwhelming wave of paranoia fills area <strong>C4</strong>. Each creature in the room must attempt a @Check[type:will|dc:25] save, with the following results. An eerie red eye then opens in the center of the western wall, looking about the room, and the haunt rolls initiative.</p>\n<div data-visibility=\"gm\"><hr />\n<p><strong>Critical Success</strong> The creature is unaffected.</p>\n<p><strong>Success</strong> The creature becomes @Compendium[pf2e.conditionitems.Frightened]{Frightened 1} and feels like someone or something is watching them for as long as they remain frightened.</p>\n<p><strong>Failure</strong> The creature becomes @Compendium[pf2e.conditionitems.Frightened]{Frightened 2} and treats no one as an ally as long as they remain frightened.</p>\n<p><strong>Critical Failure</strong> The creature becomes @Compendium[pf2e.conditionitems.Frightened]{Frightened 3} and is @Compendium[pf2e.conditionitems.Confused]{Confused} as long as they remain frightened.</p>\n</div>"
                },
                "requirements": {
                    "value": ""
                },
                "rules": [],
                "slug": null,
                "source": {
                    "value": ""
                },
                "traits": {
                    "custom": "",
                    "rarity": "common",
                    "value": [
                        "emotion",
                        "enchantment",
                        "fear",
                        "mental"
                    ]
                },
                "trigger": {
                    "value": ""
                },
                "weapon": {
                    "value": ""
                }
            },
            "effects": [],
            "flags": {},
            "img": "systems/pf2e/icons/actions/Reaction.webp",
            "name": "Someone is Watching",
            "sort": 100000,
            "type": "action"
        }
    ],
    "name": "Watching Wall",
    "token": {
        "disposition": 0,
        "height": 1,
        "img": "systems/pf2e/icons/default-icons/hazard.svg",
        "name": "Watching Wall",
        "width": 1
    },
    "type": "hazard"
}
