{
    "_id": "scgEAXAqHEr3Egeb",
    "data": {
        "actionCategory": {
            "value": ""
        },
        "actionType": {
            "value": "passive"
        },
        "actions": {
            "value": null
        },
        "description": {
            "value": "<p>Your body is infused with the essence of water and becomes adapted to its presence. You gain a swim speed of 10 feet and can breathe underwater. In addition, you can also focus this affinity to gain an additional effect.</p>\n<hr />\n<p><strong>Activate</strong> <span class=\"pf2-icon\">2 </span>envision</p>\n<p><strong>Frequency</strong> once per day</p>\n<p><strong>Effect</strong> You cast <em>@Compendium[pf2e.spells-srd.Control Water]{Control Water}</em> as a 5th-level innate divine spell. The area of water you control increases by 10 feet in length and width for every 2 levels you have beyond 10th level.</p>"
        },
        "featType": {
            "value": "deityboon"
        },
        "level": {
            "value": 10
        },
        "location": "",
        "prerequisites": {
            "value": []
        },
        "rules": [],
        "source": {
            "value": "Pathfinder #153: Life's Long Shadows"
        },
        "traits": {
            "custom": "",
            "rarity": "common",
            "value": [
                "magical",
                "transmutation",
                "water"
            ]
        }
    },
    "effects": [],
    "flags": {},
    "img": "systems/pf2e/icons/features/classes/tempest-mystery.webp",
    "name": "Resonant Reflection: Reflection of Water",
    "type": "feat"
}
