{
    "_id": "uV4jf2pkMRGLdhJX",
    "data": {
        "actionCategory": {
            "value": "interaction"
        },
        "actionType": {
            "value": "passive"
        },
        "actions": {
            "value": null
        },
        "description": {
            "value": "<p>Anyone who meets the ghost or visits its bound site can become subject to this effect. The first time the subject sleeps after their ghostly encounter, they're targeted by a <em>@Compendium[pf2e.spells-srd.Nightmare]{Nightmare}</em> spell, with the nightmares being somehow related to the ghost.</p>\n<p>Most often this means that the subject relives the ghost's last moments alive, but there are other possibilities. If the ghost wishes, it can manipulate the dreams to send messages or even hold entire conversations with dreamers.</p>"
        },
        "requirements": {
            "value": ""
        },
        "rules": [],
        "source": {
            "value": "Pathfinder #165: Eyes of Empty Death"
        },
        "traits": {
            "custom": "",
            "rarity": "common",
            "value": [
                "divine",
                "illusion",
                "mental"
            ]
        },
        "trigger": {
            "value": ""
        }
    },
    "effects": [],
    "flags": {},
    "img": "systems/pf2e/icons/actions/Passive.webp",
    "name": "(Ghost) Dreamwalker",
    "type": "action"
}
