{
    "_id": "nF7RKPONY5H9kEIo",
    "data": {
        "actionCategory": {
            "value": "offensive"
        },
        "actionType": {
            "value": "action"
        },
        "actions": {
            "value": 2
        },
        "description": {
            "value": "<p>The ghost causes one creature within 30 feet to relive the ghost's death.</p>\n<p>The target must succeed at a @Check[type:will|dc:] save or see and feel what the ghost did, taking [[/r {1d4}[persistent,mental]]] @Compendium[pf2e.conditionitems.Persistent Damage]{Persistent Mental Damage} per 2 levels the ghost has.</p>\n<p>All other creatures are @Compendium[pf2e.conditionitems.Concealed]{Concealed} to the target until the persistent damage ends.</p>"
        },
        "requirements": {
            "value": ""
        },
        "rules": [],
        "source": {
            "value": "Pathfinder #165: Eyes of Empty Death"
        },
        "traits": {
            "custom": "",
            "rarity": "common",
            "value": [
                "divine",
                "illusion",
                "mental"
            ]
        },
        "trigger": {
            "value": ""
        }
    },
    "effects": [],
    "flags": {},
    "img": "systems/pf2e/icons/actions/TwoActions.webp",
    "name": "(Ghost) Memento Mori",
    "type": "action"
}
