{
    "_id": "jTuK430yY8VgIByB",
    "data": {
        "actionCategory": {
            "value": "offensive"
        },
        "actionType": {
            "value": "action"
        },
        "actions": {
            "value": 1
        },
        "description": {
            "value": "<p data-visibility=\"gm\"><strong>Frequency</strong> once every 10 minutes</p>\n<p><strong>Effect</strong> The ghost extends its presence throughout its bound site until the end of its next turn. Within this area, the ghost can extend its senses, gaining the benefits of @Compendium[pf2e.bestiary-ability-glossary-srd.All-Around Vision]{All-Around Vision}, and can make ghostly hand attacks or use special abilities originating from any part of the area.</p>"
        },
        "requirements": {
            "value": ""
        },
        "rules": [],
        "source": {
            "value": "Pathfinder #165: Eyes of Empty Death"
        },
        "traits": {
            "custom": "",
            "rarity": "common",
            "value": []
        },
        "trigger": {
            "value": ""
        }
    },
    "effects": [],
    "flags": {},
    "img": "systems/pf2e/icons/actions/OneAction.webp",
    "name": "(Ghost) Haunted House",
    "type": "action"
}
