{
    "_id": "NSO2l1jXK32oTnVP",
    "data": {
        "actionCategory": {
            "value": "offensive"
        },
        "actionType": {
            "value": "passive"
        },
        "actions": {
            "value": null
        },
        "description": {
            "value": "<p>When winter comes to Riverton, the Kallas Devil sharpens her claws with chunks of ice. When the Kallas Devil makes a jaws or claw attack, she deals an additional [[/r {1d6}[cold]]]{1d6 cold damage}.</p>"
        },
        "requirements": {
            "value": ""
        },
        "rules": [
            {
                "damageType": "cold",
                "diceNumber": 1,
                "dieSize": "d6",
                "key": "DamageDice",
                "selector": "claw-damage"
            },
            {
                "damageType": "cold",
                "diceNumber": 1,
                "dieSize": "d6",
                "key": "DamageDice",
                "selector": "jaws-damage"
            }
        ],
        "source": {
            "value": "Pathfinder Lost Omens: Monsters of Myth"
        },
        "traits": {
            "custom": "",
            "rarity": "common",
            "value": []
        },
        "trigger": {
            "value": ""
        }
    },
    "effects": [],
    "flags": {},
    "img": "systems/pf2e/icons/actions/Passive.webp",
    "name": "(Kallas Devil)  Freezing Touch",
    "type": "action"
}
