{
    "_id": "pEJkjqjjBXj4YjYZ",
    "data": {
        "actionCategory": {
            "value": "defensive"
        },
        "actionType": {
            "value": "reaction"
        },
        "actions": {
            "value": null
        },
        "description": {
            "value": "<p data-visibility=\"gm\"><strong>Trigger</strong> A creature attempts a Strike against Kuworsys;</p>\n<p><strong>Effect</strong> Kuworsys blocks the triggering Strike by snapping its sling or a stolen weapon into a blocking position. Damage is dealt to Kuworsys's weapon first. If the weapon would be destroyed, excess damage is dealt to Kuworsys.</p>"
        },
        "requirements": {
            "value": ""
        },
        "rules": [],
        "source": {
            "value": "Pathfinder Lost Omens: Monsters of Myth"
        },
        "traits": {
            "custom": "",
            "rarity": "common",
            "value": []
        },
        "trigger": {
            "value": ""
        }
    },
    "effects": [],
    "flags": {},
    "img": "systems/pf2e/icons/actions/Reaction.webp",
    "name": "(Kuworsys) Careless Block",
    "type": "action"
}
