{
    "_id": "XvPm866TKSfclErJ",
    "data": {
        "actionCategory": {
            "value": "offensive"
        },
        "actionType": {
            "value": "passive"
        },
        "actions": {
            "value": null
        },
        "description": {
            "value": "<p>A creature damaged by the lich's hand Strike must succeed at a @Check[type:fortitude|dc:] save against the lich's spell DC-4.</p>\n<p>The creature becomes @Compendium[pf2e.conditionitems.Paralyzed]{Paralyzed} for 1 round on a failure. On a critical failure, the creature is paralyzed permanently, falls @Compendium[pf2e.conditionitems.Prone]{Prone}, and seems dead. A @Check[type:medicine|dc:25|name:Diagnose Paralysis|traits:arcane,curse,necromancy|overrideTraits:true] check reveals the victim is alive.</p>"
        },
        "requirements": {
            "value": ""
        },
        "rules": [],
        "source": {
            "value": "Pathfinder Bestiary"
        },
        "traits": {
            "custom": "",
            "rarity": "common",
            "value": [
                "arcane",
                "curse",
                "incapacitation",
                "necromancy"
            ]
        },
        "trigger": {
            "value": ""
        },
        "weapon": {
            "value": ""
        }
    },
    "effects": [],
    "flags": {},
    "img": "systems/pf2e/icons/actions/Passive.webp",
    "name": "(Lich) Paralyzing Touch",
    "type": "action"
}
