{
    "_id": "tQY2xmcIhzCM7oCC",
    "data": {
        "actionCategory": {
            "value": "offensive"
        },
        "actionType": {
            "value": "action"
        },
        "actions": {
            "value": 2
        },
        "description": {
            "value": "<p>The Melfesh Monster dissolves into a mass of fungal threads and surges forward. It @Compendium[pf2e.bestiary-ability-glossary-srd.Trample]{Tramples} (Medium or smaller, limb, @Check[type:reflex|dc:21|basic:true|name:Trample] save), leaving a spore cloud in the squares through which it moves that last until the end of its next turn. A creature that enters or begins its turn in the cloud inhales spores and must succeed at a @Check[type:fortitude|dc:21|name:Torrential Advance] save or be @Compendium[pf2e.conditionitems.Sickened]{Sickened 1} (@Compendium[pf2e.conditionitems.Sickened]{Sickened 2} on a critical failure). This ability replaces Envelop and Spore Cloud.</p>"
        },
        "requirements": {
            "value": ""
        },
        "rules": [],
        "source": {
            "value": "Pathfinder Lost Omens: Monsters of Myth"
        },
        "traits": {
            "custom": "",
            "rarity": "common",
            "value": []
        },
        "trigger": {
            "value": ""
        }
    },
    "effects": [],
    "flags": {},
    "img": "systems/pf2e/icons/actions/TwoActions.webp",
    "name": "(Melfish Monster) Torrential Advance",
    "type": "action"
}
