{
    "_id": "HKFoOZZV4WdjkeeJ",
    "data": {
        "actionCategory": {
            "value": "offensive"
        },
        "actionType": {
            "value": "passive"
        },
        "actions": {
            "value": null
        },
        "description": {
            "value": "<p>Many proteans can subject their foes to disorienting alterations perceived in time and space by creating ripples of unstable reality in the environment called warpwaves. When a creature fails its saving throw and is affected by a warpwave, roll [[/br 1d8 #Warpwave]]{1d8} and consult the table below for the specific effect on that creature. Unless indicated otherwise, a warpwave effect lasts for [[/br 1d4 #Duration Warpwave Effect]]{1d4 rounds}, and a new warpwave effect negates any previous warpwave effect already affecting a creature.</p>\n<table class=\"pf2-table\">\n<thead>\n<tr>\n<th>[[/br 1d8 #Warpwave]]{1d8}</th>\n<th>Warpwave Effect</th>\n</tr>\n</thead>\n<tbody>\n<tr>\n<td>1</td>\n<td>@Compendium[pf2e.conditionitems.Clumsy]{Clumsy 2} (@Compendium[pf2e.conditionitems.Clumsy]{Clumsy 3} on a critical failure)</td>\n</tr>\n<tr>\n<td>2</td>\n<td>@Compendium[pf2e.conditionitems.Confused]{Confused} and gains [[/r 4d6 #Temporary Hit Points]]{4d6 temporary Hit Points}</td>\n</tr>\n<tr>\n<td>3</td>\n<td>@Compendium[pf2e.conditionitems.Dazzled]{Dazzled} (permanent on a critical failure)</td>\n</tr>\n<tr>\n<td>4</td>\n<td>@Compendium[pf2e.conditionitems.Enfeebled]{Enfeebled 2} (@Compendium[pf2e.conditionitems.Enfeebled]{Enfeebled 3} on a critical failure)</td>\n</tr>\n<tr>\n<td>5</td>\n<td>@Compendium[pf2e.conditionitems.Immobilized]{Immobilized} by filaments of energy</td>\n</tr>\n<tr>\n<td>6</td>\n<td>@Compendium[pf2e.conditionitems.Quickened]{Quickened} (Stride, Strike, or Step only)</td>\n</tr>\n<tr>\n<td>7</td>\n<td>@Compendium[pf2e.conditionitems.Slowed]{Slowed 1}</td>\n</tr>\n<tr>\n<td>8</td>\n<td>@Compendium[pf2e.conditionitems.Stupefied]{Stupefied 2} (@Compendium[pf2e.conditionitems.Stupefied]{Stupefied 3} on a critical failure)</td>\n</tr>\n</tbody>\n</table>"
        },
        "requirements": {
            "value": ""
        },
        "rules": [],
        "source": {
            "value": ""
        },
        "traits": {
            "custom": "",
            "rarity": "common",
            "value": []
        },
        "trigger": {
            "value": ""
        }
    },
    "effects": [],
    "flags": {},
    "img": "systems/pf2e/icons/actions/Passive.webp",
    "name": "(Protean) Warpwave",
    "type": "action"
}
