{
    "_id": "HdSaMUb4uEsbtQTn",
    "data": {
        "actionCategory": {
            "value": "defensive"
        },
        "actionType": {
            "value": "passive"
        },
        "actions": {
            "value": null
        },
        "description": {
            "value": "<p>Thick briars have grown through the skeleton's bones, covering it in red roses with inch-long thorns.</p>\n<p>The skeleton's unarmed melee Strikes deal additional piercing damage equal to 1/3 the skeleton's level (minimum 1 damage).</p>\n<p>At the end of each of its turns, if the skeleton has caused piercing damage with its thorns, it regains HP equal to its level (minimum 1). Each time the skeleton regains HP in this way, another rose blossoms.</p>"
        },
        "requirements": {
            "value": ""
        },
        "rules": [],
        "source": {
            "value": "Pathfinder Bestiary 3"
        },
        "traits": {
            "custom": "",
            "rarity": "common",
            "value": []
        },
        "trigger": {
            "value": ""
        },
        "weapon": {
            "value": ""
        }
    },
    "effects": [],
    "flags": {},
    "img": "systems/pf2e/icons/actions/Passive.webp",
    "name": "(Skeleton) Skeleton of Roses",
    "type": "action"
}
