{
    "_id": "Y46uZK6X7J7iMsgq",
    "data": {
        "actionCategory": {
            "value": "offensive"
        },
        "actionType": {
            "value": "passive"
        },
        "actions": {
            "value": null
        },
        "description": {
            "value": "<p>Ulgrem-Axaan can mimic the sound of a wounded prey animal by attempting a Deception check to Lie. It has a +4 circumstance bonus to this check.</p>"
        },
        "requirements": {
            "value": ""
        },
        "rules": [
            {
                "key": "ToggleProperty",
                "label": "Crocodile Tears",
                "property": "flags.pf2e.rollOptions.deception.crocodile-tears"
            },
            {
                "key": "FlatModifier",
                "predicate": {
                    "all": [
                        "action:lie"
                    ]
                },
                "selector": "deception",
                "type": "circumstance",
                "value": 4
            }
        ],
        "source": {
            "value": "Pathfinder Lost Omens: Monsters of Myth"
        },
        "traits": {
            "custom": "",
            "rarity": "common",
            "value": []
        },
        "trigger": {
            "value": ""
        }
    },
    "effects": [],
    "flags": {},
    "img": "systems/pf2e/icons/actions/Passive.webp",
    "name": "(Ulgrem-Axaan) Crocodile Tears",
    "type": "action"
}
