{
    "_id": "yfcqbMRmCkfPWV9O",
    "data": {
        "actionCategory": {
            "value": "offensive"
        },
        "actionType": {
            "value": "action"
        },
        "actions": {
            "value": 1
        },
        "description": {
            "value": "<p data-visibility=\"gm\"><strong>Requirements</strong> Ulgrem-Axaan has a creature grabbed with its tail;</p>\n<p><strong>Effect</strong> Ulgrem-Axaan's tail clamps down around the creature, dealing [[/r {2d4+8}[bludgeoning]]]{2d4+8 bludgeoning} damage (@Check[type:fortitude|dc:25|basic:true|name:Crushing Weight] save).</p>"
        },
        "requirements": {
            "value": ""
        },
        "rules": [],
        "source": {
            "value": "Pathfinder Lost Omens: Monsters of Myth"
        },
        "traits": {
            "custom": "",
            "rarity": "common",
            "value": []
        },
        "trigger": {
            "value": ""
        }
    },
    "effects": [],
    "flags": {},
    "img": "systems/pf2e/icons/actions/OneAction.webp",
    "name": "(Ulgrem-Axaan) Crushing Weight",
    "type": "action"
}
