{
    "_id": "wqptDG0IW6ExnISC",
    "data": {
        "actionCategory": {
            "value": "offensive"
        },
        "actionType": {
            "value": "passive"
        },
        "actions": {
            "value": null
        },
        "description": {
            "value": "<p>If a creature dies after being reduced to 0 HP by Drink Blood, the vampire can turn this victim into a vampire by donating some of its own blood to the victim and burying the victim in earth for 3 nights.</p>\n<p>If the new vampire is lower level than its creator, it is under the creator's control. If a vampire controls too many spawn at once (as determined by the GM), strong-willed spawn can free themselves by succeeding at a @Check[type:will|dc:|name:Escape Thralldom] saving throw against the vampire's Will DC.</p>"
        },
        "requirements": {
            "value": ""
        },
        "rules": [],
        "source": {
            "value": "Pathfinder Bestiary"
        },
        "traits": {
            "custom": "",
            "rarity": "common",
            "value": [
                "divine",
                "downtime",
                "necromancy"
            ]
        },
        "trigger": {
            "value": ""
        },
        "weapon": {
            "value": ""
        }
    },
    "effects": [],
    "flags": {},
    "img": "systems/pf2e/icons/actions/Passive.webp",
    "name": "(Vampire, True) Create Spawn",
    "type": "action"
}
