{
    "_id": "ajt6K2LyAxhJ8GuP",
    "data": {
        "attributes": {
            "ac": {
                "value": 26
            },
            "hardness": 5,
            "hasHealth": true,
            "hp": {
                "details": "",
                "max": 20,
                "temp": 0,
                "tempmax": 0,
                "value": 20
            },
            "stealth": {
                "details": "<p>The three powder kegs aren't particularly well hidden, but they are out of sight to casual observation.</p>",
                "value": 5
            }
        },
        "creatureType": "",
        "details": {
            "description": "<p>Three bulky kegs of black powder placed at key locations in the temple are triggered to explode in unison, causing the entire structure to collapse into rubble and slide partially down the cliff face.</p>",
            "disable": "<p>No special skills are required to disable this manually activated trap. As an Interact action, a PC can sweep aside some black powder to interrupt the fuse line, but this doesn't prevent Gerhard from activating a keg via blunderbuss. A keg that is removed from its position (either by being thrown over the cliff or merely carried away) retains its explosive potential, but as long as one of the three kegs are removed they no longer have the precise placement required to trigger a collapse-an explosion at this point merely inflicts fire damage in the appropriate areas but does not particularly damage the temple structure itself.</p>\n<p>A keg's contents can be dispersed by scattering the gunpowder to the wind (most efficiently by pouring it over the cliff side) as a 2-action activity, or rendered permanently inert by pouring a gallon of water into the powder, inhibiting its explosive qualities. The kegs themselves can be destroyed with damage (note that the AC listed below for each keg takes into account the fact that Gerhard has wedged the kegs into nooks in the temple's stone flooring and walls), but note that any fire damage (including incidental fire damage from area effects like a fireball or Gerhard's blunderbuss) causes them to explode. At your option, other actions may be similarly effective at disabling this hazard.</p>",
            "isComplex": false,
            "level": {
                "value": 6
            },
            "reset": "",
            "routine": "<p>If Gerhard lights the black powder fuse, it burns at a speed of 10 feet each round; when the fuse reaches a keg 6 rounds later, the black powder bomb explodes. The bomb explodes immediately if he shoots a barrel with his blunderbuss.</p>"
        },
        "saves": {
            "fortitude": {
                "saveDetail": "",
                "value": 17
            },
            "reflex": {
                "saveDetail": "",
                "value": 8
            },
            "will": {
                "saveDetail": "",
                "value": 0
            }
        },
        "source": {
            "value": ""
        },
        "statusEffects": [],
        "traits": {
            "ci": [],
            "di": {
                "custom": "",
                "selected": {},
                "value": [
                    "critical-hits",
                    "object-immunities",
                    "precision"
                ]
            },
            "dr": [],
            "dv": [
                {
                    "type": "fire",
                    "value": 5
                }
            ],
            "rarity": "uncommon",
            "size": {
                "value": "med"
            },
            "traits": {
                "custom": "",
                "value": [
                    "mechanical",
                    "trap"
                ]
            }
        }
    },
    "effects": [],
    "flags": {},
    "img": "systems/pf2e/icons/default-icons/hazard.svg",
    "items": [
        {
            "_id": "RJtBHxR2U04jtD7I",
            "data": {
                "actionCategory": {
                    "value": "offensive"
                },
                "actionType": {
                    "value": "reaction"
                },
                "actions": {
                    "value": null
                },
                "description": {
                    "value": "<p data-visibility=\"gm\"><strong>Trigger</strong> One of the three kegs takes any fire damage, including damage caused by a line of black powder burning up to a keg.</p>\n<p><strong>Effect</strong> The keg explodes, causing [[/r {5d6}[fire]]]{5d6 fire damage} (@Check[type:reflex|dc:24|basic:true|traits:mechanical,trap]) in a @Template[type:emanation|distance:20]; this can cause an instantaneous chain reaction if either of the other kegs are in this area (note that as positioned, all three kegs are in range to trigger a chain reaction). Fire damage in overlapping areas isn't cumulative, but if all three kegs are in their initial positions when the explosion occurs, the temple itself collapses, causing [[/r {8d6}[bludgeoning]]]{8d6 bludgeoning damage} to all creatures in the temple (@Check[type:reflex|dc:24|basic:true|name:Temple Collapse|traits:mechanical,trap]).</p>"
                },
                "requirements": {
                    "value": ""
                },
                "rules": [],
                "slug": null,
                "source": {
                    "value": ""
                },
                "traits": {
                    "custom": "",
                    "rarity": "common",
                    "value": [
                        "fire"
                    ]
                },
                "trigger": {
                    "value": ""
                },
                "weapon": {
                    "value": ""
                }
            },
            "effects": [],
            "flags": {},
            "img": "systems/pf2e/icons/actions/Reaction.webp",
            "name": "Destructive Explosion",
            "sort": 100000,
            "type": "action"
        }
    ],
    "name": "Black Powder Bomb",
    "token": {
        "disposition": 0,
        "height": 1,
        "img": "systems/pf2e/icons/default-icons/hazard.svg",
        "name": "Black Powder Bomb",
        "width": 1
    },
    "type": "hazard"
}
