{
    "_id": "TrZ0ixbWfscr0k93",
    "data": {
        "attributes": {
            "ac": {
                "value": 0
            },
            "hardness": 0,
            "hasHealth": false,
            "hp": {
                "details": "",
                "max": 0,
                "temp": 0,
                "value": 0
            },
            "stealth": {
                "details": "<p>(trained)</p>",
                "value": 10
            }
        },
        "creatureType": "",
        "details": {
            "description": "<p>Magical sensors detect when a creature enters the chamber.</p>",
            "disable": "<p>@Check[type:diplomacy|dc:21|name:Convince the Spirit|traits:complex,haunt] to convince the spirit to calm the winds, @Check[type:athletics|dc:19|name:Raise a Wooden Bench|traits:complex,haunt] to raise up a wooden bench to block the wind, or @Check[type:religion|dc:19|name:Speak an Appropriate Rite|traits:complex,haunt] to speak an appropriate rite to calm the spirit. Two successful checks are required to fully disable the haunt, and each attempt takes two actions. Each successful check removes one action from the haunt.</p>",
            "isComplex": true,
            "level": {
                "value": 3
            },
            "reset": "<p>The storm continues raging for 1 minute unless disabled, and then dissipates, returning after 1 week.</p>",
            "routine": "<p>(2 actions) The haunt uses its first action to stir up a storm of debris against all creatures in the quadrant clockwise from where it last attacked. Creatures in the quadrant take [[/r {2d4+4}[bludgeoning]]]{2d4+4 bludgeoning damage} (@Check[type:reflex|dc:18|basic:true]). For each additional action it has (at most 1 without adjustments from the scaling sidebar), the storm targets an additional quadrant, moving clockwise around the area. On the first round, it begins by attacking creatures in the northwestern quadrant.</p>"
        },
        "saves": {
            "fortitude": {
                "saveDetail": "",
                "value": 0
            },
            "reflex": {
                "saveDetail": "",
                "value": 0
            },
            "will": {
                "saveDetail": "",
                "value": 0
            }
        },
        "source": {
            "value": "Pathfinder Society Scenario #3-02: The East Hill Haunting"
        },
        "statusEffects": [],
        "traits": {
            "ci": [],
            "di": {
                "custom": "",
                "selected": {},
                "value": []
            },
            "dr": [],
            "dv": [],
            "rarity": "uncommon",
            "size": {
                "value": "med"
            },
            "traits": {
                "custom": "",
                "value": [
                    "haunt"
                ]
            }
        }
    },
    "effects": [],
    "flags": {},
    "img": "systems/pf2e/icons/default-icons/hazard.svg",
    "items": [
        {
            "_id": "a5aoj7j1ljuib3oq",
            "data": {
                "actionCategory": {
                    "value": "offensive"
                },
                "actionType": {
                    "value": "reaction"
                },
                "actions": {
                    "value": null
                },
                "description": {
                    "value": "<p data-visibility=\"gm\"><strong>Trigger</strong> A creature enters the marked area of the haunt</p>\n<p><strong>Effect</strong> A ghostly figure manifests and conjures forth a telekinetic storm of debris from the area and then quickly disappears. The haunt rolls initiative.</p>"
                },
                "requirements": {
                    "value": ""
                },
                "rules": [],
                "slug": null,
                "source": {
                    "value": ""
                },
                "traits": {
                    "custom": "",
                    "rarity": "common",
                    "value": [
                        "auditory",
                        "emotion",
                        "fear",
                        "occult"
                    ]
                },
                "trigger": {
                    "value": ""
                }
            },
            "effects": [],
            "flags": {},
            "img": "systems/pf2e/icons/actions/Reaction.webp",
            "name": "Appearance",
            "sort": 0,
            "type": "action"
        }
    ],
    "name": "Raging Debris Storm",
    "token": {
        "disposition": 0,
        "height": 1,
        "img": "systems/pf2e/icons/default-icons/hazard.svg",
        "name": "Raging Debris Storm",
        "width": 1
    },
    "type": "hazard"
}
