{
    "_id": "TSDbyYRQwhIyY2Oq",
    "data": {
        "actionCategory": {
            "value": "offensive"
        },
        "actionType": {
            "value": "free"
        },
        "actions": {
            "value": null
        },
        "description": {
            "value": "<p><strong>Trigger</strong> You roll initiative.</p>\n<hr />\n<p>You unleash a small surge of magical energy into your weapon, shrouding the bullet with potential energy and granting it the ability to deal energy damage to your foes to exploit their weaknesses. You can Interact to draw a ranged weapon. On your first three Strikes of this encounter with a firearm or crossbow, you deal an additional 1 acid, cold, fire or electricity damage. You choose which damage type to deal as part of making each Strike.</p>"
        },
        "requirements": {
            "value": ""
        },
        "rules": [],
        "source": {
            "value": ""
        },
        "traits": {
            "custom": "",
            "rarity": "common",
            "value": [
                "evocation",
                "magical",
                "spellshot"
            ]
        },
        "trigger": {
            "value": ""
        }
    },
    "effects": [],
    "flags": {},
    "img": "systems/pf2e/icons/actions/FreeAction.webp",
    "name": "Energy Shot",
    "type": "action"
}
