{
    "_id": "Ul4I0ER6pj3U5eAk",
    "data": {
        "actionCategory": {
            "value": ""
        },
        "actionType": {
            "value": "reaction"
        },
        "actions": {
            "value": null
        },
        "description": {
            "value": "<p><strong>Frequency</strong> once per hour</p>\n<p><strong>Trigger</strong> A creature within 60 feet gains the @Compendium[pf2e.conditionitems.Frightened]{Frightened} condition.</p>\n<hr />\n<p>You are invigorated by the shock of a prank or the thrum of terror. You gain temporary Hit Points equal to the creature's level or 3, whichever is higher. You lose any temporary Hit Points after 1 minute.</p>"
        },
        "requirements": {
            "value": ""
        },
        "rules": [],
        "source": {
            "value": "Pathfinder Lost Omens: Ancestry Guide"
        },
        "traits": {
            "custom": "",
            "rarity": "common",
            "value": []
        },
        "trigger": {
            "value": ""
        },
        "weapon": {
            "value": ""
        }
    },
    "effects": [],
    "flags": {},
    "img": "systems/pf2e/icons/actions/Reaction.webp",
    "name": "Invigorating Fear",
    "type": "action"
}
