{
    "_id": "kUME7DMhhHH6eIiH",
    "data": {
        "actionCategory": {
            "value": ""
        },
        "actionType": {
            "value": "reaction"
        },
        "actions": {
            "value": null
        },
        "description": {
            "value": "<p><strong>Trigger</strong> You roll your lucky number as your d20 result on a non‑secret attack roll, saving throw, or skill check</p>\n<p><strong>Effect</strong> You call upon the fortune stored within your lucky number and reroll the triggering check. However, pushing your luck has a price: if your result on the reroll is the same number again, you critically fail, regardless of what degree of success you ordinarily would have received.</p>"
        },
        "requirements": {
            "value": ""
        },
        "rules": [],
        "source": {
            "value": ""
        },
        "traits": {
            "custom": "",
            "rarity": "common",
            "value": [
                "divination",
                "fortune"
            ]
        },
        "trigger": {
            "value": ""
        },
        "weapon": {
            "value": ""
        }
    },
    "effects": [],
    "flags": {},
    "img": "systems/pf2e/icons/actions/Reaction.webp",
    "name": "That's My Number",
    "type": "action"
}
