{
    "_id": "CIfqUEC0mITBjwmL",
    "data": {
        "description": {
            "value": "<p>As long as it is within 30 feet of you, the summoned creature gains a +1 status bonus to AC. If it ever moves farther than 30 feet from you, the sigil fades and the creature loses the status bonus to AC, even if it later comes within 30 feet of you again.</p>"
        },
        "duration": {
            "expiry": "turn-start",
            "sustained": false,
            "unit": "unlimited",
            "value": -1
        },
        "level": {
            "value": 6
        },
        "rules": [
            {
                "key": "FlatModifier",
                "selector": "ac",
                "type": "status",
                "value": 1
            }
        ],
        "source": {
            "value": ""
        },
        "start": {
            "initiative": null,
            "value": 0
        },
        "target": null,
        "tokenIcon": {
            "show": true
        },
        "traits": {
            "custom": "",
            "rarity": "common",
            "value": []
        }
    },
    "effects": [],
    "flags": {},
    "img": "systems/pf2e/icons/default-icons/effect.svg",
    "name": "Effect: Sarkorian God-Caller Garb",
    "type": "effect"
}
