{
    "_id": "5uK3fmGlfJrbWQz4",
    "data": {
        "description": {
            "value": "<p>Granted by @Compendium[pf2e.equipment-srd.Stalwart's Ring]{Stalwart's Ring}</p>\n<hr />\n<p>Automatically applied effects:</p>\n<ul>\n<li>You gain 5 temporary Hit Points</li>\n</ul>"
        },
        "duration": {
            "expiry": "turn-start",
            "sustained": false,
            "unit": "unlimited",
            "value": -1
        },
        "level": {
            "value": 5
        },
        "rules": [
            {
                "key": "TempHP",
                "value": 5
            }
        ],
        "source": {
            "value": ""
        },
        "start": {
            "initiative": null,
            "value": 0
        },
        "target": null,
        "tokenIcon": {
            "show": true
        },
        "traits": {
            "custom": "",
            "rarity": "common",
            "value": []
        }
    },
    "effects": [],
    "flags": {},
    "img": "systems/pf2e/icons/equipment/worn-items/other-worn-items/stalwarts-ring.webp",
    "name": "Effect: Stalwart's Ring",
    "type": "effect"
}
