{
    "_id": "3LhreroLRmI4atE6",
    "data": {
        "description": {
            "value": "<p>Granted by @Compendium[pf2e.equipment-srd.Clockwork Cloak]{Clockwork Cloak}</p>\n<hr />\n<p>Automatically applied effects:</p>\n<ul>\n<li>-4 penalty to Perception</li>\n<li>+2 item bonus to Initiative</li>\n</ul>"
        },
        "duration": {
            "expiry": "turn-start",
            "sustained": false,
            "unit": "unlimited",
            "value": -1
        },
        "level": {
            "value": 18
        },
        "rules": [
            {
                "key": "FlatModifier",
                "selector": "perception",
                "value": -4
            },
            {
                "key": "FlatModifier",
                "selector": "initiative",
                "type": "item",
                "value": 2
            }
        ],
        "source": {
            "value": "Pathfinder #161: Belly of the Black Whale"
        },
        "start": {
            "initiative": null,
            "value": 0
        },
        "target": null,
        "tokenIcon": {
            "show": true
        },
        "traits": {
            "custom": "",
            "rarity": "common",
            "value": []
        }
    },
    "effects": [],
    "flags": {},
    "img": "systems/pf2e/icons/equipment/worn-items/other-worn-items/clockwork-cloak.webp",
    "name": "Effect: Clockwork Cloak",
    "type": "effect"
}
