{
    "_id": "nJRoiSyd67eQ1dYj",
    "data": {
        "description": {
            "value": "<p>The creature takes a -10-foot status penalty to its Speeds until the end of its next turn.</p>"
        },
        "duration": {
            "expiry": "turn-end",
            "sustained": false,
            "unit": "rounds",
            "value": 1
        },
        "level": {
            "value": 11
        },
        "rules": [
            {
                "key": "FlatModifier",
                "selector": "speed",
                "type": "status",
                "value": -10
            }
        ],
        "source": {
            "value": "Pathfinder Core Rulebook"
        },
        "start": {
            "initiative": null,
            "value": 0
        },
        "target": null,
        "tokenIcon": {
            "show": true
        },
        "traits": {
            "custom": "",
            "rarity": "common",
            "value": []
        }
    },
    "effects": [],
    "flags": {},
    "img": "systems/pf2e/icons/equipment/alchemical-items/alchemical-bombs/frost-vial.webp",
    "name": "Effect: Frost Vial (Greater)",
    "type": "effect"
}
