{
    "_id": "Nd9hdX8rdYyRozw8",
    "data": {
        "ancestry": {
            "name": "Elf",
            "uuid": "Compendium.pf2e.ancestries.PgKmsA2aKdbLU6O0"
        },
        "description": {
            "value": "<p>In your long life, you've dabbled in many paths and many styles. typical ancient elf is at least 100 years old, though you might be younger at the GM's discretion. Choose a class other than your own. You gain the multiclass dedication feat for that class, even though you don't meet its level prerequisite. You must still meet its other prerequisites to gain the feat.</p>"
        },
        "rules": [],
        "source": {
            "value": ""
        },
        "traits": {
            "custom": "",
            "rarity": "common",
            "value": []
        }
    },
    "effects": [],
    "flags": {},
    "img": "systems/pf2e/icons/features/ancestry/ancient-elf.webp",
    "name": "Ancient Elf",
    "type": "heritage"
}
