{
    "_id": "NfIAGatB1KIzt8G7",
    "data": {
        "ancestry": {
            "name": "Elf",
            "uuid": "Compendium.pf2e.ancestries.PgKmsA2aKdbLU6O0"
        },
        "description": {
            "value": "<p>You were born or spent many years in underground tunnels or caverns where light is scarce. You gain @Compendium[pf2e.ancestryfeatures.Darkvision]{Darkvision}.</p>"
        },
        "rules": [
            {
                "key": "Sense",
                "label": "PF2E.SensesDarkvision",
                "selector": "darkvision"
            }
        ],
        "source": {
            "value": ""
        },
        "traits": {
            "custom": "",
            "rarity": "common",
            "value": []
        }
    },
    "effects": [],
    "flags": {},
    "img": "systems/pf2e/icons/features/ancestry/caveren-elf.webp",
    "name": "Cavern Elf",
    "type": "heritage"
}
