{
    "_id": "wn4EbYk1QN3tyFhh",
    "data": {
        "ancestry": {
            "name": "Orc",
            "uuid": "Compendium.pf2e.ancestries.lSGWXjcbOa6O5fTx"
        },
        "description": {
            "value": "<p>Your calloused hands and red eyes speak to a life spent in the deep darkness of mountain caverns, where you learned to battle on rocky cliffs and survive with minimal resources. You gain the @Compendium[pf2e.feats-srd.Terrain Expertise (Underground)]{Terrain Expertise (Underground)} skill feat and the @Compendium[pf2e.feats-srd.Combat Climber]{Combat Climber} skill feat.</p>"
        },
        "rules": [
            {
                "key": "GrantItem",
                "uuid": "Compendium.pf2e.feats-srd.Terrain Expertise (Underground)"
            },
            {
                "key": "GrantItem",
                "uuid": "Compendium.pf2e.feats-srd.Combat Climber"
            }
        ],
        "source": {
            "value": ""
        },
        "traits": {
            "custom": "",
            "rarity": "common",
            "value": []
        }
    },
    "effects": [],
    "flags": {},
    "img": "systems/pf2e/icons/features/ancestry/deep-orc.webp",
    "name": "Deep Orc",
    "type": "heritage"
}
