{
    "_id": "g4FRxyuHndZu4KTo",
    "data": {
        "ancestry": {
            "name": "Tengu",
            "uuid": "Compendium.pf2e.ancestries.18xDKYPDBLEv2myX"
        },
        "description": {
            "value": "<p>Your lineage has been exposed to curse after curse, and now, they slide off your feathers like rain. If you succeed at a saving throw against a curse or misfortune effect, you get a critical success instead.</p>\n<p>When you would gain the @Compendium[pf2e.conditionitems.Doomed]{Doomed} condition, attempt a @Check[type:flat|dc:17] check. On a success, reduce the value of the doomed condition you would gain by 1.</p>"
        },
        "rules": [
            {
                "adjustment": {
                    "success": "one-degree-better"
                },
                "key": "AdjustDegreeOfSuccess",
                "predicate": {
                    "any": [
                        "curse",
                        "misfortune"
                    ]
                },
                "selector": "saving-throw",
                "type": "save"
            },
            {
                "key": "Note",
                "selector": "saving-throw",
                "text": "<p class='compact-text'><strong>{item|name}</strong> If you succeed at a saving throw against a curse or misfortune effect, you get a critical success instead.</p>"
            }
        ],
        "source": {
            "value": ""
        },
        "traits": {
            "custom": "",
            "rarity": "common",
            "value": []
        }
    },
    "effects": [],
    "flags": {},
    "img": "systems/pf2e/icons/features/ancestry/jinxed-tengu.webp",
    "name": "Jinxed Tengu",
    "type": "heritage"
}
