{
    "_id": "Lp7ywxabmm88Gei6",
    "data": {
        "ancestry": {
            "name": "Halfling",
            "uuid": "Compendium.pf2e.ancestries.GgZAHbrjnzWOZy2v"
        },
        "description": {
            "value": "<p>Your finely honed senses quickly clue you in to danger or trickery. You gain a +1 circumstance bonus to your Perception DC, though not to your Perception checks.</p>"
        },
        "rules": [
            {
                "key": "ToggleProperty",
                "label": "Enable Observant Halfling Perception DC bonus",
                "property": "flags.pf2e.rollOptions.perception.observantHalfling"
            },
            {
                "key": "FlatModifier",
                "predicate": {
                    "all": [
                        "observantHalfling"
                    ]
                },
                "selector": "perception",
                "type": "untyped",
                "value": 1
            }
        ],
        "source": {
            "value": ""
        },
        "traits": {
            "custom": "",
            "rarity": "common",
            "value": []
        }
    },
    "effects": [],
    "flags": {},
    "img": "systems/pf2e/icons/features/ancestry/observant-halfling.webp",
    "name": "Observant Halfling",
    "type": "heritage"
}
