{
    "_id": "VSyOvtgJ1ZNpIVgC",
    "data": {
        "ancestry": {
            "name": "Dwarf",
            "uuid": "Compendium.pf2e.ancestries.BYj5ZvlXZdpaEgA6"
        },
        "description": {
            "value": "<p>Your ancestors lived and worked among the great ancient stones of the mountains or the depths of the earth. This makes you solid as a rock when you plant your feet. You gain a +2 circumstance bonus to your Fortitude or Reflex DC against attempts to @Compendium[pf2e.actionspf2e.Shove]{Shove} or @Compendium[pf2e.actionspf2e.Trip]{Trip} you. This bonus also applies to saving throws against spells or effects that attempt to knock you @Compendium[pf2e.conditionitems.Prone]{Prone}.</p>\n<p>In addition, if any effect would force you to move 10 feet or more, you are moved only half the distance.</p>"
        },
        "rules": [
            {
                "key": "FlatModifier",
                "label": "PF2E.SkillVariant.VsShoveOrTrip",
                "predicate": {
                    "any": [
                        "origin:action:shove",
                        "origin:action:trip"
                    ]
                },
                "selector": "fortitude",
                "type": "circumstance",
                "value": 2
            },
            {
                "key": "FlatModifier",
                "label": "PF2E.SkillVariant.VsShoveOrTrip",
                "predicate": {
                    "any": [
                        "origin:action:shove",
                        "origin:action:trip"
                    ]
                },
                "selector": "reflex",
                "type": "circumstance",
                "value": 2
            },
            {
                "key": "FlatModifier",
                "label": "PF2E.SkillVariant.VsProne",
                "predicate": {
                    "any": [
                        "origin:action:shove",
                        "origin:action:trip"
                    ]
                },
                "selector": "saving-throw",
                "type": "circumstance",
                "value": 2
            }
        ],
        "source": {
            "value": ""
        },
        "traits": {
            "custom": "",
            "rarity": "common",
            "value": []
        }
    },
    "effects": [],
    "flags": {},
    "img": "systems/pf2e/icons/features/ancestry/rock-dwarf.webp",
    "name": "Rock Dwarf",
    "type": "heritage"
}
