{
    "_id": "U882U2NUUGL6u3rL",
    "data": {
        "ancestry": {
            "name": "Ratfolk",
            "uuid": "Compendium.pf2e.ancestries.P6PcVnCkh4XMdefw"
        },
        "description": {
            "value": "<p>Your incredibly small bones allow you to easily compress your body and squeeze through gaps. You gain the @Compendium[pf2e.feats-srd.Quick Squeeze]{Quick Squeeze} feat as a bonus feat, even if you aren't trained in Acrobatics. Tight spaces not tight enough to require the Squeeze action aren't difficult terrain for you.</p>"
        },
        "rules": [
            {
                "key": "GrantItem",
                "uuid": "Compendium.pf2e.feats-srd.Quick Squeeze"
            }
        ],
        "source": {
            "value": ""
        },
        "traits": {
            "custom": "",
            "rarity": "common",
            "value": []
        }
    },
    "effects": [],
    "flags": {},
    "img": "systems/pf2e/icons/default-icons/heritage.svg",
    "name": "Tunnel Rat",
    "type": "heritage"
}
