{
    "_id": "x5S4MNQ0aqUmgHcC",
    "data": {
        "ancestry": {
            "name": "Goloma",
            "uuid": "Compendium.pf2e.ancestries.c4secsSNG2AO7I5i"
        },
        "description": {
            "value": "<p>The chitin on your hands forms powerful claws that allow you to defend yourself. You gain a claw unarmed attack that deals [[/r {1d6}[slashing]]]{1d6 slashing damage}. Your claws are in the brawling group and have the agile, finesse, and unarmed traits.</p>"
        },
        "rules": [
            {
                "category": "unarmed",
                "damage": {
                    "base": {
                        "damageType": "slashing",
                        "dice": 1,
                        "die": "d6"
                    }
                },
                "group": "brawling",
                "img": "systems/pf2e/icons/features/ancestry/claws.webp",
                "key": "Strike",
                "label": "PF2E.Weapon.Base.claw",
                "range": null,
                "traits": [
                    "agile",
                    "finesse",
                    "unarmed"
                ]
            }
        ],
        "source": {
            "value": ""
        },
        "traits": {
            "custom": "",
            "rarity": "common",
            "value": []
        }
    },
    "effects": [],
    "flags": {},
    "img": "systems/pf2e/icons/default-icons/heritage.svg",
    "name": "Vicious Goloma",
    "type": "heritage"
}
