{
    "_id": "evXJISqyhl3fHE9u",
    "data": {
        "ancestry": {
            "name": "Leshy",
            "uuid": "Compendium.pf2e.ancestries.cdhgByGG1WtuaK73"
        },
        "description": {
            "value": "<p>The prehensile vines woven into your body grant you unmatched skill at climbing. You do not need to have any hands free to @Compendium[pf2e.actionspf2e.Climb]{Climb}. Additionally, if you roll a success on an Athletics check to climb, you get a critical success instead.</p>"
        },
        "rules": [
            {
                "key": "Note",
                "predicate": {
                    "all": [
                        "action:climb"
                    ]
                },
                "selector": "athletics",
                "text": "<p class='compact-text'><strong>{item|name}</strong> When you roll a success to Climb, you get a critical success instead.</p>"
            }
        ],
        "source": {
            "value": ""
        },
        "traits": {
            "custom": "",
            "rarity": "common",
            "value": []
        }
    },
    "effects": [],
    "flags": {},
    "img": "systems/pf2e/icons/features/ancestry/vine-leshy.webp",
    "name": "Vine Leshy",
    "type": "heritage"
}
