{
    "_id": "1wVDYY9Wue0G5R9Q",
    "data": {
        "ancestry": {
            "name": "Elf",
            "uuid": "Compendium.pf2e.ancestries.PgKmsA2aKdbLU6O0"
        },
        "description": {
            "value": "<p>Your ears are finely tuned, able to detect even the slightest whispers of sound.</p>\n<p>As long as you can hear normally, you can use the @Compendium[pf2e.actionspf2e.Seek]{Seek} action to sense @Compendium[pf2e.conditionitems.Undetected]{Undetected} creatures in a @Template[type:cone|distance:60] instead of a @Template[type:cone|distance:30].</p>\n<p>You also gain a +2 circumstance bonus to locate undetected creatures that you could hear within 30 feet with a seek action.</p>"
        },
        "rules": [
            {
                "key": "FlatModifier",
                "label": "Whisper Elf (locate audible undetected within range)",
                "predicate": {
                    "all": [
                        "target:undetected",
                        "target:within-30-feet",
                        "target:audible"
                    ]
                },
                "selector": "perception",
                "type": "circumstance",
                "value": 2
            }
        ],
        "source": {
            "value": ""
        },
        "traits": {
            "custom": "",
            "rarity": "common",
            "value": []
        }
    },
    "effects": [],
    "flags": {},
    "img": "systems/pf2e/icons/features/ancestry/whisper-elf.webp",
    "name": "Whisper Elf",
    "type": "heritage"
}
