{
    "_id": "Le8UWr5BU8rV3iBf",
    "data": {
        "description": {
            "value": "<p>Your familiar's maximum Hit Points increase by 2 per level.</p>"
        },
        "duration": {
            "expiry": "turn-start",
            "sustained": false,
            "unit": "unlimited",
            "value": -1
        },
        "level": {
            "value": 1
        },
        "rules": [
            {
                "key": "FlatModifier",
                "selector": "hp",
                "type": "untyped",
                "value": "2 * @actor.level"
            }
        ],
        "source": {
            "value": ""
        },
        "start": {
            "initiative": null,
            "value": 0
        },
        "target": null,
        "tokenIcon": {
            "show": false
        },
        "traits": {
            "custom": "",
            "rarity": "common",
            "value": []
        }
    },
    "effects": [],
    "flags": {},
    "img": "systems/pf2e/icons/actions/Passive.webp",
    "name": "Tough",
    "type": "effect"
}
