{
    "_id": "9n2CI0B3EA4y3BuU",
    "content": "<h1>Alseta (The Welcomer) [LN]</h1><p>Alseta holds sway over transitions. Physical transitions through doorways and portals or over thresholds, metaphorical transitions, and even the forward flow of time-Alseta influences them all. She watches over city gates, helping keep invaders out and defenders safe. She also watches over those moving into a new stage in life, whether that means a birthday, a marriage, or a more fitting body. It is common for anyone entering into a life change, such as moving to a new town or changing careers, to look to Alseta for guidance. Likewise, birth and death are both transitions, and expectant mothers and the bereaved both offer her prayers, linking Alseta's church to that of @Compendium[pf2e.deities.Pharasma]{Pharasma}. Some consider Alseta to be the goddess of teleportation, though she does not officially claim that title. She is also a popular god among some elven nations and cultures, who frequently associate Alseta with the <em>aiudara</em>, or elf gates, around Golarion.</p>\n<p><strong>Edicts</strong> offer to protect passageways and guide others through transitions, treat all other beings with courtesy and respect</p>\n<p><strong>Anathema</strong> destroy a door or block a path for personal gain, stop a transition without good reason</p>\n<p><strong>Areas of Concern</strong> doors, portals, thresholds, traditions</p>\n<p><strong>Follower Alignments</strong> LG, LN, N</p><h2>Devotee Benefits</h2><div><div><strong>Divine Ability</strong> Intelligence or Charisma</div><div><strong>Divine Font</strong> heal</div><div><strong>Divine Skill</strong> Diplomacy</div><div><strong>Favored Weapon</strong> dagger</div><div><strong>Domains</strong> change, magic, protection, time</div><div><strong>Cleric Spells</strong> 1st: anticipate peril, 2nd: knock, 4th: dimension door</div></div><h2>Divine Intercession</h2><p>The Welcomer is a patient goddess that rewards her followers. Incurring her wrath through discourtesy, lack of respect or intentionally making doors unpassable for any reason other than preventing harm can lead to reprimands that range from annoying to frustrating.</p>\n<p><strong>Minor Boon</strong> Alseta's guiding hand aids your journeys. Once, when employing teleportation magic, you appear exactly on target, even if you used a notoriously imprecise spell like plane shift. Alseta typically grants this boon for extremely consequential magical travel, especially when time is of the essence.</p>\n<p><strong>Moderate Boon</strong> New doors open themselves for you. You can cast knock once per day as a divine innate spell.</p>\n<p><strong>Major Boon</strong> You transition unimpeded through the world. You can open any door or portal simply by placing your palm upon it with a single Interact action, even if it's locked or magically sealed, and you can enter any open door or threshold, even if it's magically warded to prevent entry. This doesn't overcome the locks and magic of artifacts, deities, and similarly powerful effects.</p>\n<p><strong>Minor Curse</strong> Doors jam and locks stick when you try to open them. It takes 3 Interact actions for you to open even an unlocked door, and each attempt to Pick a Lock takes you 2 rounds instead of 2 actions.</p>\n<p><strong>Moderate Curse</strong> Crossing thresholds becomes daunting. Whenever you move through a portal, gateway, or door, you gain the sickened 2 condition. Magical travel is even more exhausting; after traveling via teleportation, plane shift, or the like, you also gain the fatigued condition until you get a full night's rest.</p>\n<p><strong>Major Curse</strong> Transportation magic no longer works for you. You cannot be transported by any magical means, nor can you transport, conjure, or summon others. Even extradimensional spaces like bags of holding are inaccessible and unusable to you, as using them requires magical transportation to the extradimensional space.</p>",
    "flags": {},
    "name": "Alseta",
    "permission": {
        "default": 0
    }
}
