{
    "_id": "M3eb94Nd6uXti2IK",
    "content": "<h1>Daikitsu (Lady of Foxes) [N]</h1><p>It is not surprising that the Tian Xia goddess Daikitsu is a common object of veneration, given that she has the everyday subjects of rice, agriculture, and craftsmanship under her divine purview. Her holy symbol is that of a nine-tailed fox.</p>\n<p><strong>Edicts</strong> Ensure the health of crops and vegetation, perfect a craft or trade, leave offerings for foxes, celebrate the turning of the seasons</p>\n<p><strong>Anathema</strong> Mistreat your tools, pass a beggar without giving alms, discriminate against sex workers or the lower class</p>\n<p><strong>Follower Alignments</strong> NG, LN, N, CN</p><h2>Devotee Benefits</h2><div><div><strong>Divine Ability</strong> Dexterity or Intelligence</div><div><strong>Divine Font</strong> heal</div><div><strong>Divine Skill</strong> Crafting</div><div><strong>Favored Weapon</strong> flail</div><div><strong>Domains</strong> change, creation, family, nature</div><div><strong>Cleric Spells</strong> 1st: pest form, 2nd: humanoid form, 5th: illusory scene</div></div>",
    "flags": {},
    "name": "Daikitsu",
    "permission": {
        "default": 0
    }
}
