{
    "_id": "Af4TSJjutVi9Vdwi",
    "content": "<h1>Mahathallah (Dowager of Illusions) [LE]</h1><p>While the other Queens of the Night are all fallen celestials, Mahathallah was once among the most powerful of the monitors: a psychopomp usher in service of Pharasma. Granted a glimpse of the end of her own existence, Mahathallah fled to the pits of Hell, finding some form of solace in Asmodeus's counsel. Now the Dowager of Illusions, Mahathallah deals in death, fate, and vanity, pulling back the veils of lies that obscure the profound facts of existence. She teaches her followers to seek the truths underlying each falsehood, fomenting arrogance and callousness in them. She also serves as a distant, deliberate advisor to the other Queens of the Night.</p>\n<p><strong>Edicts</strong> Become an arbiter of reality, reject conventional wisdom as falsehood, capitalize on the ignorance of others</p>\n<p><strong>Anathema</strong> Become too invested in mortal affairs</p>\n<p><strong>Follower Alignments</strong> LN, LE, NE</p><h2>Devotee Benefits</h2><div><div><strong>Divine Ability</strong> Wisdom or Charisma</div><div><strong>Divine Font</strong> harm</div><div><strong>Divine Skill</strong> Deception</div><div><strong>Favored Weapon</strong> bola</div><div><strong>Domains</strong> fate, trickery, truth, undeath</div><div><strong>Cleric Spells</strong> 1st: illusory disguise, 2nd: misdirection, 5th: illusory scene</div></div>",
    "flags": {},
    "name": "Mahathallah",
    "permission": {
        "default": 0
    }
}
