{
    "_id": "3nxIpMGeCvcBIVov",
    "content": "<h1>Nyarlathotep (The Crawling Chaos) [CE]</h1>\n<p>Nyarlathotep is a being of a thousand shapes, each of which has a name, such as the Haunter of the Dark or the Black Pharaoh. Because he has walked the world in mortal form, Nyarlathotep is unique among the Outer Gods for appearing comprehensible and understandable-but this is a facade. The Crawling Chaos, as he is also known, appears humanlike not because he identifies with mortal concerns or cares for his mortal followers, but because a mortal shape makes it easier for him to do his work: spreading the influence of the Outer Gods.</p>\n<p>In his role as a herald, messenger, and agent provocateur for the Outer Gods, Nyarlathotep is the Outer God most likely to have direct interactions with mortals. He answers prayers, teaches evil magic, and inserts himself into history-all to enable mortal cruelty, facilitate the release of Great Old Ones, and turn whole societies toward worship of the Outer Gods. He was instrumental in the fall of Ancient Osirion, and some believe he led Taldor to launch the Armies of Exploration, a glorious folly that proved the ruin of that empire. There are countless tales of his interaction with (and often possession of) mortal cultists and magicians who dare to call upon him, and they all end in grotesque corruption and death. Nyarlathotep also lingers among Azathoth's court, carrying out schemes under the guise of the Primal Chaos's will.</p>\n<p><strong>Edicts</strong> Sow discord among allies, misuse positions of authority by steering events toward apocalyptic ends</p>\n<p><strong>Anathema</strong> None</p>\n<p><strong>Follower Alignments</strong> NE, CE</p>\n<h2>Devotee Benefits</h2>\n<div>\n<div><strong>Divine Ability</strong> Dexterity or Intelligence</div>\n<div><strong>Divine Font</strong> harm</div>\n<div><strong>Divine Skill</strong> Arcana</div>\n<div><strong>Favored Weapon</strong> staff</div>\n<div><strong>Domains</strong> knowledge, magic, nightmares, trickery</div>\n<div><strong>Cleric Spells</strong> 1st: message rune, 2nd: humanoid form, 3rd: enthrall, 4th: suggestion, 5th: summon entity, 6th: mislead, 7th: project image, 8th: dream council, 9th: weird</div>\n</div>",
    "flags": {},
    "name": "Nyarlathotep (The Crawling Chaos)",
    "permission": {
        "default": 0
    }
}
