{
    "_id": "QZD0u1jxwz0kj8uI",
    "content": "<h1>Pharasma (Lady of Graves) [N]</h1><p>No record of history, and not even other gods, can recall a time before Pharasma. Her throne lies within a vast, gothic cathedral located on the infinite Spire at the center of the planes. From here, she looks both forward and backward in time, observing the births, lives, and deaths of every soul, as she serves as the final arbiter of a soul's destination after death. Psychopomp servants of Pharasma guide and safeguard newly dead souls along the River of Souls to her realm, where she judges each soul and ensures it is sent to the proper plane for its afterlife, according to its alignment and mortal deeds. Although she can see all possible fates and knows the fate of each individual, free will and choice can alter a soul's final destination, and she places great weight on the individual's actions and personal choices. Therefore, Pharasma withholds her final judgment until a soul stands before her. Her prophecies are cryptic, and their full meanings are rarely revealed until the foretold events occur.</p>\n<p><strong>Edicts</strong> strive to understand ancient prophecies, destroy undead, lay bodies to rest</p>\n<p><strong>Anathema</strong> create undead, desecrate a corpse, rob a tomb</p>\n<p><strong>Areas of Concern</strong> birth, death, fate, prophecy, and time</p>\n<p><strong>Follower Alignments</strong> NG, LN, N</p><h2>Devotee Benefits</h2><div><div><strong>Divine Ability</strong> Constitution or Wisdom</div><div><strong>Divine Font</strong> heal</div><div><strong>Divine Skill</strong> Medicine</div><div><strong>Favored Weapon</strong> dagger</div><div><strong>Domains</strong> death, fate, healing, knowledge</div><div><strong>Alternate Domains</strong> soul, time, vigil</div><div><strong>Cleric Spells</strong> 1st: mindlink, 3rd: ghostly weapon, 4th: phantasmal killer</div></div><h2>Divine Intercession</h2><p>Those who would prevent a soul from reaching the afterlife draw Pharasma's ire, but those who merely dabble in pursuits like lengthening their life or resurrection are usually ignored, as eventually death comes for all.</p>\n<p><strong>Minor Boon</strong> You see a momentary, prophetic glimpse of your fate. Once, you gain a +2 status bonus to a single check; you can apply this bonus after you determine the result, and it can potentially change the degree of success.</p>\n<p><strong>Moderate Boon</strong> You gain a greater mastery over the energies of life and death. Your Strikes deal 1 positive damage to undead. Your spells that deal positive damage to undead gain a +1 status bonus to damage per spell level, and your spells that heal the living gain a +1 status bonus to the Hit Points restored per spell level.</p>\n<p><strong>Major Boon</strong> Pharasma keeps you alive to fulfill your fate. The GM secretly chooses a fate Pharasma knows you must fulfill. Until you fulfill this fate, any time you would die, a grave but nonfatal misfortune instead befalls you. You take at least a full day to recuperate and you potentially face permanent consequences, but you don't die. If you would have died even once without this boon, once your fate is complete, you let out a final sigh and then die peacefully.</p>\n<p><strong>Minor Curse</strong> Horrifying or enticing visions of your final judgment distract you from the task at hand. You take a -2 status penalty to initiative rolls.</p>\n<p><strong>Moderate Curse</strong> Fate turns against you and reveals dire portents. Divinations such as augury cast by you or that involve you always suggest woe. Once per day after you attempt a check, the GM can make the result of the roll a natural 1.</p>\n<p><strong>Major Curse</strong> Pharasma wills the end of your life and your lineage. You become unable to have children (or otherwise procreate by any means, including create spawn abilities) and are permanently doomed 2.</p>",
    "flags": {},
    "name": "Pharasma",
    "permission": {
        "default": 0
    }
}
