{
    "_id": "WO9UsCY41oTtC2G0",
    "content": "<h1>Pillars of Knowledge [N]</h1><p><strong>Edicts</strong> Seek new knowledge, use your knowledge and skill to improve the world around you, protect knowledge from becoming lost</p>\n<p><strong>Anathema</strong> Choose to use old knowledge or tools after they have been improved upon, destroy knowledge, refuse to answer a query for which you know the answer</p>\n<p><strong>Areas of Concern</strong> Learning, innovation, safeguarding knowledge</p>\n<p><strong>Follower Alignments</strong> LN, N, CN</p>\n<p><strong>Pantheon Members</strong> @Compendium[pf2e.deities.Brigh]{Brigh}, @Compendium[pf2e.deities.Casandalee]{Casandalee}, @Compendium[pf2e.deities.Irori]{Irori}, @Compendium[pf2e.deities.Shyka]{Shyka}, @Compendium[pf2e.deities.Ydajisk]{Ydajisk}<u></u></p><h2>Devotee Benefits</h2><p><strong>Divine Ability</strong> Intelligence or Wisdom</p>\n<p><strong>Divine Font</strong> harm or heal</p>\n<p><strong>Divine Skill</strong> Crafting</p>\n<p><strong>Favored Weapon</strong> light hammer<u></u></p>\n<p><strong>Domains</strong> creation, knowledge, secrecy, truth</p>\n<p><strong>Alternate Domains</strong> glyph, perfection, time</p>\n<p><strong>Cleric Spells</strong> 1st: <em>message rune</em><u></u>, 3rd: <em>hypercognition</em>, 9th: <strong>retrocognition</strong><u></u></p>",
    "flags": {},
    "name": "Pillars of Knowledge",
    "permission": {
        "default": 0
    }
}
