{
    "_id": "woDEgBs1MznhzpJ4",
    "content": "<h1>Ra (King of the Heavens) [LN]</h1><p><strong>Edicts</strong> Bring order to places of chaos, kill evil monsters and fiends, encourage just laws, provide warmth where needed</p>\n<p><strong>Anathema</strong> Avoid personal change, kill a plant or a creature with cold damage, seal a building to completely block sunlight</p>\n<p><strong>Follower Alignments</strong> LG, LN, N</p><h2>Devotee Benefits</h2><div><div><strong>Divine Ability</strong> Strength or Intelligence</div><div><strong>Divine Font</strong> heal</div><div><strong>Divine Skill</strong> Society</div><div><strong>Favored Weapon</strong> spear</div><div><strong>Domains</strong> fire, nature, sun, time</div><div><strong>Cleric Spells</strong> 1st: burning hands, 2nd: flaming sphere, 3rd: abyssal plague (threefold aspect)</div></div>",
    "flags": {},
    "name": "Ra",
    "permission": {
        "default": 0
    }
}
