{
    "_id": "Ze2hoTyOQHbaQ6jD",
    "content": "<p><strong>Deities</strong>@Compendium[pf2e.deities.Apollyon]{Apollyon}, @Compendium[pf2e.deities.Baalzebul]{Baalzebul}, @Compendium[pf2e.deities.Ghlaunder]{Ghlaunder}, @Compendium[pf2e.deities.Gozreh]{Gozreh},@Compendium[pf2e.deities.Hei Feng]{Hei Feng},@Compendium[pf2e.deities.Horus]{Horus},@Compendium[pf2e.deities.Hshurha]{Hshurha},@Compendium[pf2e.deities.Pazuzu]{Pazuzu},@Compendium[pf2e.deities.Ragdya]{Ragdya},@Compendium[pf2e.deities.Ranginori]{Ranginori},@Compendium[pf2e.deities.Rovagug]{Rovagug},@Compendium[pf2e.deities.Sturovenen]{Sturovenen},@Compendium[pf2e.deities.Ylimancha]{Ylimancha}</p>\n<p><strong>Domain Spell</strong>@Compendium[pf2e.spells-srd.Pushing Gust]{Pushing Gust};<strong>Advanced Domain Spell</strong>@Compendium[pf2e.spells-srd.Disperse into Air]{Disperse into Air}</p>\n<p>You can control winds and the weather.</p>",
    "flags": {},
    "name": "Air Domain",
    "permission": {
        "default": 0
    }
}
