{
    "_id": "l2EFJssJKu7rG77m",
    "content": "<p><strong>Deities</strong> @Compendium[pf2e.deities.Bes]{Bes}, @Compendium[pf2e.deities.Desna]{Desna}, @Compendium[pf2e.deities.Gendowyn]{Gendowyn}, @Compendium[pf2e.deities.Halcamora]{Halcamora}, @Compendium[pf2e.deities.Irez]{Irez}, @Compendium[pf2e.deities.Kofusachi]{Kofusachi}, @Compendium[pf2e.deities.Lao Shu Po]{Lao Shu Po}, @Compendium[pf2e.deities.Nivi Rhombodazzle]{Nivi Rhombodazzle}</p>\n<p><strong>Domain Spell</strong> @Compendium[pf2e.spells-srd.Bit of Luck]{Bit of Luck}; <strong>Advanced Domain Spell</strong> @Compendium[pf2e.spells-srd.Lucky Break]{Lucky Break}</p>\n<p>You're unnaturally lucky and keep out of harm's way.</p>",
    "flags": {},
    "name": "Luck Domain",
    "permission": {
        "default": 0
    }
}
