{
    "_id": "dnljU1twPjH4KFgO",
    "content": "<p><strong>Deities</strong> @Compendium[pf2e.deities.Apollyon]{Apollyon}, @Compendium[pf2e.deities.Ghlaunder]{Ghlaunder}, @Compendium[pf2e.deities.Halcamora]{Halcamora}, @Compendium[pf2e.deities.Lahkgya]{Lahkgya}, @Compendium[pf2e.deities.Lao Shu Po]{Lao Shu Po}, @Compendium[pf2e.deities.Pazuzu]{Pazuzu}, @Compendium[pf2e.deities.Rovagug]{Rovagug}, @Compendium[pf2e.deities.Urgathoa]{Urgathoa}</p>\n<p><strong>Domain Spell</strong> @Compendium[pf2e.spells-srd.Swarmsense]{Swarmsense}; <strong>Advanced Domain Spell</strong> @Compendium[pf2e.spells-srd.Swarm Form]{Swarm Form}</p>\n<p>You exert control over masses of creatures.</p>",
    "flags": {},
    "name": "Swarm Domain",
    "permission": {
        "default": 0
    }
}
