{
    "_id": "7hwTeZNq6Jmzmtz4",
    "data": {
        "actionCategory": {
            "value": ""
        },
        "actionType": {
            "value": "passive"
        },
        "actions": {
            "value": null
        },
        "description": {
            "value": "<p>When you terrorize your enemies, you also cause them painful mental distress. When you successfully @Compendium[pf2e.actionspf2e.Demoralize]{Demoralize} a foe, that foe takes 1d4 mental damage at the start of each of its turns as long as it remains @Compendium[pf2e.conditionitems.Frightened]{Frightened} and continues to engage in combat with you. If you have master proficiency in<a href=\"https://2e.aonprd.com/Skills.aspx?ID=7\">Intimidation</a>, the damage increases to 2d4, and if you have legendary proficiency, the damage increases to 3d4.</p>"
        },
        "featType": {
            "value": "ancestry"
        },
        "level": {
            "value": 5
        },
        "prerequisites": {
            "value": []
        },
        "rules": [],
        "source": {
            "value": "Pathfinder Lost Omens: Character Guide"
        },
        "traits": {
            "custom": "",
            "rarity": "common",
            "value": [
                "hobgoblin"
            ]
        }
    },
    "effects": [],
    "flags": {},
    "img": "systems/pf2e/icons/features/feats/feats.webp",
    "name": "Agonizing Rebuke",
    "type": "feat"
}
