{
    "_id": "bi9w4Z9MQY8VWLZF",
    "data": {
        "actionCategory": {
            "value": ""
        },
        "actionType": {
            "value": "passive"
        },
        "actions": {
            "value": null
        },
        "description": {
            "value": "<p>When you cast animate rope, you can modify its target to be 1 net. If you do, replace the spell's standard effects with the following: You cause a net to animate and throw itself at a Medium or smaller creature within 20 feet of the net. Attempt a spell attack roll against the target's Reflex DC. On a success, the target is @Compendium[pf2e.conditionitems.Flat-Footed]{Flat-Footed} and takes a -10-foot circumstance penalty to its Speeds until it Escapes; on a critical success, it's also @Compendium[pf2e.conditionitems.Immobilized]{Immobilized} until it Escapes. The Escape DC is equal to your spell DC as long as the spell lasts. Once the spell ends, the Escape DC returns to the normal DC for a net (usually 16), and a creature adjacent to the target can Interact to remove the net.</p>"
        },
        "featType": {
            "value": "archetype"
        },
        "level": {
            "value": 6
        },
        "location": "",
        "prerequisites": {
            "value": [
                {
                    "value": "Spell Trickster Dedication"
                },
                {
                    "value": "ability to cast animate rope"
                }
            ]
        },
        "rules": [],
        "source": {
            "value": ""
        },
        "traits": {
            "custom": "",
            "rarity": "common",
            "value": [
                "archetype"
            ]
        }
    },
    "effects": [],
    "flags": {},
    "img": "systems/pf2e/icons/default-icons/feats.webp",
    "name": "Animate Net",
    "type": "feat"
}
