{
    "_id": "N1ajKcWRo3O0oMQg",
    "data": {
        "actionCategory": {
            "value": ""
        },
        "actionType": {
            "value": "passive"
        },
        "actions": {
            "value": null
        },
        "description": {
            "value": "<p>You permanently mutate to become more like the creatures of your bloodline. You gain the appropriate trait or traits for those types of creatures (aberration for aberrant, angel and celestial for angelic, psychopomp and monitor for psychopomp, and so on).</p>\n<p>You gain @Compendium[pf2e.ancestryfeatures.Low-Light Vision]{Low-Light Vision} or @Compendium[pf2e.ancestryfeatures.Darkvision]{Darkvision}, if one is appropriate for creatures with those traits. Choose one of the following.</p>\n<ul>\n<li>If the creatures associated with your bloodline have the ability to @Compendium[pf2e.actionspf2e.Fly]{Fly}, you gain a fly Speed equal to your land Speed.</li>\n<li>If the creatures associated with your bloodline are aquatic or amphibious, you become amphibious, able to breathe water and air equally well, and you gain a @Compendium[pf2e.actionspf2e.Swim]{Swim} Speed equal to your Speed.</li>\n<li>If creatures associated with your bloodline have a resistance or immunity to acid, cold, electricity, fire, negative, or sonic, choose an energy type your bloodline is immune or resistant to and gain resistance 20 against that energy type.</li>\n</ul>"
        },
        "featType": {
            "value": "class"
        },
        "level": {
            "value": 20
        },
        "prerequisites": {
            "value": [
                {
                    "value": "a bloodline based on a specific type of creature"
                }
            ]
        },
        "rules": [],
        "source": {
            "value": "Pathfinder Advanced Player's Guide"
        },
        "traits": {
            "custom": "",
            "rarity": "common",
            "value": [
                "sorcerer"
            ]
        }
    },
    "effects": [],
    "flags": {},
    "img": "systems/pf2e/icons/features/feats/feats.webp",
    "name": "Bloodline Mutation",
    "type": "feat"
}
