{
    "_id": "va7YMidXZW21oFwA",
    "data": {
        "actionCategory": {
            "value": ""
        },
        "actionType": {
            "value": "passive"
        },
        "actions": {
            "value": null
        },
        "description": {
            "value": "<p>You can bypass the need for incantations and gestures by drawing energy directly from your blood, causing you to visibly glow the color of your blood and crackle with magical energy. When you @Compendium[pf2e.actionspf2e.Cast a Spell]{Cast a Spell}, you can replace all verbal, material, or somatic spellcasting components with a blood component.</p>\n<p>To use a blood component, you lose Hit Points equal to twice the spell's level as the energy in your blood is depleted, and you can't decrease the Hit Points lost in any way.</p>\n<p>As usual for altering components, this has no effect on the number of actions required to Cast the Spell, and your Cast a Spell activity gains the concentrate trait but not the manipulate trait. You can't use blood components to replace any required part of a spell's cost.</p>"
        },
        "featType": {
            "value": "class"
        },
        "level": {
            "value": 12
        },
        "prerequisites": {
            "value": []
        },
        "rules": [],
        "source": {
            "value": "Pathfinder Advanced Player's Guide"
        },
        "traits": {
            "custom": "",
            "rarity": "common",
            "value": [
                "sorcerer"
            ]
        }
    },
    "effects": [],
    "flags": {},
    "img": "systems/pf2e/icons/features/feats/feats.webp",
    "name": "Blood Component Substitution",
    "type": "feat"
}
