{
    "_id": "XJfUj2o4HdL5waZL",
    "data": {
        "actionCategory": {
            "value": ""
        },
        "actionType": {
            "value": "reaction"
        },
        "actions": {
            "value": null
        },
        "description": {
            "value": "<p><strong>Frequency</strong> once per day</p>\n<p><strong>Trigger</strong> An adjacent and willing ally would be reduced to 0 HP but not killed.</p>\n<hr />\n<p>You physically help an ally remain standing and encourage them to push through their pain against dire odds. Your ally doesn't fall unconscious and remains at 1 Hit Point. The ally also gains a number of temporary Hit Points equal to your level that last for 1 minute. Fighting onward with such an injury isn't without consequence; your ally's @Compendium[pf2e.conditionitems.Wounded]{Wounded} condition increases by 1.</p>"
        },
        "featType": {
            "value": "ancestry"
        },
        "level": {
            "value": 13
        },
        "location": "",
        "prerequisites": {
            "value": []
        },
        "rules": [],
        "source": {
            "value": "Pathfinder Lost Omens: Ancestry Guide"
        },
        "traits": {
            "custom": "",
            "rarity": "common",
            "value": [
                "auditory",
                "hobgoblin",
                "manipulate"
            ]
        }
    },
    "effects": [],
    "flags": {},
    "img": "systems/pf2e/icons/features/feats/feats.webp",
    "name": "Can't Fall Here",
    "type": "feat"
}
