{
    "_id": "95amaXDoWKxdIXqI",
    "data": {
        "actionCategory": {
            "value": "offensive"
        },
        "actionType": {
            "value": "passive"
        },
        "actions": {
            "value": null
        },
        "description": {
            "value": "<p>You have cultivated your exoskeleton's form for close combat, using knots, whorls, and reinforced branches. When you select this feat, you gain a branch unarmed attack that deals 1d6 bludgeoning damage and has the backswing trait. This unarmed attacks is in the brawling weapon group and uses one of your hands.</p>\n<hr />\n<p><strong>Special</strong> You can select this feat twice, choosing the claws attack the second time you take it.</p>"
        },
        "featType": {
            "value": "ancestry"
        },
        "level": {
            "value": 1
        },
        "location": "",
        "prerequisites": {
            "value": []
        },
        "rules": [
            {
                "category": "unarmed",
                "damage": {
                    "base": {
                        "damageType": "bludgeoning",
                        "dice": 1,
                        "die": "d6"
                    }
                },
                "group": "brawling",
                "key": "Strike",
                "label": "PF2E.Weapon.Base.claw",
                "range": null,
                "traits": [
                    "backswing"
                ]
            }
        ],
        "source": {
            "value": "Pathfinder Lost Omens: The Mwangi Expanse"
        },
        "traits": {
            "custom": "",
            "rarity": "common",
            "value": [
                "conrasu"
            ]
        }
    },
    "effects": [],
    "flags": {},
    "img": "systems/pf2e/icons/default-icons/feats.webp",
    "name": "Ceremony of the Evened Hand (Branch)",
    "type": "feat"
}
