{
    "_id": "WY7CjISdz6uwXwIb",
    "data": {
        "actionCategory": {
            "value": ""
        },
        "actionType": {
            "value": "passive"
        },
        "actions": {
            "value": null
        },
        "description": {
            "value": "<p>When you Thrash a grabbed foe, you smack that foe into another nearby. Another foe adjacent to the grabbed foe also takes your Thrash damage, with a basic Reflex save against your class DC.</p>"
        },
        "featType": {
            "value": "class"
        },
        "level": {
            "value": 16
        },
        "prerequisites": {
            "value": [
                {
                    "value": "Thrash"
                }
            ]
        },
        "rules": [],
        "source": {
            "value": "Pathfinder Core Rulebook"
        },
        "traits": {
            "custom": "",
            "rarity": "common",
            "value": [
                "barbarian",
                "rage"
            ]
        }
    },
    "effects": [],
    "flags": {},
    "img": "systems/pf2e/icons/features/feats/feats.webp",
    "name": "Collateral Thrash",
    "type": "feat"
}
