{
    "_id": "yExxOkHN1PN37hUa",
    "data": {
        "actionCategory": {
            "value": ""
        },
        "actionType": {
            "value": "passive"
        },
        "actions": {
            "value": null
        },
        "description": {
            "value": "<p>You're a conduit for positive energy, and as you channel it through you, it heals some of your minor injuries.</p>\n<p>When you cast the <em>@Compendium[pf2e.spells-srd.Heal]{Heal}</em> spell to heal a single creature other than yourself, you regain Hit Points equal to the spell level of the heal spell.</p>"
        },
        "featType": {
            "value": "class"
        },
        "level": {
            "value": 2
        },
        "location": "",
        "prerequisites": {
            "value": []
        },
        "rules": [],
        "source": {
            "value": "Pathfinder Core Rulebook"
        },
        "traits": {
            "custom": "",
            "rarity": "common",
            "value": [
                "cleric",
                "healing",
                "positive"
            ]
        }
    },
    "effects": [],
    "flags": {},
    "img": "systems/pf2e/icons/features/feats/feats.webp",
    "name": "Communal Healing",
    "type": "feat"
}
