{
    "_id": "V3lFDAQr3PfnAxMC",
    "data": {
        "actionCategory": {
            "value": ""
        },
        "actionType": {
            "value": "passive"
        },
        "actions": {
            "value": null
        },
        "description": {
            "value": "<p>When you cast mirror image, you can modify its duration to be sustained up to 1 minute and modify its range to 30 feet. If you do, replace the spell's standard effects with the following: You create an illusory duplicate of yourself that appears in an unoccupied square within range. The image takes up space and has a reach of 5 feet, and your allies can flank with the image. It doesn't have any other attributes a creature would normally have other than an AC equal to your spell DC and saving throw modifiers equal to your spell DC - 10. If the image is hit by an attack or fails a save, or if you ever move more than 30 feet from it, the spell ends. Creatures can move through its space without hindrance. When you Sustain the Spell, you can move the image to an unoccupied square within range.</p>"
        },
        "featType": {
            "value": "archetype"
        },
        "level": {
            "value": 6
        },
        "location": "",
        "prerequisites": {
            "value": [
                {
                    "value": "Spell Trickster Dedication"
                },
                {
                    "value": "ability to cast mirror image"
                }
            ]
        },
        "rules": [],
        "source": {
            "value": ""
        },
        "traits": {
            "custom": "",
            "rarity": "common",
            "value": [
                "archetype"
            ]
        }
    },
    "effects": [],
    "flags": {},
    "img": "systems/pf2e/icons/default-icons/feats.webp",
    "name": "Confounding Image",
    "type": "feat"
}
