{
    "_id": "KYF9e4oeSjHKgbwM",
    "data": {
        "actionCategory": {
            "value": ""
        },
        "actionType": {
            "value": "action"
        },
        "actions": {
            "value": 2
        },
        "description": {
            "value": "<p>You heroically dash into the fray, inspiring your allies to follow. You Stride up to your Speed and make a melee Strike. If your Strike hits and damages an enemy, each ally within 60 feet who saw you hit can use a reaction to Stride, but they each must end their Stride closer to the creature you hit than where they started.</p>"
        },
        "featType": {
            "value": "archetype"
        },
        "level": {
            "value": 12
        },
        "prerequisites": {
            "value": [
                {
                    "value": "Marshal Dedication"
                }
            ]
        },
        "rules": [],
        "source": {
            "value": "Pathfinder Advanced Player's Guide"
        },
        "traits": {
            "custom": "",
            "rarity": "common",
            "value": [
                "archetype",
                "open",
                "visual"
            ]
        }
    },
    "effects": [],
    "flags": {},
    "img": "systems/pf2e/icons/features/feats/feats.webp",
    "name": "Coordinated Charge",
    "type": "feat"
}
