{
    "_id": "sv3ywEHaab9oZ3Nj",
    "data": {
        "actionCategory": {
            "value": ""
        },
        "actionType": {
            "value": "action"
        },
        "actions": {
            "value": 1
        },
        "description": {
            "value": "<p>With a rousing call, you exhort an ally to advance. If your next action is to cast the <em>@Compendium[pf2e.spells-srd.Inspire Courage]{Inspire Courage}</em> composition cantrip, one ally who gains a status bonus from the spell can immediately use a reaction to Stride.</p>"
        },
        "featType": {
            "value": "class"
        },
        "level": {
            "value": 4
        },
        "prerequisites": {
            "value": [
                {
                    "value": "warrior muse"
                }
            ]
        },
        "rules": [],
        "source": {
            "value": "Pathfinder Advanced Player's Guide"
        },
        "traits": {
            "custom": "",
            "rarity": "common",
            "value": [
                "auditory",
                "bard",
                "concentrate",
                "metamagic"
            ]
        }
    },
    "effects": [],
    "flags": {},
    "img": "systems/pf2e/icons/features/feats/feats.webp",
    "name": "Courageous Advance",
    "type": "feat"
}
