{
    "_id": "OXhrwQgnZdOi81Yi",
    "data": {
        "actionCategory": {
            "value": ""
        },
        "actionType": {
            "value": "passive"
        },
        "actions": {
            "value": null
        },
        "description": {
            "value": "<p>You're exceptionally difficult to kill. The DC of your recovery checks is equal to 9 + your dying value, or 8 + your dying value if you have the @Compendium[pf2e.feats-srd.Toughness]{Toughness} general feat.</p>\n<p>In addition, whenever someone returns you to life using magic that would normally leave you debilitated for a week (such as raise dead or the resurrect ritual), you don't suffer that condition.</p>"
        },
        "featType": {
            "value": "ancestry"
        },
        "level": {
            "value": 5
        },
        "location": "",
        "prerequisites": {
            "value": [
                {
                    "value": "Orc Ferocity"
                }
            ]
        },
        "rules": [
            {
                "key": "RecoveryCheckDC"
            }
        ],
        "source": {
            "value": "Pathfinder Lost Omens: Ancestry Guide"
        },
        "traits": {
            "custom": "",
            "rarity": "common",
            "value": [
                "orc"
            ]
        }
    },
    "effects": [],
    "flags": {},
    "img": "systems/pf2e/icons/features/feats/feats.webp",
    "name": "Defy Death",
    "type": "feat"
}
