{
    "_id": "ng9H9flz4H6agiiV",
    "data": {
        "actionCategory": {
            "value": ""
        },
        "actionType": {
            "value": "passive"
        },
        "actions": {
            "value": null
        },
        "description": {
            "value": "<p>You gain a +1 circumstance bonus to damage with weapons and unarmed attacks against demons. If your attack would deal more than one weapon die of damage (as is common at higher levels than 1st), the bonus is equal to the number of weapon dice or unarmed attack dice. If your actions force a demon to take damage from its sin vulnerability, increase that damage by 2.</p>\n<hr />\n<p>Automatically implements +1 damage to weapons and unarmed strikes against demons</p>"
        },
        "featType": {
            "value": "ancestry"
        },
        "level": {
            "value": 1
        },
        "location": "",
        "prerequisites": {
            "value": []
        },
        "rules": [
            {
                "key": "FlatModifier",
                "label": "Demonbane Warrior",
                "predicate": {
                    "all": [
                        "target:demon"
                    ]
                },
                "selector": "mundane-damage",
                "type": "circumstance",
                "value": 1
            }
        ],
        "source": {
            "value": "Pathfinder Lost Omens: The Mwangi Expanse"
        },
        "traits": {
            "custom": "",
            "rarity": "common",
            "value": [
                "elf"
            ]
        }
    },
    "effects": [],
    "flags": {},
    "img": "systems/pf2e/icons/default-icons/feats.webp",
    "name": "Demonbane Warrior",
    "type": "feat"
}
