{
    "_id": "4VbfFPuFpbGLMMKF",
    "data": {
        "actionCategory": {
            "value": ""
        },
        "actionType": {
            "value": "action"
        },
        "actions": {
            "value": 1
        },
        "description": {
            "value": "<p><strong>Requirements</strong> You are wielding only a single one-handed melee weapon and have your other hand or hands free.</p>\n<hr />\n<p>After your initial attack redirects your foe's defenses, your follow-up wrests their weapon from their grasp.</p>\n<p>Make a melee Strike with the required weapon. In addition to its other effects, this Strike gains the success and critical success effects of the @Compendium[pf2e.actionspf2e.Disarm]{Disarm} action. The Strike also has the following failure effect.</p>\n<p><strong>Failure</strong> The target is @Compendium[pf2e.conditionitems.Flat-Footed]{Flat-Footed} until the end of your current turn.</p>"
        },
        "featType": {
            "value": "class"
        },
        "level": {
            "value": 10
        },
        "prerequisites": {
            "value": [
                {
                    "value": "trained in Athletics"
                }
            ]
        },
        "rules": [],
        "source": {
            "value": "Pathfinder Core Rulebook"
        },
        "traits": {
            "custom": "",
            "rarity": "common",
            "value": [
                "fighter",
                "press"
            ]
        }
    },
    "effects": [],
    "flags": {},
    "img": "systems/pf2e/icons/features/feats/feats.webp",
    "name": "Disarming Twist",
    "type": "feat"
}
