{
    "_id": "MgqRwyL8PWyYvoZs",
    "data": {
        "actionCategory": {
            "value": ""
        },
        "actionType": {
            "value": "action"
        },
        "actions": {
            "value": 1
        },
        "description": {
            "value": "<p>You fuse two spells together, combining their energy types.</p>\n<p>If the next action you use is to @Compendium[pf2e.actionspf2e.Cast a Spell]{Cast a Spell} that deals acid, cold, electricity, fire, or sonic damage, select a non-cantrip spell in your spell repertoire that deals a different type of energy damage from that list, and expend an additional spell slot of the same level as this secondary spell. The spell you cast deals additional damage equal to the level of the secondary spell slot expended.</p>\n<p>The spell's total damage is divided evenly between the energy type of the spell you cast and the energy type of the secondary spell.</p>"
        },
        "featType": {
            "value": "class"
        },
        "level": {
            "value": 10
        },
        "prerequisites": {
            "value": []
        },
        "rules": [],
        "source": {
            "value": "Pathfinder Advanced Player's Guide"
        },
        "traits": {
            "custom": "",
            "rarity": "common",
            "value": [
                "concentrate",
                "metamagic",
                "sorcerer"
            ]
        }
    },
    "effects": [],
    "flags": {},
    "img": "systems/pf2e/icons/features/feats/feats.webp",
    "name": "Energy Fusion",
    "type": "feat"
}
