{
    "_id": "EP8kaXNmrMfxOFAf",
    "data": {
        "actionCategory": {
            "value": "defensive"
        },
        "actionType": {
            "value": "reaction"
        },
        "actions": {
            "value": null
        },
        "description": {
            "value": "<p><strong>Trigger</strong> A creature within your aura is targeted by a ranged attack or a creature moves through your aura.</p>\n<p><strong>Requirements</strong> You have at least one aura from a champion feat or feature.</p>\n<hr />\n<p>The spatial barrier of Syndara's Island has taught you that distance can foil enemies better than any armor. You warp space, causing each square within your aura that the attack or creature would move through to count as triple the distance. If this reaction is used on a ranged attack, the attack takes range increment penalties based on the adjusted range and fails if this would cause it to exceed its maximum range.</p>"
        },
        "featType": {
            "value": "class"
        },
        "level": {
            "value": 20
        },
        "location": "",
        "prerequisites": {
            "value": []
        },
        "rules": [],
        "source": {
            "value": "Pathfinder #168: King of the Mountain"
        },
        "traits": {
            "custom": "",
            "rarity": "uncommon",
            "value": [
                "abjuration",
                "champion",
                "divine"
            ]
        }
    },
    "effects": [],
    "flags": {},
    "img": "systems/pf2e/icons/default-icons/feats.webp",
    "name": "Everdistant Defense",
    "type": "feat"
}
