{
    "_id": "IqTtpxZ48rApy4BN",
    "data": {
        "actionCategory": {
            "value": ""
        },
        "actionType": {
            "value": "passive"
        },
        "actions": {
            "value": null
        },
        "description": {
            "value": "<p>Your Gray Gardener training has made you deeply skilled with the weapons that execute with a swift chop to the neck. You become trained with the following weapons: @Compendium[pf2e.equipment-srd.Battle Axe]{Battle Axe}, @Compendium[pf2e.equipment-srd.Falchion]{Falchion}, @Compendium[pf2e.equipment-srd.Greataxe]{Greataxe}, and @Compendium[pf2e.equipment-srd.Scimitar]{Scimitar}.</p>\n<p>Whenever you gain a class feature that grants you expert or greater proficiency with a given weapon or weapons, you also gain that proficiency for these weapons.</p>"
        },
        "featType": {
            "value": "archetype"
        },
        "level": {
            "value": 4
        },
        "location": "",
        "prerequisites": {
            "value": [
                {
                    "value": "Vigilante Dedication"
                },
                {
                    "value": "Member of the Grey Gardeners"
                }
            ]
        },
        "rules": [],
        "source": {
            "value": ""
        },
        "traits": {
            "custom": "",
            "rarity": "common",
            "value": [
                "archetype"
            ]
        }
    },
    "effects": [],
    "flags": {},
    "img": "systems/pf2e/icons/default-icons/feats.webp",
    "name": "Executioner Weapon Training",
    "type": "feat"
}
