{
    "_id": "OQAo3Us0ODGYdNNn",
    "data": {
        "actionCategory": {
            "value": ""
        },
        "actionType": {
            "value": "passive"
        },
        "actions": {
            "value": null
        },
        "description": {
            "value": "<p>When you Strike a @Compendium[pf2e.conditionitems.Flat-Footed]{Flat-Footed} foe with a weapon that has the backstabber weapon trait, you deal 2 extra precision damage instead of 1.</p>\n<p>If the weapon is a +3 weapon, you deal 4 extra precision damage instead of 2.</p>"
        },
        "featType": {
            "value": "archetype"
        },
        "level": {
            "value": 4
        },
        "prerequisites": {
            "value": [
                {
                    "value": "Assassin Dedication"
                }
            ]
        },
        "rules": [],
        "source": {
            "value": "Pathfinder Advanced Player's Guide"
        },
        "traits": {
            "custom": "",
            "rarity": "common",
            "value": [
                "archetype"
            ]
        }
    },
    "effects": [],
    "flags": {},
    "img": "systems/pf2e/icons/features/feats/feats.webp",
    "name": "Expert Backstabber",
    "type": "feat"
}
