{
    "_id": "gArdEleFCvUHtdGk",
    "data": {
        "actionCategory": {
            "value": ""
        },
        "actionType": {
            "value": "passive"
        },
        "actions": {
            "value": null
        },
        "description": {
            "value": "<p>You know how to encourage your mount to cover ground quickly.</p>\n<p>When calculating your travel speed for the day while mounted, you can attempt a Nature check to @Compendium[pf2e.actionspf2e.Command an Animal]{Command an Animal} to increase your mount's travel speed. The DC is determined by the GM, but is typically based on the mount's level or the difficulty of the environment, whichever is harder.</p>\n<p>On a success, increase your mount's travel speed by half. This has no effect on your mount's movement in encounters.</p>"
        },
        "featType": {
            "value": "skill"
        },
        "level": {
            "value": 1
        },
        "prerequisites": {
            "value": [
                {
                    "value": "trained in Nature"
                }
            ]
        },
        "rules": [],
        "source": {
            "value": "Pathfinder Advanced Player's Guide"
        },
        "traits": {
            "custom": "",
            "rarity": "common",
            "value": [
                "exploration",
                "general",
                "move",
                "skill"
            ]
        }
    },
    "effects": [],
    "flags": {},
    "img": "systems/pf2e/icons/features/feats/feats.webp",
    "name": "Express Rider",
    "type": "feat"
}
