{
    "_id": "IYt6pMqiTocTrixA",
    "data": {
        "actionCategory": {
            "value": ""
        },
        "actionType": {
            "value": "action"
        },
        "actions": {
            "value": 1
        },
        "description": {
            "value": "<p><strong>Requirements</strong> You have line of effect to your familiar.</p>\n<hr />\n<p>Under your tutelage, your familiar has grown attuned to the hidden currents of the world and can serve as a conduit for your magic. If the next action you use is to @Compendium[pf2e.actionspf2e.Cast a Spell]{Cast a Spell} that has a range, the spell uses the familiar as its origin point.</p>"
        },
        "featType": {
            "value": "archetype"
        },
        "level": {
            "value": 4
        },
        "prerequisites": {
            "value": [
                {
                    "value": "Familiar Master Dedication"
                },
                {
                    "value": "able to cast spells"
                }
            ]
        },
        "rules": [],
        "source": {
            "value": "Pathfinder Advanced Player's Guide"
        },
        "traits": {
            "custom": "",
            "rarity": "common",
            "value": [
                "archetype",
                "concentrate",
                "metamagic"
            ]
        }
    },
    "effects": [],
    "flags": {},
    "img": "systems/pf2e/icons/features/feats/feats.webp",
    "name": "Familiar Conduit",
    "type": "feat"
}
