{
    "_id": "1WPKV2sInXtiUaeG",
    "data": {
        "actionCategory": {
            "value": ""
        },
        "actionType": {
            "value": "passive"
        },
        "actions": {
            "value": null
        },
        "description": {
            "value": "<p><strong>Frequency</strong> once per day</p>\n<hr />\n<p>Your peri lineage has opened your mind to fire's raw, purging essence.</p>\n<p>You can spend 1 minute in focused preparation, then enter a fire your size or larger to instantly teleport to any fire that is your size or larger up to 5 miles away. You take no damage from entering or exiting fires when using this ability. Once you enter the fire, you instantly know the rough locations of other large fires within range and can exit from the original fire, if you prefer.</p>\n<p>You can't carry extradimensional spaces with you when you teleport; if you attempt to do so, the activity fails.</p>"
        },
        "featType": {
            "value": "ancestry"
        },
        "level": {
            "value": 13
        },
        "location": "",
        "prerequisites": {
            "value": [
                {
                    "value": "Emberkin"
                }
            ]
        },
        "rules": [],
        "source": {
            "value": "Pathfinder Lost Omens: Ancestry Guide"
        },
        "traits": {
            "custom": "",
            "rarity": "common",
            "value": [
                "aasimar",
                "concentrate",
                "divine",
                "exploration",
                "fire",
                "manipulate",
                "teleportation"
            ]
        }
    },
    "effects": [],
    "flags": {},
    "img": "systems/pf2e/icons/features/feats/feats.webp",
    "name": "Flame Jump",
    "type": "feat"
}
