{
    "_id": "ccWf2F5DqiqFwiQ1",
    "data": {
        "actionCategory": {
            "value": ""
        },
        "actionType": {
            "value": "passive"
        },
        "actions": {
            "value": null
        },
        "description": {
            "value": "<p>Your extensive travels, curiosity, and love of learning help you to learn languages quickly. You learn three new languages, chosen from common languages and uncommon languages you have access to. These languages take the same form (signed or spoken) as your other languages. When you select the @Compendium[pf2e.feats-srd.Multilingual]{Multilingual}feat, you learn three new languages instead of two.</p>"
        },
        "featType": {
            "value": "ancestry"
        },
        "level": {
            "value": 1
        },
        "prerequisites": {
            "value": []
        },
        "rules": [],
        "source": {
            "value": "Pathfinder Lost Omens: Character Guide"
        },
        "traits": {
            "custom": "",
            "rarity": "common",
            "value": [
                "gnome"
            ]
        }
    },
    "effects": [],
    "flags": {},
    "img": "systems/pf2e/icons/features/feats/feats.webp",
    "name": "Gnome Polyglot",
    "type": "feat"
}
