{
    "_id": "uwp7Y4LNtPbhELjS",
    "data": {
        "actionCategory": {
            "value": ""
        },
        "actionType": {
            "value": "passive"
        },
        "actions": {
            "value": null
        },
        "description": {
            "value": "<p>You perfect your body, refining the flex of every muscle and the bend of every joint to maximum efficiency. Your unarmed Strikes gain the deadly d12 trait, and you have fast healing 20, causing you to regain 20 HP at the start of each of your turns provided you have at least 1 HP.</p>"
        },
        "featType": {
            "value": "class"
        },
        "level": {
            "value": 20
        },
        "location": "",
        "prerequisites": {
            "value": []
        },
        "rules": [],
        "source": {
            "value": "Pathfinder #150: Broken Promises"
        },
        "traits": {
            "custom": "",
            "rarity": "uncommon",
            "value": [
                "monk"
            ]
        }
    },
    "effects": [],
    "flags": {},
    "img": "systems/pf2e/icons/features/feats/feats.webp",
    "name": "Golden Body",
    "type": "feat"
}
