{
    "_id": "cznEQ1W61MSaXW0u",
    "data": {
        "actionCategory": {
            "value": ""
        },
        "actionType": {
            "value": "passive"
        },
        "actions": {
            "value": null
        },
        "description": {
            "value": "<p>Your fury carries your weapon through multiple foes. When you Cleave, if your Strike also kills or knocks the target unconscious, you can continue to make melee Strikes until you make a Strike that doesn't kill or knock a creature unconscious, or until there are no creatures adjacent to the most recent creature you attacked while Cleaving, whichever comes first.</p>"
        },
        "featType": {
            "value": "class"
        },
        "level": {
            "value": 10
        },
        "prerequisites": {
            "value": [
                {
                    "value": "Cleave"
                }
            ]
        },
        "rules": [],
        "source": {
            "value": "Pathfinder Core Rulebook"
        },
        "traits": {
            "custom": "",
            "rarity": "common",
            "value": [
                "barbarian",
                "rage"
            ]
        }
    },
    "effects": [],
    "flags": {},
    "img": "systems/pf2e/icons/features/feats/feats.webp",
    "name": "Great Cleave",
    "type": "feat"
}
