{
    "_id": "7fU6e3HIT4NvwLYa",
    "data": {
        "actionCategory": {
            "value": ""
        },
        "actionType": {
            "value": "passive"
        },
        "actions": {
            "value": null
        },
        "description": {
            "value": "<p>You devote much of your study to halcyon magic. You gain two common Halcyon cantrips and two common 1st-level halcyon spells. In addition to being able to cast your halcyon spells via your arcane or primal spell slots, you also gain a 1st-level halcyon spell slot. You can use your halcyon spell slots to spontaneously cast your halcyon spells.</p>\n<hr />\n<p><strong>Special</strong> You cannot select another dedication feat until you have gained two other feats from the halcyon speaker archetype.</p>"
        },
        "featType": {
            "value": "class"
        },
        "level": {
            "value": 6
        },
        "location": "",
        "prerequisites": {
            "value": [
                {
                    "value": "Magaambyan Attendant Dedication"
                },
                {
                    "value": "member of the Magaambya of conversant rank"
                }
            ]
        },
        "rules": [],
        "source": {
            "value": "Pathfinder Lost Omens: Character Guide"
        },
        "traits": {
            "custom": "",
            "rarity": "uncommon",
            "value": [
                "archetype",
                "dedication"
            ]
        }
    },
    "effects": [],
    "flags": {},
    "img": "systems/pf2e/icons/features/feats/feats.webp",
    "name": "Halcyon Speaker Dedication",
    "type": "feat"
}
