{
    "_id": "IAXWdFXwjFChojeb",
    "data": {
        "actionCategory": {
            "value": ""
        },
        "actionType": {
            "value": "passive"
        },
        "actions": {
            "value": null
        },
        "description": {
            "value": "<p>You look like nothing more than an ordinary toy, doll, or statuette, and you can fool others with your innocuous appearance. You gain the trained proficiency rank in Deception (or another skill if you're already trained in Deception), and you can Impersonate an inanimate toy or a mindless poppet. You can @Compendium[pf2e.actionspf2e.Hide]{Hide} without any cover or concealment from creatures that don't realize you're alive, so long as you're in a location where a toy of your shape wouldn't be out of place, like a carnival booth, city street, or toy shop (at the GM's discretion). If you succeed, onlookers still see you, but they mistake you for an inanimate toy. After being fooled once, they realize you're alive, and you can't Hide from them in that way again.</p>\n<hr />\n<p><em>Note: If you are already trained in the skill provided by this feat, you need to manually select an alternative skill.</em></p>"
        },
        "featType": {
            "value": "ancestry"
        },
        "level": {
            "value": 1
        },
        "location": "",
        "prerequisites": {
            "value": []
        },
        "rules": [
            {
                "key": "ActiveEffectLike",
                "mode": "upgrade",
                "path": "data.skills.dec.rank",
                "value": 1
            }
        ],
        "source": {
            "value": ""
        },
        "traits": {
            "custom": "",
            "rarity": "common",
            "value": [
                "poppet"
            ]
        }
    },
    "effects": [],
    "flags": {},
    "img": "systems/pf2e/icons/default-icons/feats.webp",
    "name": "Harmless Doll",
    "type": "feat"
}
