{
    "_id": "guSjEQS3WuXJqQxf",
    "data": {
        "actionCategory": {
            "value": ""
        },
        "actionType": {
            "value": "action"
        },
        "actions": {
            "value": 2
        },
        "description": {
            "value": "<p><strong>Requirements</strong> You are wielding a melee weapon that deals</p>\n<p>piercing damage.</p>\n<hr />\n<p>You impale your enemy and hold them in place with your weapon.</p>\n<p>Make a melee Strike with the required weapon. If the Strike hits and deals damage, your target is @Compendium[pf2e.conditionitems.Grabbed]{Grabbed} until they successfully @Compendium[pf2e.actionspf2e.Escape]{Escape}, you attack with the required weapon, or you @Compendium[pf2e.actionspf2e.Release]{Release} the required weapon, whichever comes first.</p>\n<p>When the target is no longer grabbed, they take @Compendium[pf2e.conditionitems.Persistent Damage]{Persistent Bleed Damage} equal to the number of weapon damage dice.</p>"
        },
        "featType": {
            "value": "class"
        },
        "level": {
            "value": 14
        },
        "prerequisites": {
            "value": []
        },
        "rules": [],
        "source": {
            "value": "Pathfinder Advanced Player's Guide"
        },
        "traits": {
            "custom": "",
            "rarity": "common",
            "value": [
                "barbarian",
                "rage"
            ]
        }
    },
    "effects": [],
    "flags": {},
    "img": "systems/pf2e/icons/features/feats/feats.webp",
    "name": "Impaling Thrust",
    "type": "feat"
}
