{
    "_id": "NY2AkQscVIHEC8hQ",
    "data": {
        "actionCategory": {
            "value": ""
        },
        "actionType": {
            "value": "action"
        },
        "actions": {
            "value": 3
        },
        "description": {
            "value": "<p><strong>Requirements</strong> You are wielding a ranged weapon with the volley trait and reload 0</p>\n<hr />\n<p>You fire a volley at all foes in an area. Make one Strike with a -2 penalty against each enemy within a 10-foot-radius burst centered at or beyond your weapon's volley range. Roll the damage only once for all targets.</p>"
        },
        "featType": {
            "value": "class"
        },
        "level": {
            "value": 18
        },
        "location": "",
        "prerequisites": {
            "value": []
        },
        "rules": [
            {
                "key": "FlatModifier",
                "label": "Impossible Volley",
                "predicate": {
                    "all": [
                        "ranged",
                        "impossible-volley",
                        "volley-30",
                        "reload-0"
                    ]
                },
                "selector": "attack",
                "value": -2
            }
        ],
        "source": {
            "value": "Pathfinder Core Rulebook"
        },
        "traits": {
            "custom": "",
            "rarity": "common",
            "value": [
                "fighter",
                "flourish",
                "open"
            ]
        }
    },
    "effects": [],
    "flags": {},
    "img": "systems/pf2e/icons/features/feats/feats.webp",
    "name": "Impossible Volley (Fighter)",
    "type": "feat"
}
