{
    "_id": "UxjAszOYAhUvCDt2",
    "data": {
        "actionCategory": {
            "value": "offensive"
        },
        "actionType": {
            "value": "passive"
        },
        "actions": {
            "value": null
        },
        "description": {
            "value": "<p>Your grasp has a supernatural quality to it, preventing your foes from easily escaping-with or without magical assistance. If a creature you have @Compendium[pf2e.conditionitems.Grabbed]{Grabbed} attempts to use a teleportation spell or effect, it must succeed at a @Check[type:flat|dc:15|showDC:owner] check or the spell fails. If a creature you have grabbed attempts to Escape while under the effect of freedom of movement, it must succeed at a @Check[type:flat|dc:15|showDC:owner] check or be forced to roll the Escape attempt normally, rather than automatically succeeding.</p>"
        },
        "featType": {
            "value": "archetype"
        },
        "level": {
            "value": 12
        },
        "location": "",
        "prerequisites": {
            "value": [
                {
                    "value": "Wrestler Dedication"
                }
            ]
        },
        "rules": [],
        "source": {
            "value": ""
        },
        "traits": {
            "custom": "",
            "rarity": "common",
            "value": [
                "archetype"
            ]
        }
    },
    "effects": [],
    "flags": {},
    "img": "systems/pf2e/icons/default-icons/feats.webp",
    "name": "Inescapable Grasp",
    "type": "feat"
}
