{
    "_id": "f5JOSyW1tKMpz6hU",
    "data": {
        "actionCategory": {
            "value": ""
        },
        "actionType": {
            "value": "passive"
        },
        "actions": {
            "value": null
        },
        "description": {
            "value": "<p>With patience and time, you can make bird calls, leave game trails, and ultimately influence the behavior of a certain type of animals in the region to favor and even aid you in the days to come.</p>\n<p>The GM determines the DC of any check required and the amount of time your work requires (usually at least a day or two of downtime). While you can't directly control how you've influenced nature, you can hope for certain effects, such as easier hunts or birds falling silent whenever danger is approaching.</p>\n<p>If you're legendary in Nature, you can elicit these same adjustments to animal behavior in the area by spending only 10 minutes.</p>"
        },
        "featType": {
            "value": "skill"
        },
        "level": {
            "value": 7
        },
        "prerequisites": {
            "value": [
                {
                    "value": "master in Nature"
                }
            ]
        },
        "rules": [],
        "source": {
            "value": "Pathfinder Advanced Player's Guide"
        },
        "traits": {
            "custom": "",
            "rarity": "common",
            "value": [
                "downtime",
                "general",
                "skill"
            ]
        }
    },
    "effects": [],
    "flags": {},
    "img": "systems/pf2e/icons/features/feats/feats.webp",
    "name": "Influence Nature",
    "type": "feat"
}
