{
    "_id": "QYZovCDjOhBb1u01",
    "data": {
        "actionCategory": {
            "value": ""
        },
        "actionType": {
            "value": "passive"
        },
        "actions": {
            "value": null
        },
        "description": {
            "value": "<p>You've spent countless hours learning to recognize and predict a creature's innate magical abilities. The first time you successfully Recall Knowledge to identify a creature, in addition to any information you learn from your successful check, you learn the names of three of the highest-level innate spells it can cast, and you gain a +2 circumstance bonus on your next save against an innate spell cast by that creature.</p>"
        },
        "featType": {
            "value": "archetype"
        },
        "level": {
            "value": 8
        },
        "prerequisites": {
            "value": [
                {
                    "value": "Scrollmaster Dedication"
                }
            ]
        },
        "rules": [],
        "source": {
            "value": "Pathfinder Lost Omens: Pathfinder Society Guide"
        },
        "traits": {
            "custom": "",
            "rarity": "common",
            "value": [
                "archetype"
            ]
        }
    },
    "effects": [],
    "flags": {},
    "img": "systems/pf2e/icons/features/feats/feats.webp",
    "name": "Innate Magical Intuition",
    "type": "feat"
}
