{
    "_id": "OWedlrKGsVZVkSnT",
    "data": {
        "actionCategory": {
            "value": ""
        },
        "actionType": {
            "value": "passive"
        },
        "actions": {
            "value": null
        },
        "description": {
            "value": "<p>Your understanding of life expands, allowing you to mimic a wider range of creatures.</p>\n<p>Add the forms in <em>@Compendium[pf2e.spells-srd.Insect Form]{Insect Form}</em> to your <em>wild shape</em> list.</p>\n<p>Whenever you use <em>wild shape</em> to polymorph into the non-flying <em>insect form</em> listed in <em>@Compendium[pf2e.spells-srd.Pest Form]{Pest Form}</em>, the duration is 24 hours instead of 10 minutes.</p>"
        },
        "featType": {
            "value": "class"
        },
        "level": {
            "value": 6
        },
        "location": "",
        "prerequisites": {
            "value": [
                {
                    "value": "Wild Shape"
                }
            ]
        },
        "rules": [],
        "source": {
            "value": "Pathfinder Core Rulebook"
        },
        "traits": {
            "custom": "",
            "rarity": "common",
            "value": [
                "druid"
            ]
        }
    },
    "effects": [],
    "flags": {},
    "img": "systems/pf2e/icons/features/feats/feats.webp",
    "name": "Insect Shape",
    "type": "feat"
}
