{
    "_id": "ZOr1FUlpJj1q6q3H",
    "data": {
        "actionCategory": {
            "value": ""
        },
        "actionType": {
            "value": "passive"
        },
        "actions": {
            "value": null
        },
        "description": {
            "value": "<p>When you critically succeed at a Recall Knowledge check about a creature, you gain a +1 circumstance bonus to your next attack roll against the creature, to your AC against its next attack roll, and to your save against its next effect requiring a save.</p>\n<p>If you share this information with your allies, they gain the benefits as well. If not used, these bonuses end after 1 minute.</p>"
        },
        "featType": {
            "value": "class"
        },
        "level": {
            "value": 6
        },
        "location": "",
        "prerequisites": {
            "value": []
        },
        "rules": [],
        "source": {
            "value": ""
        },
        "traits": {
            "custom": "",
            "rarity": "common",
            "value": [
                "magus"
            ]
        }
    },
    "effects": [],
    "flags": {},
    "img": "systems/pf2e/icons/features/feats/feats.webp",
    "name": "Knowledge is Power",
    "type": "feat"
}
