{
    "_id": "iWvpq3uDZcXvBJj8",
    "data": {
        "actionCategory": {
            "value": ""
        },
        "actionType": {
            "value": "passive"
        },
        "actions": {
            "value": null
        },
        "description": {
            "value": "<p>Whenever you @Compendium[pf2e.actionspf2e.Devise a Stratagem]{Devise a Strategem}, you can also attempt a check to @Compendium[pf2e.actionspf2e.Recall Knowledge (Arcana)]{Recall Knowledge} as part of that action. If you critically succeed at the Recall Knowledge check, you notice a weakness and gain a +1 circumstance bonus to your attack roll from Devise a Stratagem.</p>\n<p>If you immediately convey this information to your allies as part of the check, each ally gains a +1 circumstance bonus to their next attack roll against the subject, as long as their attack is made before the beginning of your next turn.</p>\n<p>@Compendium[pf2e.feat-effects.Effect: Known Weakness]{Effect: Known Weakness}</p>"
        },
        "featType": {
            "value": "class"
        },
        "level": {
            "value": 1
        },
        "location": "",
        "prerequisites": {
            "value": []
        },
        "rules": [
            {
                "key": "FlatModifier",
                "label": "Known Weakness (critically succeeded on Recall Knowledge)",
                "predicate": {
                    "all": [
                        "devise-a-strategem",
                        "known-weakness"
                    ]
                },
                "selector": "attack",
                "type": "circumstance",
                "value": 1
            }
        ],
        "source": {
            "value": "Pathfinder Advanced Player's Guide"
        },
        "traits": {
            "custom": "",
            "rarity": "common",
            "value": [
                "investigator"
            ]
        }
    },
    "effects": [],
    "flags": {},
    "img": "systems/pf2e/icons/features/feats/feats.webp",
    "name": "Known Weaknesses",
    "type": "feat"
}
