{
    "_id": "KboQgBhYXI2WdCt8",
    "data": {
        "actionCategory": {
            "value": ""
        },
        "actionType": {
            "value": "free"
        },
        "actions": {
            "value": null
        },
        "description": {
            "value": "<p><strong>Trigger</strong> You start your turn with the @Compendium[pf2e.conditionitems.Frightened]{Frightened} condition.</p>\n<p><strong>Requirements</strong> You're wearing your <em>warmask</em>.</p>\n<hr />\n<p>Your <em>warmask</em> burns off of your face, releasing your apprehension. You remove the frightened condition. Your <em>warmask</em> is destroyed, and you can't reapply it until your next daily preparations.</p>\n<hr />\n<p><strong>Special</strong> You can use this free action even if you have a condition tied to the frightened condition that would normally prevent you from using a free action, such as “@Compendium[pf2e.conditionitems.Fleeing]{Fleeing} as long as you're frightened” or “@Compendium[pf2e.conditionitems.Paralyzed]{Paralyzed} as long as you're frightened.”</p>"
        },
        "featType": {
            "value": "ancestry"
        },
        "level": {
            "value": 13
        },
        "location": "",
        "prerequisites": {
            "value": [
                {
                    "value": "Orc Warmask"
                }
            ]
        },
        "rules": [],
        "source": {
            "value": "Pathfinder Lost Omens: Ancestry Guide"
        },
        "traits": {
            "custom": "",
            "rarity": "common",
            "value": [
                "orc"
            ]
        }
    },
    "effects": [],
    "flags": {},
    "img": "systems/pf2e/icons/features/feats/feats.webp",
    "name": "Mask Of Fear",
    "type": "feat"
}
