{
    "_id": "1tVC0mcxl8sTCg4U",
    "data": {
        "actionCategory": {
            "value": ""
        },
        "actionType": {
            "value": "passive"
        },
        "actions": {
            "value": null
        },
        "description": {
            "value": "<p>In combat, you favor the brutal weapons that are traditional for your orc ancestors. You are trained with the @Compendium[pf2e.equipment-srd.Falchion]{Falchion} and @Compendium[pf2e.equipment-srd.Greataxe]{Greataxe}.</p>\n<p>In addition, you gain access to all uncommon orc weapons. For the purpose of determining your proficiency, martial orc weapons are simple weapons and advanced orc weapons are martial weapons.</p>"
        },
        "featType": {
            "value": "ancestry"
        },
        "level": {
            "value": 1
        },
        "location": "",
        "prerequisites": {
            "value": []
        },
        "rules": [
            {
                "key": "ActiveEffectLike",
                "mode": "upgrade",
                "path": "data.martial.weapon-base-falchion.rank",
                "value": 1
            },
            {
                "key": "ActiveEffectLike",
                "mode": "upgrade",
                "path": "data.martial.weapon-base-greataxe.rank",
                "value": 1
            },
            {
                "definition": {
                    "all": [
                        "weapon:trait:orc",
                        "weapon:category:advanced"
                    ]
                },
                "key": "MartialProficiency",
                "label": "PF2E.SpecificRule.MartialProficiency.AdvancedOrcWeapons",
                "sameAs": "martial",
                "slug": "advanced-orc-weapons"
            },
            {
                "definition": {
                    "all": [
                        "weapon:trait:orc",
                        "weapon:category:martial"
                    ]
                },
                "key": "MartialProficiency",
                "label": "PF2E.SpecificRule.MartialProficiency.MartialOrcWeapons",
                "sameAs": "simple",
                "slug": "martial-orc-weapons"
            }
        ],
        "source": {
            "value": "Pathfinder Core Rulebook"
        },
        "traits": {
            "custom": "",
            "rarity": "common",
            "value": [
                "orc"
            ]
        }
    },
    "effects": [],
    "flags": {},
    "img": "systems/pf2e/icons/features/feats/feats.webp",
    "name": "Orc Weapon Familiarity",
    "type": "feat"
}
