{
    "_id": "8RZ4VKXJgtl1aN27",
    "data": {
        "actionCategory": {
            "value": ""
        },
        "actionType": {
            "value": "passive"
        },
        "actions": {
            "value": null
        },
        "description": {
            "value": "<p>You expand your tattoos to encompass greater magic. Choose a 1st-level arcane spell from the same school as your Arcane Tattoos, either a common spell or another to which you have access. You can cast that spell once per day as an innate arcane spell.</p>"
        },
        "featType": {
            "value": "ancestry"
        },
        "level": {
            "value": 5
        },
        "prerequisites": {
            "value": [
                {
                    "value": "Arcane Tattoos"
                }
            ]
        },
        "rules": [],
        "source": {
            "value": "Pathfinder Lost Omens: Character Guide"
        },
        "traits": {
            "custom": "",
            "rarity": "common",
            "value": [
                "human"
            ]
        }
    },
    "effects": [],
    "flags": {},
    "img": "systems/pf2e/icons/features/feats/feats.webp",
    "name": "Ornate Tattoo",
    "type": "feat"
}
