{
    "_id": "eOwjwVAbl99ZTy5D",
    "data": {
        "actionCategory": {
            "value": ""
        },
        "actionType": {
            "value": "action"
        },
        "actions": {
            "value": 3
        },
        "description": {
            "value": "<p>You throw your weight into a powerful attack that leaves you vulnerable.</p>\n<p>Make a melee Strike. This counts as three attacks when calculating your multiple attack penalty. If this Strike hits, you get a critical hit. If you roll a critical hit, your attack also gains the deadly d12 trait.</p>\n<p>Whether or not you hit, you become @Compendium[pf2e.conditionitems.Stunned]{Stunned 1} and are @Compendium[pf2e.conditionitems.Flat-Footed]{Flat-Footed} until the start of your next turn.</p>"
        },
        "featType": {
            "value": "class"
        },
        "level": {
            "value": 16
        },
        "location": "",
        "prerequisites": {
            "value": []
        },
        "rules": [
            {
                "key": "ToggleProperty",
                "label": "Use Overwhelming Blow",
                "property": "flags.pf2e.rollOptions.damage-roll.overwhelming-blow"
            },
            {
                "critical": true,
                "diceNumber": 1,
                "dieSize": "d12",
                "key": "DamageDice",
                "predicate": {
                    "all": [
                        "overwhelming-blow"
                    ]
                },
                "selector": "damage"
            }
        ],
        "source": {
            "value": "Pathfinder Advanced Player's Guide"
        },
        "traits": {
            "custom": "",
            "rarity": "common",
            "value": [
                "fighter"
            ]
        }
    },
    "effects": [],
    "flags": {},
    "img": "systems/pf2e/icons/features/feats/feats.webp",
    "name": "Overwhelming Blow",
    "type": "feat"
}
