{
    "_id": "38uOVS8fLZxraUrg",
    "data": {
        "actionCategory": {
            "value": ""
        },
        "actionType": {
            "value": "passive"
        },
        "actions": {
            "value": null
        },
        "description": {
            "value": "<p>You lead by example and can help others push themselves beyond their normal limits. When @Compendium[pf2e.actionspf2e.Hustle]{Hustling} in a group during exploration mode, your group can Hustle for up to 20 additional minutes, to a maximum of the amount of time the character with the highest Constitution modifier could Hustle alone.</p>"
        },
        "featType": {
            "value": "general"
        },
        "level": {
            "value": 3
        },
        "prerequisites": {
            "value": [
                {
                    "value": "Constitution 14"
                }
            ]
        },
        "rules": [],
        "source": {
            "value": "Pathfinder Advanced Player's Guide"
        },
        "traits": {
            "custom": "",
            "rarity": "common",
            "value": [
                "general"
            ]
        }
    },
    "effects": [],
    "flags": {},
    "img": "systems/pf2e/icons/features/feats/feats.webp",
    "name": "Pick Up The Pace",
    "type": "feat"
}
