{
    "_id": "8l3qDZrfhxUGijjB",
    "data": {
        "actionCategory": {
            "value": ""
        },
        "actionType": {
            "value": "action"
        },
        "actions": {
            "value": 2
        },
        "description": {
            "value": "<p><strong>Frequency</strong> once per day</p>\n<hr />\n<p>You call out to your allies and push them to give their all in combat. All allies within 30 feet that can hear you gain a number of temporary Hit Points equal to your level. In addition, these allies become @Compendium[pf2e.conditionitems.Quickened]{Quickened} for 1 minute but can only use the extra action to Step, Stride, or Strike.</p>"
        },
        "featType": {
            "value": "ancestry"
        },
        "level": {
            "value": 17
        },
        "location": "",
        "prerequisites": {
            "value": []
        },
        "rules": [],
        "source": {
            "value": "Pathfinder Lost Omens: Ancestry Guide"
        },
        "traits": {
            "custom": "",
            "rarity": "common",
            "value": [
                "auditory",
                "hobgoblin"
            ]
        }
    },
    "effects": [],
    "flags": {},
    "img": "systems/pf2e/icons/features/feats/feats.webp",
    "name": "Rallying Cry",
    "type": "feat"
}
