{
    "_id": "9Qn5E7Ujye9KdxOj",
    "data": {
        "actionCategory": {
            "value": ""
        },
        "actionType": {
            "value": "action"
        },
        "actions": {
            "value": 1
        },
        "description": {
            "value": "<p><strong>Requirements</strong> An enemy's action disrupted your attempts to Cast a Spell since the beginning of your last turn.</p>\n<hr />\n<p>You recover the energy of a recently disrupted spell, allowing you to cast it again as long as you do so immediately before the energy dissipates. You regain the use of a spell that was disrupted since the beginning of your last turn, but you must immediately Cast the Spell again with your next action or else you lose the spell; as normal for metamagic, this must be on the same turn that you use Recover Spell. You can change the area, targets, and other variables, including the number of actions used to Cast the Spell if the spell allows, such as when casting <em>@Compendium[pf2e.spells-srd.Heal]{Heal}</em> or <em>@Compendium[pf2e.spells-srd.Magic Missile]{Magic Missile}</em>.</p>"
        },
        "featType": {
            "value": "archetype"
        },
        "level": {
            "value": 10
        },
        "prerequisites": {
            "value": [
                {
                    "value": "Spellmaster Dedication"
                }
            ]
        },
        "rules": [],
        "source": {
            "value": "Pathfinder Lost Omens: Pathfinder Society Guide"
        },
        "traits": {
            "custom": "",
            "rarity": "common",
            "value": [
                "archetype",
                "concentrate",
                "metamagic"
            ]
        }
    },
    "effects": [],
    "flags": {},
    "img": "systems/pf2e/icons/features/feats/feats.webp",
    "name": "Recover Spell",
    "type": "feat"
}
