{
    "_id": "DUuCOQ9FiZf7vS5b",
    "data": {
        "actionCategory": {
            "value": ""
        },
        "actionType": {
            "value": "passive"
        },
        "actions": {
            "value": null
        },
        "description": {
            "value": "<p>Careful research into the art of rituals has made you better at performing them. You gain a +2 circumstance bonus to all primary and secondary checks you attempt as part of casting a ritual.</p>"
        },
        "featType": {
            "value": "class"
        },
        "level": {
            "value": 4
        },
        "location": "",
        "prerequisites": {
            "value": [
                {
                    "value": "enigma muse"
                },
                {
                    "value": "expert in Occultism"
                }
            ]
        },
        "rules": [
            {
                "key": "FlatModifier",
                "label": "Ritual Researcher (ritual casting)",
                "predicate": {
                    "all": [
                        "ritual"
                    ],
                    "any": [
                        "primary-check",
                        "secondary-check"
                    ]
                },
                "selector": "skill-check",
                "type": "circumstance",
                "value": 2
            }
        ],
        "source": {
            "value": "Pathfinder Advanced Player's Guide"
        },
        "traits": {
            "custom": "",
            "rarity": "uncommon",
            "value": [
                "bard"
            ]
        }
    },
    "effects": [],
    "flags": {},
    "img": "systems/pf2e/icons/features/feats/feats.webp",
    "name": "Ritual Researcher",
    "type": "feat"
}
