{
    "_id": "NnpUhj7d4RmfOKTE",
    "data": {
        "actionCategory": {
            "value": ""
        },
        "actionType": {
            "value": "action"
        },
        "actions": {
            "value": 1
        },
        "description": {
            "value": "<p><strong>Frequency</strong> once per day</p>\n<hr />\n<p>You make a weapon unbearable to hold. Attempt an Athletics check to Disarm a target creature. You don't need to have a hand free to make this Disarm attempt. If the Disarm attempt succeeds, the target takes [[/r {4d6}[fire]]]{4d6 fire damage} unless it drops the weapon, and on a critical success, it takes [[/r {4d6}[fire]]]{4d6 fire damage} and drops the weapon. If you're legendary in Athletics, this increases to [[/r {8d6}[fire]]]{8d6 fire damage}.</p>"
        },
        "featType": {
            "value": "ancestry"
        },
        "level": {
            "value": 9
        },
        "location": "",
        "prerequisites": {
            "value": []
        },
        "rules": [],
        "source": {
            "value": "Pathfinder Lost Omens: Ancestry Guide"
        },
        "traits": {
            "custom": "",
            "rarity": "common",
            "value": [
                "fire",
                "ifrit"
            ]
        }
    },
    "effects": [],
    "flags": {},
    "img": "systems/pf2e/icons/features/feats/feats.webp",
    "name": "Scorching Disarm",
    "type": "feat"
}
