{
    "_id": "eZsMl6rx8Bv6Ccnp",
    "data": {
        "actionCategory": {
            "value": ""
        },
        "actionType": {
            "value": "passive"
        },
        "actions": {
            "value": null
        },
        "description": {
            "value": "<p>You've polished your eyes to reflect the smallest details in dimmest light. You gain the @Compendium[pf2e.feats-srd.Canny Acumen]{Canny Acumen} skill feat as a bonus feat, but you must choose Perception. Additionally, you gain a +1 circumstance bonus to Perception checks against visual illusions.</p>"
        },
        "featType": {
            "value": "ancestry"
        },
        "level": {
            "value": 1
        },
        "location": "",
        "prerequisites": {
            "value": []
        },
        "rules": [
            {
                "key": "FlatModifier",
                "predicate": {
                    "all": [
                        "illusion",
                        "visual"
                    ]
                },
                "selector": "perception",
                "type": "circumstance",
                "value": 1
            },
            {
                "key": "GrantItem",
                "uuid": "Compendium.pf2e.feats-srd.Canny Acumen"
            }
        ],
        "source": {
            "value": ""
        },
        "traits": {
            "custom": "",
            "rarity": "common",
            "value": [
                "poppet"
            ]
        }
    },
    "effects": [],
    "flags": {},
    "img": "systems/pf2e/icons/default-icons/feats.webp",
    "name": "Shiny Button Eyes",
    "type": "feat"
}
