{
    "_id": "kS4wxSKrZxcOvSNK",
    "data": {
        "actionCategory": {
            "value": ""
        },
        "actionType": {
            "value": "passive"
        },
        "actions": {
            "value": null
        },
        "description": {
            "value": "<p>The shallows and tide pools have always called to you and let you pass unhindered. You ignore difficult terrain resulting from shallow water.</p>\n<p>In addition, if you roll a success on an Acrobatics check to @Compendium[pf2e.actionspf2e.Balance]{Balance} on a slippery or wet surface, or on an Athletics check to @Compendium[pf2e.actionspf2e.Swim]{Swim}, you get a critical success instead.</p>"
        },
        "featType": {
            "value": "class"
        },
        "level": {
            "value": 1
        },
        "location": "",
        "prerequisites": {
            "value": [
                {
                    "value": "wave order"
                }
            ]
        },
        "rules": [],
        "source": {
            "value": ""
        },
        "traits": {
            "custom": "",
            "rarity": "common",
            "value": [
                "druid"
            ]
        }
    },
    "effects": [],
    "flags": {},
    "img": "systems/pf2e/icons/features/feats/feats.webp",
    "name": "Shore Step",
    "type": "feat"
}
