{
    "_id": "ODnXQHvFoK7tIVpu",
    "data": {
        "actionCategory": {
            "value": ""
        },
        "actionType": {
            "value": "free"
        },
        "actions": {
            "value": null
        },
        "description": {
            "value": "<p><strong>Frequency</strong> once per round</p>\n<p><strong>Trigger</strong> You use @Compendium[pf2e.classfeatures.Quick Alchemy]{Quick Alchemy} to craft an alchemical bomb with a level at least 1 lower than your advanced alchemy level</p>\n<hr />\n<p>You cause the bomb to create a cloud of thick smoke, in addition to its normal effects.</p>\n<p>When thrown, the bomb creates a cloud of smoke in a 10-foot-radius burst. You choose which corner of the target's space (or the space in which the bomb lands) the cloud is centered on.</p>\n<p><span style=\"color: var(--body); font-size: 1em;\">Creatures within that area have the @Compendium[pf2e.conditionitems.Concealed]{Concealed} condition, and all other creatures are concealed to them. The smoke lasts for 1 minute or until dissipated by a strong wind.</span></p>"
        },
        "featType": {
            "value": "class"
        },
        "level": {
            "value": 2
        },
        "location": "",
        "prerequisites": {
            "value": []
        },
        "rules": [
            {
                "key": "Note",
                "predicate": {
                    "all": [
                        "alchemical",
                        "bomb",
                        "smoke-bomb"
                    ]
                },
                "selector": "attack-roll",
                "text": "<p class='compact-text'><strong>{item|name}</strong> Your bomb creates a cloud of smoke in a 10-foot radius burst, centered on a corner of the target's space of your choice. The smoke conceals creatures in the area, and lasts for 1 minute.</p>"
            },
            {
                "key": "ToggleProperty",
                "label": "Smoke Bomb",
                "property": "flags.pf2e.rollOptions.attack-roll.smoke-bomb"
            }
        ],
        "source": {
            "value": "Pathfinder Core Rulebook"
        },
        "traits": {
            "custom": "",
            "rarity": "common",
            "value": [
                "alchemist",
                "additive1"
            ]
        }
    },
    "effects": [],
    "flags": {},
    "img": "systems/pf2e/icons/features/feats/feats.webp",
    "name": "Smoke Bomb",
    "type": "feat"
}
