{
    "_id": "GfpHBiOX02PQz0Pm",
    "data": {
        "actionCategory": {
            "value": ""
        },
        "actionType": {
            "value": "passive"
        },
        "actions": {
            "value": null
        },
        "description": {
            "value": "<p>You can open your mouth to an immense size and spew forth an impossibly large field of tentacles. You can cast <em>@Compendium[pf2e.spells-srd.Black Tentacles]{Black Tentacles}</em> once per day as an innate occult spell, though when you do so, you spew them from your mouth out to the appropriate range, where they take root and begin Grappling creatures as usual. The tentacles recognize you as a part of them and don't attempt to Grapple you, even if you are in the area.</p>"
        },
        "featType": {
            "value": "ancestry"
        },
        "level": {
            "value": 13
        },
        "location": "",
        "prerequisites": {
            "value": []
        },
        "rules": [],
        "source": {
            "value": "Pathfinder Lost Omens: Ancestry Guide"
        },
        "traits": {
            "custom": "",
            "rarity": "common",
            "value": [
                "fleshwarp"
            ]
        }
    },
    "effects": [],
    "flags": {},
    "img": "systems/pf2e/icons/features/feats/feats.webp",
    "name": "Spew Tentacles",
    "type": "feat"
}
