{
    "_id": "llawV63qzdynbOkx",
    "data": {
        "actionCategory": {
            "value": ""
        },
        "actionType": {
            "value": "passive"
        },
        "actions": {
            "value": null
        },
        "description": {
            "value": "<p>You gain a unique communion with the earth and stones. You learn the Terran language and you can Activate your <em>ka stone</em> with a 10-minute activation (envision) to cast <em>@Compendium[pf2e.spells-srd.Stone Tell]{Stone Tell}</em>.</p>"
        },
        "featType": {
            "value": "archetype"
        },
        "level": {
            "value": 14
        },
        "prerequisites": {
            "value": [
                {
                    "value": "Ka Stone Ritual"
                }
            ]
        },
        "rules": [],
        "source": {
            "value": "Pathfinder Lost Omens: World Guide"
        },
        "traits": {
            "custom": "",
            "rarity": "common",
            "value": [
                "archetype"
            ]
        }
    },
    "effects": [],
    "flags": {},
    "img": "systems/pf2e/icons/features/feats/feats.webp",
    "name": "Stone Communion",
    "type": "feat"
}
