{
    "_id": "TGlb3gmSKkJBZt5q",
    "data": {
        "actionCategory": {
            "value": ""
        },
        "actionType": {
            "value": "passive"
        },
        "actions": {
            "value": null
        },
        "description": {
            "value": "<p>You have an appropriately intense hatred for alghollthus.</p>\n<p>You gain a +2 circumstance bonus to damage with weapons and unarmed attacks against creatures from the alghollthu family and those that serve alghollthus (the GM determines which creatures serve an alghollthu).</p>\n<p>In addition, if an alghollthu successfully affects you or one of your allies within 60 feet with an enchantment, your circumstance bonus to damage against that alghollthu increases to +4 for 1 minute.</p>\n<p>@Compendium[pf2e.feat-effects.Effect: Striking Retribution]{Effect: Striking Retribution}</p>"
        },
        "featType": {
            "value": "ancestry"
        },
        "level": {
            "value": 1
        },
        "location": "",
        "prerequisites": {
            "value": []
        },
        "rules": [
            {
                "key": "FlatModifier",
                "label": "Striking Retribution (vs. alghollthu and their servants)",
                "predicate": {
                    "any": [
                        "target:alghollthu",
                        "target:alghollthu-servant"
                    ]
                },
                "selector": "mundane-damage",
                "type": "circumstance",
                "value": 2
            }
        ],
        "source": {
            "value": "Pathfinder Lost Omens: Ancestry Guide"
        },
        "traits": {
            "custom": "",
            "rarity": "common",
            "value": [
                "azarketi"
            ]
        }
    },
    "effects": [],
    "flags": {},
    "img": "systems/pf2e/icons/default-icons/feats.webp",
    "name": "Striking Retribution",
    "type": "feat"
}
