{
    "_id": "gHHnMCBi1gvG5wTL",
    "data": {
        "actionCategory": {
            "value": ""
        },
        "actionType": {
            "value": "passive"
        },
        "actions": {
            "value": null
        },
        "description": {
            "value": "<p>You have studied a great many combat techniques, which you can review each day. During your daily preparations, you can swap out any number of your duelist archetype feats for other duelist archetype feats of the appropriate level for which you are qualified. You can't swap out Duelist Dedication or Student of the Dueling Arts in this way.</p>\n<p>In addition, you can enter a stance from a duelist archetype feat you don't have (such as one listed under Additional Feats) by increasing the number of actions it takes to enter the stance by 1 (typically to 2 actions). You must still meet the feat's prerequisites.</p>"
        },
        "featType": {
            "value": "archetype"
        },
        "level": {
            "value": 12
        },
        "prerequisites": {
            "value": [
                {
                    "value": "Duelist Dedication"
                }
            ]
        },
        "rules": [],
        "source": {
            "value": "Pathfinder Advanced Player's Guide"
        },
        "traits": {
            "custom": "",
            "rarity": "common",
            "value": [
                "archetype"
            ]
        }
    },
    "effects": [],
    "flags": {},
    "img": "systems/pf2e/icons/features/feats/feats.webp",
    "name": "Student Of The Dueling Arts",
    "type": "feat"
}
