{
    "_id": "569SxRBvTCDiHlbW",
    "data": {
        "actionCategory": {
            "value": ""
        },
        "actionType": {
            "value": "passive"
        },
        "actions": {
            "value": null
        },
        "description": {
            "value": "<p>You have a connection to the Inner Spheres, allowing you to summon an elemental ally. Once per day, you can cast <em>@Compendium[pf2e.spells-srd.Summon Elemental]{Summon Elemental}</em> as a 5th-level primal innate spell, but the elemental summoned must be an air elemental.</p>"
        },
        "featType": {
            "value": "ancestry"
        },
        "level": {
            "value": 13
        },
        "location": "",
        "prerequisites": {
            "value": []
        },
        "rules": [],
        "source": {
            "value": "Pathfinder Lost Omens: Ancestry Guide"
        },
        "traits": {
            "custom": "",
            "rarity": "common",
            "value": [
                "sylph"
            ]
        }
    },
    "effects": [],
    "flags": {},
    "img": "systems/pf2e/icons/features/feats/feats.webp",
    "name": "Summon Air Elemental",
    "type": "feat"
}
