{
    "_id": "uPikeCzrTrgzEJT8",
    "data": {
        "actionCategory": {
            "value": ""
        },
        "actionType": {
            "value": "passive"
        },
        "actions": {
            "value": null
        },
        "description": {
            "value": "<p>You have forgotten more about talismans than lesser warriors have ever known. Normally, affixing more than one talisman to an item causes the talismans to be suppressed, but when you @Compendium[pf2e.actionspf2e.Affix a Talisman]{Affix a Talisman}, you can specially treat one item you're working on, allowing it to have two active talismans at once.</p>\n<p>This special treatment ends if you use Affix a Talisman to treat a new item for this ability.</p>"
        },
        "featType": {
            "value": "archetype"
        },
        "level": {
            "value": 14
        },
        "prerequisites": {
            "value": [
                {
                    "value": "Talisman Dabbler Dedication"
                }
            ]
        },
        "rules": [],
        "source": {
            "value": "Pathfinder Advanced Player's Guide"
        },
        "traits": {
            "custom": "",
            "rarity": "common",
            "value": [
                "archetype"
            ]
        }
    },
    "effects": [],
    "flags": {},
    "img": "systems/pf2e/icons/features/feats/feats.webp",
    "name": "Talismanic Sage",
    "type": "feat"
}
