{
    "_id": "UlCbjWWVEmfvaf5a",
    "data": {
        "actionCategory": {
            "value": ""
        },
        "actionType": {
            "value": "passive"
        },
        "actions": {
            "value": null
        },
        "description": {
            "value": "<p><strong>Frequency</strong> once per minute</p>\n<p><strong>Trigger</strong> You apply an effect from your blood magic that lasts for 1 round.</p>\n<hr />\n<p>You have learned how to invest magic more deeply by witnessing Aroden's works. The triggering blood magic effect lasts for 1 minute instead of 1 round.</p>"
        },
        "featType": {
            "value": "class"
        },
        "level": {
            "value": 20
        },
        "prerequisites": {
            "value": []
        },
        "rules": [],
        "source": {
            "value": "Pathfinder #156: The Apocalypse Prophet"
        },
        "traits": {
            "custom": "",
            "rarity": "uncommon",
            "selected": {
                "sorcerer": "Sorcerer"
            },
            "value": [
                "sorcerer"
            ]
        }
    },
    "effects": [],
    "flags": {},
    "img": "systems/pf2e/icons/features/feats/feats.webp",
    "name": "Tenacious Blood Magic",
    "type": "feat"
}
