{
    "_id": "7GGxxoYNA4YrtML9",
    "data": {
        "actionCategory": {
            "value": "offensive"
        },
        "actionType": {
            "value": "action"
        },
        "actions": {
            "value": 3
        },
        "description": {
            "value": "<p>Your eidolon Strides up to double its Speed and can move through the spaces of creatures at least one size smaller, Trampling each creature whose space it enters. It can attempt to Trample the same creature only once in a single Trample.</p>\n<p>It deals bludgeoning damage equal to the damage of its secondary attack against these creatures, which can attempt a basic Reflex save against your spell DC.</p>"
        },
        "featType": {
            "value": "class"
        },
        "level": {
            "value": 16
        },
        "location": "",
        "prerequisites": {
            "value": []
        },
        "rules": [],
        "source": {
            "value": ""
        },
        "traits": {
            "custom": "",
            "rarity": "common",
            "value": [
                "eidolon",
                "evolution",
                "summoner"
            ]
        }
    },
    "effects": [],
    "flags": {},
    "img": "systems/pf2e/icons/features/feats/feats.webp",
    "name": "Trample",
    "type": "feat"
}
