{
    "_id": "zZCyJhsaugHB6mZW",
    "data": {
        "actionCategory": {
            "value": ""
        },
        "actionType": {
            "value": "action"
        },
        "actions": {
            "value": 1
        },
        "description": {
            "value": "<p>You menace the target, stoking their fears and drawing their attention.</p>\n<p>Attempt an Intimidation check against the Will DC of a target within 30 feet. If you succeed, for 1 minute, that target gains a +2 status bonus to Perception checks against you, but they take a -2 status penalty to Will saves against fear effects.</p>"
        },
        "featType": {
            "value": "class"
        },
        "level": {
            "value": 6
        },
        "location": "",
        "prerequisites": {
            "value": [
                {
                    "value": "trained in Intimidation"
                }
            ]
        },
        "rules": [],
        "source": {
            "value": "Pathfinder Advanced Player's Guide"
        },
        "traits": {
            "custom": "",
            "rarity": "common",
            "value": [
                "emotion",
                "fear",
                "mental",
                "rogue"
            ]
        }
    },
    "effects": [],
    "flags": {},
    "img": "systems/pf2e/icons/features/feats/feats.webp",
    "name": "Watch Your Back",
    "type": "feat"
}
