{
    "_id": "XenKYUBMWZQQ7niM",
    "data": {
        "actionCategory": {
            "value": ""
        },
        "actionType": {
            "value": "passive"
        },
        "actions": {
            "value": null
        },
        "description": {
            "value": "<p><strong>Requirements</strong> You have a foe grabbed.</p>\n<p>You whirl a foe to smash into all nearby creatures before throwing them far away in imitation of the techniques of your rival, Ran-To. You Thrash. During this Thrash, your @Compendium[pf2e.feats-srd.Collateral Thrash]{Collateral Thrash} feat applies to all foes adjacent to you. You can then throw the grabbed creature 10 feet, where they fall @Compendium[pf2e.conditionitems.Prone]{Prone}.</p>\n<p>If the foe you choose for Collateral Thrash is also adjacent to you, they attempt only one save and take the damage only once.</p>"
        },
        "featType": {
            "value": "class"
        },
        "level": {
            "value": 20
        },
        "location": "",
        "prerequisites": {
            "value": [
                {
                    "value": "Collateral Thrash"
                }
            ]
        },
        "rules": [],
        "source": {
            "value": "Pathfinder #168: King of the Mountain"
        },
        "traits": {
            "custom": "",
            "rarity": "uncommon",
            "value": [
                "barbarian",
                "rage"
            ]
        }
    },
    "effects": [],
    "flags": {},
    "img": "systems/pf2e/icons/default-icons/feats.webp",
    "name": "Whirlwind Toss",
    "type": "feat"
}
