{
    "_id": "tP8pws78OOmobWjB",
    "data": {
        "actionCategory": {
            "value": ""
        },
        "actionType": {
            "value": "reaction"
        },
        "actions": {
            "value": null
        },
        "description": {
            "value": "<p><strong>Frequency</strong> once per day</p>\n<p><strong>Trigger</strong> An ally within 30 feet takes damage that would otherwise reduce them to 0 Hit Points and give them the @Compendium[pf2e.conditionitems.Dying]{Dying} condition.</p>\n<hr />\n<p>Once, you died because you valued someone else's life above your own; just as then, you protect an ally by suffering in their stead. Reduce the damage the triggering ally would take by 1 + your level. You redirect this damage to yourself, but your immunities, weaknesses, resistances, and so on don't apply. You aren't subject to any conditions or other effects from whatever damaged your ally (such as poison from a venomous bite)—your ally is still subject to those effects even if you redirect all of the triggering damage to yourself. If the redirected damage prevents the ally from being reduced to 0 Hit Points, they remain conscious and don't gain the dying condition.</p>\n<hr />\n<p><strong>Special</strong> You can select this feat only at 1st level, and you can't retrain into or out of this feat.</p>"
        },
        "featType": {
            "value": "ancestry"
        },
        "level": {
            "value": 1
        },
        "location": "",
        "prerequisites": {
            "value": []
        },
        "rules": [],
        "source": {
            "value": "Pathfinder Lost Omens: Ancestry Guide"
        },
        "traits": {
            "custom": "",
            "rarity": "common",
            "value": [
                "duskwalker"
            ]
        }
    },
    "effects": [],
    "flags": {},
    "img": "systems/pf2e/icons/features/feats/feats.webp",
    "name": "Willing Death",
    "type": "feat"
}
