{
    "_id": "52QyoGaysrfBOy5H",
    "data": {
        "actionCategory": {
            "value": ""
        },
        "actionType": {
            "value": "passive"
        },
        "actions": {
            "value": null
        },
        "description": {
            "value": "<p>You forge a magical link with another creature, granting you awareness of that creature's condition and creating a conduit for spellcasting.</p>\n<p>During your daily preparations, you can designate one willing creature as your charge. You are always aware of your charge's direction from you, its distance from you, and any conditions affecting it. In addition, you can cast spells with a range of touch on your charge from a range of 30 feet. These effects persist until your next daily preparations.</p>\n<p><strong>Special</strong> This feat has the trait corresponding to the tradition of spells you cast (arcane, divine, occult, or primal).</p>\n<p>@Compendium[pf2e.feat-effects.Effect: Witch's Charge]{Effect: Witch's Charge}</p>"
        },
        "featType": {
            "value": "class"
        },
        "level": {
            "value": 6
        },
        "location": "",
        "prerequisites": {
            "value": []
        },
        "rules": [],
        "source": {
            "value": "Pathfinder Advanced Player's Guide"
        },
        "traits": {
            "custom": "",
            "rarity": "common",
            "value": [
                "detection",
                "divination",
                "witch"
            ]
        }
    },
    "effects": [],
    "flags": {},
    "img": "systems/pf2e/icons/features/feats/feats.webp",
    "name": "Witch's Charge",
    "type": "feat"
}
