{
    "_id": "U7ZJfuPLQPyoaj4M",
    "data": {
        "actionCategory": {
            "value": ""
        },
        "actionType": {
            "value": "passive"
        },
        "actions": {
            "value": null
        },
        "description": {
            "value": "<p><strong>Major Boon</strong> Pharasma keeps you alive to fulfill your fate.</p>\n<p>The GM secretly chooses a fate Pharasma knows you must fulfill. Until you fulfill this fate, any time you would die, a grave but nonfatal misfortune instead befalls you.</p>\n<p>You take at least a full day to recuperate and you potentially face permanent consequences, but you don't die. If you would have died even once without this boon, once your fate is complete, you let out a final sigh and then die peacefully.</p>"
        },
        "featType": {
            "value": "deityboon"
        },
        "level": {
            "value": 0
        },
        "prerequisites": {
            "value": []
        },
        "rules": [],
        "source": {
            "value": ""
        },
        "traits": {
            "custom": "",
            "rarity": "common",
            "value": []
        }
    },
    "effects": [],
    "flags": {},
    "img": "systems/pf2e/icons/deity/Pharasma.webp",
    "name": "Pharasma - Major Boon",
    "type": "feat"
}
