{
    "_id": "9EMaYf6odFEyjdSr",
    "data": {
        "actionCategory": {
            "value": ""
        },
        "actionType": {
            "value": "passive"
        },
        "actions": {
            "value": null
        },
        "description": {
            "value": "<p><strong>Moderate Curse</strong> Urgathoa cuts you off from positive energy without granting you the blessing of undeath. You are harmed by positive effects and don't recover Hit Points from them, as if you were an undead or had negative healing, but you are still harmed by negative effects as normal.</p>"
        },
        "featType": {
            "value": "curse"
        },
        "level": {
            "value": 0
        },
        "prerequisites": {
            "value": []
        },
        "rules": [],
        "source": {
            "value": ""
        },
        "traits": {
            "custom": "",
            "rarity": "common",
            "value": []
        }
    },
    "effects": [],
    "flags": {},
    "img": "systems/pf2e/icons/deity/Urgathoa.webp",
    "name": "Urgathoa - Moderate Curse",
    "type": "feat"
}
