{
    "_id": "Pfllo68qdQjC4Qv6",
    "data": {
        "description": {
            "value": "<p>Granted by <em>@Compendium[pf2e.spells-srd.Prismatic Shield]{Prismatic Shield}</em></p>"
        },
        "duration": {
            "expiry": "turn-start",
            "sustained": false,
            "unit": "rounds",
            "value": 1
        },
        "level": {
            "value": 1
        },
        "rules": [
            {
                "key": "ToggleProperty",
                "label": "Targeted by a Large Ranged Weapon",
                "property": "flags.pf2e.rollOptions.ac.prismatic-shield"
            },
            {
                "key": "FlatModifier",
                "predicate": {
                    "all": [
                        "prismatic-shield"
                    ]
                },
                "roll-option": [
                    "all",
                    "ac"
                ],
                "selector": "ac",
                "type": "circumstance",
                "value": 2
            }
        ],
        "source": {
            "value": ""
        },
        "start": {
            "initiative": null,
            "value": 0
        },
        "target": null,
        "tokenIcon": {
            "show": true
        },
        "traits": {
            "custom": "",
            "rarity": "common",
            "value": []
        }
    },
    "effects": [],
    "flags": {},
    "img": "systems/pf2e/icons/spells/prismatic-shield.webp",
    "name": "Spell Effect: Prismatic Shield",
    "type": "effect"
}
