{
    "_id": "Jemq5UknGdMO7b73",
    "data": {
        "description": {
            "value": "<p>Granted by <em>@Compendium[pf2e.spells-srd.Shield]{Shield}</em></p>\n<p>Automatically applied effects:</p>\n<ul>\n<li>+1 circumstance bonus to AC</li>\n</ul>"
        },
        "duration": {
            "expiry": "turn-start",
            "sustained": false,
            "unit": "rounds",
            "value": 1
        },
        "level": {
            "value": 1
        },
        "rules": [
            {
                "key": "ActiveEffectLike",
                "mode": "override",
                "path": "data.attributes.shield",
                "predicate": {
                    "any": [
                        "self:type:character",
                        "self:type:npc"
                    ]
                },
                "value": {
                    "ac": 1,
                    "broken": false,
                    "brokenThreshold": 0,
                    "destroyed": false,
                    "hp": {
                        "max": 0,
                        "value": 0
                    },
                    "icon": "systems/pf2e/icons/spells/shield.webp",
                    "itemId": "{item|_id}",
                    "name": "PF2E.ShieldLabel",
                    "raised": true
                }
            },
            {
                "key": "ActiveEffectLike",
                "mode": "override",
                "path": "data.attributes.shield.hardness",
                "predicate": {
                    "any": [
                        "self:type:character",
                        "self:type:npc"
                    ]
                },
                "value": {
                    "brackets": [
                        {
                            "end": 2,
                            "value": 5
                        },
                        {
                            "end": 4,
                            "start": 3,
                            "value": 10
                        },
                        {
                            "end": 6,
                            "start": 5,
                            "value": 15
                        },
                        {
                            "end": 8,
                            "start": 7,
                            "value": 20
                        },
                        {
                            "start": 9,
                            "value": 25
                        }
                    ],
                    "field": "item|data.level.value"
                }
            }
        ],
        "source": {
            "value": ""
        },
        "start": {
            "value": 0
        },
        "target": null,
        "tokenIcon": {
            "show": true
        },
        "traits": {
            "custom": "",
            "rarity": "common",
            "value": []
        }
    },
    "effects": [],
    "flags": {},
    "img": "systems/pf2e/icons/spells/shield.webp",
    "name": "Spell Effect: Shield",
    "type": "effect"
}
