{
    "_id": "5R3ewWLFkgqTvZsc",
    "data": {
        "description": {
            "value": "<p>An elemental force fills your target, granting the target the swiftness of air, the ruggedness of earth, the sting of fire, or the flexibility of water, depending on which element you choose. Choose an element when you Cast the Spell. The target gains the benefit of that element as described below, and this spell gains that trait's element.</p>\n<ul>\n<li><strong>Fire</strong> The target's melee unarmed Strikes and melee weapon Strikes deal 1d6 persistent fire damage on a hit.</li>\n</ul>"
        },
        "duration": {
            "expiry": "turn-start",
            "sustained": false,
            "unit": "minutes",
            "value": 1
        },
        "level": {
            "value": 1
        },
        "rules": [
            {
                "key": "Note",
                "predicate": {
                    "all": [
                        "melee"
                    ]
                },
                "selector": "damage",
                "text": "<p class='compact-text'><strong>Elemental Gift (Fire)</strong> Your melee unarmed Strikes and melee weapon Strikes deal [[/r {1d6}[persistent,fire]]] @Compendium[pf2e.conditionitems.Persistent Damage]{Persistent Fire Damage} on a hit.</p>"
            }
        ],
        "source": {
            "value": ""
        },
        "start": {
            "initiative": null,
            "value": 0
        },
        "target": null,
        "tokenIcon": {
            "show": true
        },
        "traits": {
            "custom": "",
            "rarity": "common",
            "value": []
        }
    },
    "effects": [],
    "flags": {},
    "img": "systems/pf2e/icons/spells/elemental-gift.webp",
    "name": "Spell Effect: Elemental Gift (Fire)",
    "type": "effect"
}
