{
    "_id": "oi5M6yQBlTKvLy29",
    "data": {
        "description": {
            "value": "<p>Granted by <em>@Compendium[pf2e.spells-srd.Gravity Weapon]{Gravity Weapon}</em> if your weapon deals 3 dice of damage.</p>"
        },
        "duration": {
            "expiry": "turn-start",
            "sustained": false,
            "unit": "minutes",
            "value": 1
        },
        "level": {
            "value": 1
        },
        "rules": [
            {
                "key": "ToggleProperty",
                "label": "First weapon strike this round",
                "property": "flags.pf2e.rollOptions.damage-roll.gravity-weapon"
            },
            {
                "key": "FlatModifier",
                "label": "Gravity Weapon",
                "predicate": {
                    "all": [
                        "gravity-weapon"
                    ],
                    "not": [
                        "unarmed"
                    ]
                },
                "selector": "mundane-damage",
                "type": "status",
                "value": 6
            }
        ],
        "source": {
            "value": ""
        },
        "start": {
            "initiative": null,
            "value": 0
        },
        "target": null,
        "tokenIcon": {
            "show": true
        },
        "traits": {
            "custom": "",
            "rarity": "common",
            "value": []
        }
    },
    "effects": [],
    "flags": {},
    "img": "systems/pf2e/icons/spells/gravity-weapon.webp",
    "name": "Spell Effect: Gravity Weapon (3 Dice)",
    "type": "effect"
}
