{
    "_id": "vhW3glAaEfq2DKrw",
    "data": {
        "actionCategory": {
            "value": ""
        },
        "actionType": {
            "value": "passive"
        },
        "actions": {
            "value": null
        },
        "description": {
            "value": "<p>One of your forebears hailed from a celestial realm, or your ancestors' devotion led to their lineage being blessed.</p>\n<p><strong>Spell List</strong> divine</p>\n<p><strong>Bloodline Skills</strong> Diplomacy, Religion</p>\n<p><strong>Granted Spells</strong> cantrip <em>@Compendium[pf2e.spells-srd.Light]{Light}</em>, 1st: <em>@Compendium[pf2e.spells-srd.Heal]{Heal}</em>, 2nd: <em>@Compendium[pf2e.spells-srd.Spiritual Weapon]{Spiritual Weapon}</em>, 3rd: <em>@Compendium[pf2e.spells-srd.Searing Light]{Searing Light}</em>, 4th: <em>@Compendium[pf2e.spells-srd.Divine Wrath]{Divine Wrath}</em>, 5th: <em>@Compendium[pf2e.spells-srd.Flame Strike]{Flame Strike}</em>, 6th:<em>@Compendium[pf2e.spells-srd.Blade Barrier]{Blade Barrier}</em>, 7th: <em>@Compendium[pf2e.spells-srd.Divine Decree]{Divine Decree}</em>, 8th: <em>@Compendium[pf2e.spells-srd.Divine Aura]{Divine Aura}</em>, 9th: <em>@Compendium[pf2e.spells-srd.Foresight]{Foresight}</em></p>\n<p><strong>Bloodline Spells</strong> initial: <em>@Compendium[pf2e.spells-srd.Angelic Halo]{Angelic Halo}</em>, advanced: <em>@Compendium[pf2e.spells-srd.Angelic Wings]{Angelic Wings}</em>, greater: <em>@Compendium[pf2e.spells-srd.Celestial Brand]{Celestial Brand}</em></p>\n<p><strong>Blood Magic</strong> An angelic aura protects you or one target, granting a +1 status bonus to saving throws for 1 round.</p>\n<p>@Compendium[pf2e.feature-effects.Effect: Angelic Blood Magic]{Effect: Angelic Blood Magic}</p>"
        },
        "featType": {
            "value": "classfeature"
        },
        "level": {
            "value": 1
        },
        "location": "",
        "prerequisites": {
            "value": []
        },
        "rules": [
            {
                "key": "ActiveEffectLike",
                "mode": "upgrade",
                "path": "data.resources.focus.max",
                "priority": 10,
                "value": 1
            },
            {
                "key": "ActiveEffectLike",
                "mode": "upgrade",
                "path": "data.skills.dip.rank",
                "value": 1
            },
            {
                "key": "ActiveEffectLike",
                "mode": "upgrade",
                "path": "data.skills.rel.rank",
                "value": 1
            },
            {
                "key": "ActiveEffectLike",
                "mode": "override",
                "path": "data.proficiencies.aliases.sorcerer",
                "priority": 39,
                "value": "divine"
            }
        ],
        "source": {
            "value": ""
        },
        "traits": {
            "custom": "",
            "rarity": "common",
            "value": [
                "sorcerer"
            ]
        }
    },
    "effects": [],
    "flags": {},
    "img": "systems/pf2e/icons/features/classes/angelic.webp",
    "name": "Bloodline: Angelic",
    "type": "feat"
}
