{
    "_id": "V4Jt7eDnJBLv5bDj",
    "data": {
        "actionCategory": {
            "value": ""
        },
        "actionType": {
            "value": "passive"
        },
        "actions": {
            "value": null
        },
        "description": {
            "value": "<p>You learn a special discovery depending on your field.</p>\n<p>When using @Compendium[pf2e.classfeatures.Advanced Alchemy]{Advanced Alchemy} to make mutagens during your daily preparations, you can use a batch of @Compendium[pf2e.classfeatures.Infused Reagents]{reagents} to create any three mutagens instead of just two of the same mutagen.</p>"
        },
        "featType": {
            "value": "classfeature"
        },
        "level": {
            "value": 5
        },
        "location": "",
        "prerequisites": {
            "value": []
        },
        "rules": [
            {
                "key": "ActiveEffectLike",
                "mode": "override",
                "path": "data.crafting.entries.alchemist.fieldDiscovery",
                "value": "mutagen"
            }
        ],
        "source": {
            "value": "Pathfinder Core Rulebook"
        },
        "traits": {
            "custom": "",
            "rarity": "common",
            "value": [
                "alchemist"
            ]
        }
    },
    "effects": [],
    "flags": {},
    "img": "systems/pf2e/icons/features/classes/perpetual-infusions-mutagenist.webp",
    "name": "Field Discovery (Mutagenist)",
    "type": "feat"
}
