{
    "_id": "LDqVxLKrwEqSegiu",
    "data": {
        "actionCategory": {
            "value": ""
        },
        "actionType": {
            "value": "passive"
        },
        "actions": {
            "value": null
        },
        "description": {
            "value": "<p>All gunslingers have a particular way they follow, a combination of philosophy and combat style that defines both how they fight and the weapons they excel with. At 1st level, your way grants you an initial deed, a unique reload action called a slinger's reload, and proficiency with a particular skill. You also gain advanced and greater deeds at later levels, as well as access to way-specific feats.</p>\n<p><strong>@Compendium[pf2e.classfeatures.Way of the Drifter]{Way of the Drifter}</strong> You wander across the battlefield, equally at home in and out of the fray.</p>\n<p><strong>@Compendium[pf2e.classfeatures.Way of the Pistolero]{Way of the Pistolero}</strong> You carefully maintain your distance at a duelist's 10 paces with pistol in hand.</p>\n<p><strong>@Compendium[pf2e.classfeatures.Way of the Sniper]{Way of the Sniper}</strong> You practice a methodical style of shooting, striking from far cover.</p>\n<p><strong>@Compendium[pf2e.classfeatures.Way of the Vanguard]{Way of the Vanguard}</strong> You rely on a brutal combat style that uses heavy weapons and explosive attacks.</p>"
        },
        "featType": {
            "value": "classfeature"
        },
        "level": {
            "value": 1
        },
        "location": "",
        "prerequisites": {
            "value": []
        },
        "rules": [
            {
                "adjustName": false,
                "allowedDrops": {
                    "all": [
                        "item:level:1",
                        "item:trait:gunslinger",
                        "item:type:feature"
                    ],
                    "label": "level 1 gunslinger class feature"
                },
                "choices": [
                    {
                        "value": "Compendium.pf2e.classfeatures.Way of the Drifter"
                    },
                    {
                        "value": "Compendium.pf2e.classfeatures.Way of the Pistolero"
                    },
                    {
                        "value": "Compendium.pf2e.classfeatures.Way of the Sniper"
                    },
                    {
                        "value": "Compendium.pf2e.classfeatures.Way of the Spellshot"
                    },
                    {
                        "value": "Compendium.pf2e.classfeatures.Way of the Vanguard"
                    }
                ],
                "flag": "wayChoice",
                "key": "ChoiceSet",
                "prompt": "Select a Way."
            },
            {
                "key": "GrantItem",
                "uuid": "{item|flags.pf2e.rulesSelections.wayChoice}"
            }
        ],
        "source": {
            "value": ""
        },
        "traits": {
            "custom": "",
            "rarity": "common",
            "value": [
                "gunslinger"
            ]
        }
    },
    "effects": [],
    "flags": {},
    "img": "systems/pf2e/icons/features/classes/choice-feature.webp",
    "name": "Gunslinger's Way",
    "type": "feat"
}
