{
    "_id": "H0iWhiyP0QqgmAKs",
    "data": {
        "actionCategory": {
            "value": ""
        },
        "actionType": {
            "value": "passive"
        },
        "actions": {
            "value": null
        },
        "description": {
            "value": "<p>You can manifest your eidolon with incredible speed. You can use @Compendium[pf2e.actionspf2e.Manifest Eidolon]{Manifest Eidolon} as a single action, instead of a three-action activity.</p>"
        },
        "featType": {
            "value": "classfeature"
        },
        "level": {
            "value": 19
        },
        "location": "",
        "prerequisites": {
            "value": []
        },
        "rules": [],
        "source": {
            "value": ""
        },
        "traits": {
            "custom": "",
            "rarity": "common",
            "value": [
                "summoner"
            ]
        }
    },
    "effects": [],
    "flags": {},
    "img": "systems/pf2e/icons/features/classes/instant-manifestation.webp",
    "name": "Instant Manifestation",
    "type": "feat"
}
