{
    "_id": "rrzItB68Er0DzKx7",
    "data": {
        "actionCategory": {
            "value": ""
        },
        "actionType": {
            "value": "passive"
        },
        "actions": {
            "value": null
        },
        "description": {
            "value": "<p>You've learned to better balance the conflicting powers wreaking havoc on your body. Immediately after completing the casting of a revelation spell while you are affected by your moderate curse, your curse progresses to its major effect, rather than overwhelming you. This effect lasts until you @Compendium[pf2e.actionspf2e.Refocus]{Refocus}, which reduces your curse to its minor effect. If you cast a revelation spell while under the effects of your major curse, you are overwhelmed by your curse.</p>\n<p>In addition, increase the number of Focus Points in your focus pool from 2 to 3. If you spend at least 2 Focus Points before you again Refocus, you recover 2 Focus Points when you Refocus instead of 1.</p>"
        },
        "featType": {
            "value": "classfeature"
        },
        "level": {
            "value": 11
        },
        "location": "",
        "prerequisites": {
            "value": []
        },
        "rules": [
            {
                "key": "ActiveEffectLike",
                "mode": "upgrade",
                "path": "data.resources.focus.max",
                "value": 3
            }
        ],
        "source": {
            "value": ""
        },
        "traits": {
            "custom": "",
            "rarity": "common",
            "value": [
                "oracle"
            ]
        }
    },
    "effects": [],
    "flags": {},
    "img": "systems/pf2e/icons/features/classes/major-curse.webp",
    "name": "Major Curse",
    "type": "feat"
}
