{
    "_id": "otOOVXZU1CdTcLxS",
    "data": {
        "attributes": {
            "ac": {
                "value": 0
            },
            "hardness": 0,
            "hasHealth": false,
            "hp": {
                "details": "",
                "max": 0,
                "temp": 0,
                "value": 0
            },
            "stealth": {
                "details": "<p>(trained); DC 0 to spot the balanced boulders</p>",
                "value": 15
            }
        },
        "creatureType": "",
        "details": {
            "description": "<p>A weight-sensitive plate buried underneath sand pulls a boulder over a cliff ledge, causing it to fall on targets within the entrance.</p>",
            "disable": "<p>@Check[type:crafting|dc:27|name:Disable the Plate|traits:mechanical,trap] (expert) or @Check[type:thievery|dc:25|name:Disable the Plate|traits:mechanical,trap] (expert) to find and disconnect the plate from the tipping mechanism</p>",
            "isComplex": false,
            "level": {
                "value": 7
            },
            "reset": "<p>Resetting the boulders in the trap is a labor-intensive project that takes 2 hours.</p>",
            "routine": ""
        },
        "saves": {
            "fortitude": {
                "saveDetail": "",
                "value": 0
            },
            "reflex": {
                "saveDetail": "",
                "value": 0
            },
            "will": {
                "saveDetail": "",
                "value": 0
            }
        },
        "source": {
            "value": "Pathfinder #170: Spoken on the Song Wind"
        },
        "statusEffects": [],
        "traits": {
            "ci": [],
            "di": {
                "custom": "",
                "selected": {},
                "value": []
            },
            "dr": [],
            "dv": [],
            "rarity": "uncommon",
            "size": {
                "value": "med"
            },
            "traits": {
                "custom": "",
                "value": [
                    "mechanical",
                    "trap"
                ]
            }
        }
    },
    "effects": [],
    "flags": {},
    "img": "systems/pf2e/icons/default-icons/hazard.svg",
    "items": [
        {
            "_id": "p8pif89lvmilue1j",
            "data": {
                "actionCategory": {
                    "value": "offensive"
                },
                "actionType": {
                    "value": "reaction"
                },
                "actions": {
                    "value": null
                },
                "description": {
                    "value": "<p data-visibility=\"gm\"><strong>Trigger</strong> A creature enters the area without taking care to avoid the hidden trigger plate</p>\n<p><strong>Effect</strong> Creatures within 10 feet of the cave entrance take [[/r {4d10+18}[bludgeoning]]]{4d10+18 bludgeoning damage} (@Check[type:reflex|dc:25|basic:true|name:Dodge Falling Rocks|traits:mechanical,trap] save).</p>"
                },
                "requirements": {
                    "value": ""
                },
                "rules": [],
                "slug": null,
                "source": {
                    "value": ""
                },
                "traits": {
                    "custom": "",
                    "rarity": "common",
                    "value": []
                },
                "trigger": {
                    "value": ""
                },
                "weapon": {
                    "value": ""
                }
            },
            "effects": [],
            "flags": {},
            "img": "systems/pf2e/icons/actions/Reaction.webp",
            "name": "Deadfall",
            "sort": 0,
            "type": "action"
        }
    ],
    "name": "Boulder Deadfall Trap",
    "token": {
        "disposition": 0,
        "height": 1,
        "img": "systems/pf2e/icons/default-icons/hazard.svg",
        "name": "Boulder Deadfall Trap",
        "width": 1
    },
    "type": "hazard"
}
