{
    "_id": "PHpFRuT0JuxL8xbj",
    "data": {
        "attributes": {
            "ac": {
                "value": 22
            },
            "hardness": 12,
            "hasHealth": true,
            "hp": {
                "details": "",
                "max": 20,
                "temp": 0,
                "value": 20
            },
            "stealth": {
                "details": "<p>(trained)</p>",
                "value": 11
            }
        },
        "creatureType": "",
        "details": {
            "description": "<p>Three giant centipede carcasses have wire springs that pull out and fling their sharpened legs around the room.</p>",
            "disable": "<p>@Check[type:nature|dc:23|name:Bend Carapace|traits:mechanical,trap] (trained) to bend the centipede carapace so the wire can't pull out any more legs, or @Check[type:thievery|dc:21|name:Cut Wires|traits:mechanical,trap] (expert) to cut the springy wires.<span data-visibility=\"gm\"> After all three carcasses are disabled (regardless of the check used), the trap is deactivated. The trap automatically deactivates after 10 rounds.</span></p>",
            "isComplex": true,
            "level": {
                "value": 5
            },
            "reset": "",
            "routine": "<p><span class=\"pf2-icon\">1</span> Each creature within 30 feet of a centipede carcass that hasn't been disabled takes [[/r {6d4}[piercing]]]{6d4 piercing damage} (@Check[type:reflex|dc:22|basic:true|name:Avoid Carapace Strike|traits:mechanical,trap] save).</p>"
        },
        "saves": {
            "fortitude": {
                "saveDetail": "",
                "value": 15
            },
            "reflex": {
                "saveDetail": "",
                "value": 9
            },
            "will": {
                "saveDetail": "",
                "value": 0
            }
        },
        "source": {
            "value": "Pathfinder #169: Kindled Magic"
        },
        "statusEffects": [],
        "traits": {
            "ci": [],
            "di": {
                "custom": "",
                "selected": {},
                "value": [
                    "critical-hits",
                    "object-immunities",
                    "precision"
                ]
            },
            "dr": [],
            "dv": [],
            "rarity": "common",
            "size": {
                "value": "med"
            },
            "traits": {
                "custom": "",
                "value": [
                    "mechanical",
                    "trap"
                ]
            }
        }
    },
    "effects": [],
    "flags": {},
    "img": "systems/pf2e/icons/default-icons/hazard.svg",
    "items": [
        {
            "_id": "TGlYdzFkP9vjcuVJ",
            "data": {
                "actionCategory": {
                    "value": "offensive"
                },
                "actionType": {
                    "value": "reaction"
                },
                "actions": {
                    "value": null
                },
                "description": {
                    "value": "<p data-visibility=\"gm\"><strong>Trigger</strong> A carcass is touched or jostled</p>\n<p><strong>Effect</strong> Each creature within 30 feet of any centipede carcass takes [[/r {4d4}[piercing]]]{4d4 piercing damage} (@Check[type:reflex|dc:22|basic:true|name:Avoid Carapace Strike|traits:mechanical,trap] save), and the area becomes difficult terrain due to the many sharpened legs on the ground. Each creature that Strides more than 10 feet through the area must succeed at a @Check[type:acrobatics|dc:20|name:Avoid Piercing Terrain|traits:mechanical,trap] check or take [[/r {1d4}[piercing]]]{1d4 piercing damage}.</p>\n<p data-visibility=\"gm\">The trap then rolls initiative.</p>"
                },
                "requirements": {
                    "value": ""
                },
                "rules": [],
                "slug": null,
                "source": {
                    "value": ""
                },
                "traits": {
                    "custom": "",
                    "rarity": "common",
                    "value": []
                },
                "trigger": {
                    "value": ""
                },
                "weapon": {
                    "value": ""
                }
            },
            "effects": [],
            "flags": {},
            "img": "systems/pf2e/icons/actions/Reaction.webp",
            "name": "Volley of Legs",
            "sort": 0,
            "type": "action"
        }
    ],
    "name": "Centipede Carcasses Trap",
    "token": {
        "disposition": 0,
        "height": 1,
        "img": "systems/pf2e/icons/default-icons/hazard.svg",
        "name": "Centipede Carcasses Trap",
        "width": 1
    },
    "type": "hazard"
}
