{
    "_id": "Z9rOUqCqAaMjvgBc",
    "data": {
        "abilities": {
            "cha": {
                "mod": 2
            },
            "con": {
                "mod": 6
            },
            "dex": {
                "mod": 2
            },
            "int": {
                "mod": -2
            },
            "str": {
                "mod": 6
            },
            "wis": {
                "mod": 4
            }
        },
        "attributes": {
            "ac": {
                "details": "",
                "value": 23
            },
            "allSaves": {
                "value": ""
            },
            "hp": {
                "details": "",
                "max": 135,
                "temp": 0,
                "value": 135
            },
            "initiative": {
                "ability": "perception"
            },
            "perception": {
                "value": 16
            },
            "speed": {
                "otherSpeeds": [
                    {
                        "type": "climb",
                        "value": "20"
                    }
                ],
                "value": "25"
            }
        },
        "details": {
            "alignment": {
                "value": "N"
            },
            "blurb": "",
            "creatureType": "Plant",
            "level": {
                "value": 7
            },
            "privateNotes": "",
            "publicNotes": "<p>Drainberry bushes are floating bushes that originate from the First World, with long, thorny vines and dense clusters of bright-red berries. Their hollow thorns quickly siphon blood, which is how these carnivorous plants feed, and they rapidly turn consumed blood into fresh batches of delicious berries. Drainberry bushes exude a faint white glow that is a result of stored positive energy.</p>\n<p>Drainberry bushes exhibit unusually high intelligence and have an astute sense of value. They typically become insulted when creatures attempt to harvest their berries. Creatures that attempt to converse with drainberry bushes finds the plants telepathically convey only short and simple phrases: most commonly, \"Money please,\" \"Deal good,\" \"Deal no good,\" \"Want that,\" (with a gesture toward an item it covets), \"Thank you, customer,\" and if necessary, \"No refunds.\" Though a drainberry bush considers the market value of its berries to be 25 gp, it greatly prefers interesting art objects as payment-even ones of significantly lower value.</p>",
            "source": {
                "value": "Pathfinder Bestiary 2"
            }
        },
        "resources": {},
        "saves": {
            "fortitude": {
                "saveDetail": "",
                "value": 17
            },
            "reflex": {
                "saveDetail": "",
                "value": 13
            },
            "will": {
                "saveDetail": "",
                "value": 13
            }
        },
        "traits": {
            "attitude": {
                "value": "hostile"
            },
            "ci": [],
            "di": {
                "custom": "",
                "value": []
            },
            "dr": [
                {
                    "label": "Negative",
                    "type": "negative",
                    "value": "10"
                }
            ],
            "dv": [
                {
                    "label": "Fire",
                    "type": "fire",
                    "value": "5"
                }
            ],
            "languages": {
                "custom": "Telepathy 100 feet",
                "selected": [],
                "value": [
                    "aklo",
                    "common"
                ]
            },
            "rarity": "uncommon",
            "senses": {
                "value": "lifesense 120 feet"
            },
            "size": {
                "value": "lg"
            },
            "traits": {
                "custom": "",
                "value": [
                    "plant"
                ]
            }
        }
    },
    "effects": [],
    "flags": {},
    "img": "systems/pf2e/icons/default-icons/npc.svg",
    "items": [
        {
            "_id": "AySAWmXmOwHrjkuG",
            "data": {
                "attack": {
                    "value": ""
                },
                "attackEffects": {
                    "value": [
                        "improved-grab"
                    ]
                },
                "bonus": {
                    "value": 17
                },
                "damageRolls": {
                    "2a15yojztylfwchrlrvn": {
                        "damage": "2d8+10",
                        "damageType": "bludgeoning"
                    }
                },
                "description": {
                    "value": ""
                },
                "rules": [],
                "slug": null,
                "source": {
                    "value": ""
                },
                "traits": {
                    "custom": "",
                    "rarity": "common",
                    "value": [
                        "reach-20"
                    ]
                },
                "weaponType": {
                    "value": "melee"
                }
            },
            "effects": [],
            "flags": {},
            "img": "systems/pf2e/icons/default-icons/melee.svg",
            "name": "Vine",
            "sort": 100000,
            "type": "melee"
        },
        {
            "_id": "PMVviZt2FjDHt7QV",
            "data": {
                "actionCategory": {
                    "value": "interaction"
                },
                "actionType": {
                    "value": "passive"
                },
                "actions": {
                    "value": null
                },
                "description": {
                    "value": "<p>@Localize[PF2E.NPC.Abilities.Glossary.Telepathy]</p>"
                },
                "requirements": {
                    "value": ""
                },
                "rules": [],
                "slug": "telepathy",
                "source": {
                    "value": ""
                },
                "traits": {
                    "custom": "",
                    "rarity": "common",
                    "value": [
                        "aura",
                        "divination",
                        "magical"
                    ]
                },
                "trigger": {
                    "value": ""
                },
                "weapon": {
                    "value": ""
                }
            },
            "effects": [],
            "flags": {
                "core": {
                    "sourceId": "Compendium.pf2e.bestiary-ability-glossary-srd.kdhbPaBMK1d1fpbA"
                }
            },
            "img": "systems/pf2e/icons/actions/Passive.webp",
            "name": "Telepathy",
            "sort": 200000,
            "type": "action"
        },
        {
            "_id": "CmBRVSLQzMzJ4WUR",
            "data": {
                "actionCategory": {
                    "value": "interaction"
                },
                "actionType": {
                    "value": "passive"
                },
                "actions": {
                    "value": null
                },
                "description": {
                    "value": "<p>@Localize[PF2E.NPC.Abilities.Glossary.Lifesense]</p>"
                },
                "requirements": {
                    "value": ""
                },
                "rules": [],
                "slug": "lifesense",
                "source": {
                    "value": ""
                },
                "traits": {
                    "custom": "",
                    "rarity": "common",
                    "value": []
                },
                "trigger": {
                    "value": ""
                },
                "weapon": {
                    "value": ""
                }
            },
            "effects": [],
            "flags": {
                "core": {
                    "sourceId": "Compendium.pf2e.bestiary-ability-glossary-srd.sebk9XseMCRkDqRg"
                }
            },
            "img": "systems/pf2e/icons/actions/Passive.webp",
            "name": "Lifesense",
            "sort": 300000,
            "type": "action"
        },
        {
            "_id": "QY55zAJAyvaoflJY",
            "data": {
                "actionCategory": {
                    "value": "interaction"
                },
                "actionType": {
                    "value": "passive"
                },
                "actions": {
                    "value": null
                },
                "description": {
                    "value": "<p>The drainberry bush can use Diplomacy to @Compendium[pf2e.actionspf2e.Make an Impression]{Make an Impression} on and make very simple @Compendium[pf2e.actionspf2e.Request]{Requests} of animals and plant creatures.</p>"
                },
                "requirements": {
                    "value": ""
                },
                "rules": [],
                "slug": null,
                "source": {
                    "value": ""
                },
                "traits": {
                    "custom": "",
                    "rarity": "common",
                    "value": []
                },
                "trigger": {
                    "value": ""
                },
                "weapon": {
                    "value": ""
                }
            },
            "effects": [],
            "flags": {},
            "img": "systems/pf2e/icons/actions/Passive.webp",
            "name": "Nature Empathy",
            "sort": 400000,
            "type": "action"
        },
        {
            "_id": "LmNbsiKPocWzw1cu",
            "data": {
                "actionCategory": {
                    "value": "offensive"
                },
                "actionType": {
                    "value": "passive"
                },
                "actions": {
                    "value": null
                },
                "description": {
                    "value": "<p>The drainberry bush must drain blood from living creatures for sustenance. This causes clusters of bright red berries to grow among its branches.</p>\n<p>Each cluster of berries lasts for 1 day, and a drainberry bush typically has [[/r 1d6+3 #clusters]]{1d6+3 clusters} when encountered. When consumed, a cluster restores [[/r {2d8+10}[healing]]]{2d8+10 Hit Points}. This effect has the healing, necromancy, and primal traits.</p>\n<p>A creature can pluck a cluster of berries with a successful unarmed Strike or Thievery check against the bush's AC.</p>"
                },
                "requirements": {
                    "value": ""
                },
                "rules": [],
                "slug": null,
                "source": {
                    "value": ""
                },
                "traits": {
                    "custom": "",
                    "rarity": "common",
                    "value": [
                        "healing",
                        "necromancy",
                        "primal"
                    ]
                },
                "trigger": {
                    "value": ""
                },
                "weapon": {
                    "value": ""
                }
            },
            "effects": [],
            "flags": {},
            "img": "systems/pf2e/icons/actions/Passive.webp",
            "name": "Blood Berries",
            "sort": 500000,
            "type": "action"
        },
        {
            "_id": "uh97rOTxqm9aQTwC",
            "data": {
                "actionCategory": {
                    "value": "offensive"
                },
                "actionType": {
                    "value": "action"
                },
                "actions": {
                    "value": 1
                },
                "description": {
                    "value": "<p>The bush draws nourishment from one cluster of blood berries, regaining [[/r {2d8+10}[healing]]]{2d8+10 Hit Points}. That berry cluster wrinkles and dies.</p>"
                },
                "requirements": {
                    "value": ""
                },
                "rules": [],
                "slug": null,
                "source": {
                    "value": ""
                },
                "traits": {
                    "custom": "",
                    "rarity": "common",
                    "value": [
                        "healing",
                        "necromancy",
                        "positive",
                        "primal"
                    ]
                },
                "trigger": {
                    "value": ""
                },
                "weapon": {
                    "value": ""
                }
            },
            "effects": [],
            "flags": {},
            "img": "systems/pf2e/icons/actions/OneAction.webp",
            "name": "Consume Berries",
            "sort": 600000,
            "type": "action"
        },
        {
            "_id": "8r06lqp1MccJLeUV",
            "data": {
                "actionCategory": {
                    "value": "offensive"
                },
                "actionType": {
                    "value": "action"
                },
                "actions": {
                    "value": 1
                },
                "description": {
                    "value": "<p><strong>Requirements</strong> The drainberry bush has at least one living creature @Compendium[pf2e.conditionitems.Grabbed]{Grabbed} with one of its vines</p>\n<p><strong>Effect</strong> The bush's hollow thorns siphon blood from creatures it has grabbed. Each creature must succeed at a @Check[type:fortitude|dc:25|traits:damaging-effect] save or take [[/r 2d8+10]] damage and become @Compendium[pf2e.conditionitems.Drained]{Drained 1} (double damage and @Compendium[pf2e.conditionitems.Drained]{Drained 2} on a critical failure). For every creature damaged this way, a cluster of blood berries immediately grows along the bush's branches.</p>"
                },
                "requirements": {
                    "value": ""
                },
                "rules": [],
                "slug": null,
                "source": {
                    "value": ""
                },
                "traits": {
                    "custom": "",
                    "rarity": "common",
                    "value": []
                },
                "trigger": {
                    "value": ""
                },
                "weapon": {
                    "value": ""
                }
            },
            "effects": [],
            "flags": {},
            "img": "systems/pf2e/icons/actions/OneAction.webp",
            "name": "Drain Blood",
            "sort": 700000,
            "type": "action"
        },
        {
            "_id": "9UqGqGPYi6N8yk6X",
            "data": {
                "actionCategory": {
                    "value": "offensive"
                },
                "actionType": {
                    "value": "action"
                },
                "actions": {
                    "value": 2
                },
                "description": {
                    "value": "<p>The drainberry bush makes up to four vine Strikes, each against a different target. These attacks count toward the bush's multiple attack penalty, but the multiple attack penalty doesn't increase until after the bush makes all these attacks.</p>"
                },
                "requirements": {
                    "value": ""
                },
                "rules": [],
                "slug": null,
                "source": {
                    "value": ""
                },
                "traits": {
                    "custom": "",
                    "rarity": "common",
                    "value": []
                },
                "trigger": {
                    "value": ""
                },
                "weapon": {
                    "value": ""
                }
            },
            "effects": [],
            "flags": {},
            "img": "systems/pf2e/icons/actions/TwoActions.webp",
            "name": "Storm of Vines",
            "sort": 800000,
            "type": "action"
        },
        {
            "_id": "qARQ5Sntem4thRiy",
            "data": {
                "actionCategory": {
                    "value": "offensive"
                },
                "actionType": {
                    "value": "free"
                },
                "actions": {
                    "value": null
                },
                "description": {
                    "value": "<p>@Localize[PF2E.NPC.Abilities.Glossary.ImprovedGrab]</p>"
                },
                "requirements": {
                    "value": ""
                },
                "rules": [],
                "slug": "improved-grab",
                "source": {
                    "value": ""
                },
                "traits": {
                    "custom": "",
                    "rarity": "common",
                    "value": []
                },
                "trigger": {
                    "value": ""
                },
                "weapon": {
                    "value": ""
                }
            },
            "effects": [],
            "flags": {
                "core": {
                    "sourceId": "Compendium.pf2e.bestiary-ability-glossary-srd.i18TlebMzwONyPhI"
                }
            },
            "img": "systems/pf2e/icons/actions/FreeAction.webp",
            "name": "Improved Grab",
            "sort": 900000,
            "type": "action"
        },
        {
            "_id": "hMAODjNBTeNVzemW",
            "data": {
                "description": {
                    "value": ""
                },
                "mod": {
                    "value": 11
                },
                "proficient": {
                    "value": 0
                },
                "rules": [],
                "slug": null,
                "source": {
                    "value": ""
                },
                "traits": {
                    "custom": "",
                    "rarity": "common",
                    "value": []
                }
            },
            "effects": [],
            "flags": {},
            "img": "systems/pf2e/icons/default-icons/lore.svg",
            "name": "Acrobatics",
            "sort": 1000000,
            "type": "lore"
        },
        {
            "_id": "QgyrSEPWGReUQW6K",
            "data": {
                "description": {
                    "value": ""
                },
                "mod": {
                    "value": 17
                },
                "proficient": {
                    "value": 0
                },
                "rules": [],
                "slug": null,
                "source": {
                    "value": ""
                },
                "traits": {
                    "custom": "",
                    "rarity": "common",
                    "value": []
                }
            },
            "effects": [],
            "flags": {},
            "img": "systems/pf2e/icons/default-icons/lore.svg",
            "name": "Athletics",
            "sort": 1100000,
            "type": "lore"
        },
        {
            "_id": "6GIrVoxvZYMg80pl",
            "data": {
                "description": {
                    "value": ""
                },
                "mod": {
                    "value": 13
                },
                "proficient": {
                    "value": 0
                },
                "rules": [],
                "slug": null,
                "source": {
                    "value": ""
                },
                "traits": {
                    "custom": "",
                    "rarity": "common",
                    "value": []
                }
            },
            "effects": [],
            "flags": {},
            "img": "systems/pf2e/icons/default-icons/lore.svg",
            "name": "Diplomacy",
            "sort": 1200000,
            "type": "lore"
        },
        {
            "_id": "rENE9pS1elfosnly",
            "data": {
                "description": {
                    "value": ""
                },
                "mod": {
                    "value": 17
                },
                "proficient": {
                    "value": 0
                },
                "rules": [],
                "slug": null,
                "source": {
                    "value": ""
                },
                "traits": {
                    "custom": "",
                    "rarity": "common",
                    "value": []
                }
            },
            "effects": [],
            "flags": {},
            "img": "systems/pf2e/icons/default-icons/lore.svg",
            "name": "Nature",
            "sort": 1300000,
            "type": "lore"
        },
        {
            "_id": "wmiM8DltOKYLxzz0",
            "data": {
                "description": {
                    "value": ""
                },
                "mod": {
                    "value": 11
                },
                "proficient": {
                    "value": 0
                },
                "rules": [
                    {
                        "key": "FlatModifier",
                        "label": "To Appear as a Bush",
                        "predicate": {
                            "all": [
                                "bush"
                            ]
                        },
                        "selector": "stealth",
                        "value": 4
                    }
                ],
                "slug": null,
                "source": {
                    "value": ""
                },
                "traits": {
                    "custom": "",
                    "rarity": "common",
                    "value": []
                },
                "variants": {
                    "0": {
                        "label": "+15 to appear as a bush",
                        "options": "bush"
                    }
                }
            },
            "effects": [],
            "flags": {},
            "img": "systems/pf2e/icons/default-icons/lore.svg",
            "name": "Stealth",
            "sort": 1400000,
            "type": "lore"
        }
    ],
    "name": "Drainberry Bush",
    "token": {
        "disposition": -1,
        "height": 2,
        "img": "systems/pf2e/icons/default-icons/npc.svg",
        "name": "Drainberry Bush",
        "width": 2
    },
    "type": "npc"
}
