{
    "_id": "d0fXbhu8qH1TQwXE",
    "data": {
        "description": {
            "value": "<p>Smoke and flickering visions of flame fill your senses more completely, and harmless flickers of obscuring flames also fill your space.</p>\n<p>You are @Compendium[pf2e.conditionitems.Concealed]{Concealed} from other creatures, though as the other creatures aren't cursed themselves, they can benefit from effects that would allow them to ignore or mitigate the concealed condition, as normal. All other creatures and objects are concealed from you regardless of distance; however, when casting a fire spell, you automatically succeed at the flat check for this concealed condition for targets within 30 feet.</p>\n<p>All your senses become imprecise beyond 30 feet, meaning everything past 30 feet that you'd normally be able to see is @Compendium[pf2e.conditionitems.Hidden]{Hidden} from you.</p>\n<hr />\n<p><em>Note: You need to apply the effects of this curse manually.</em></p>"
        },
        "duration": {
            "expiry": "turn-start",
            "sustained": false,
            "unit": "unlimited",
            "value": -1
        },
        "level": {
            "value": 1
        },
        "rules": [],
        "source": {
            "value": ""
        },
        "start": {
            "initiative": null,
            "value": 0
        },
        "target": null,
        "tokenIcon": {
            "show": true
        },
        "traits": {
            "custom": "",
            "rarity": "common",
            "value": []
        }
    },
    "effects": [],
    "flags": {},
    "img": "systems/pf2e/icons/features/classes/flames-mystery.webp",
    "name": "Effect: Moderate Flames Curse",
    "type": "effect"
}
