{
    "_id": "yR4XFhh3irGBgPmJ",
    "data": {
        "description": {
            "value": "<p>As your life force seeps outward, it becomes more difficult to keep your body functioning.</p>\n<p>Effects that restore Hit Points to you take a status penalty equal to half your level (minimum 1) to the number of HP you recover.</p>\n<hr />\n<p><em>Note: You need to apply the effects of this curse manually.</em></p>"
        },
        "duration": {
            "expiry": "turn-start",
            "sustained": false,
            "unit": "unlimited",
            "value": -1
        },
        "level": {
            "value": 1
        },
        "rules": [],
        "source": {
            "value": ""
        },
        "start": {
            "initiative": null,
            "value": 0
        },
        "target": null,
        "tokenIcon": {
            "show": true
        },
        "traits": {
            "custom": "",
            "rarity": "common",
            "value": []
        }
    },
    "effects": [],
    "flags": {},
    "img": "systems/pf2e/icons/features/classes/life-mystery.webp",
    "name": "Effect: Minor Life Curse",
    "type": "effect"
}
