{
    "_id": "9AUcoY48H5LrVZiF",
    "data": {
        "description": {
            "value": "<p>Your spellcasting warps reality and distracts your foes. You gain a +1 status bonus to Deception checks for 1 round.</p>"
        },
        "duration": {
            "expiry": "turn-start",
            "sustained": false,
            "unit": "rounds",
            "value": 1
        },
        "level": {
            "value": 1
        },
        "rules": [
            {
                "key": "FlatModifier",
                "selector": "deception",
                "type": "status",
                "value": 1
            }
        ],
        "source": {
            "value": ""
        },
        "start": {
            "initiative": null,
            "value": 0
        },
        "target": null,
        "tokenIcon": {
            "show": true
        },
        "traits": {
            "custom": "",
            "rarity": "common",
            "value": []
        }
    },
    "effects": [],
    "flags": {},
    "img": "systems/pf2e/icons/features/classes/genie.webp",
    "name": "Effect: Genie Blood Magic (Self)",
    "type": "effect"
}
