{
    "_id": "LEMfFL551YB120RN",
    "data": {
        "ability": {
            "value": ""
        },
        "area": {
            "areaType": "",
            "value": ""
        },
        "autoHeightenLevel": {
            "value": null
        },
        "category": {
            "value": "ritual"
        },
        "components": {
            "focus": false,
            "material": false,
            "somatic": false,
            "verbal": false
        },
        "cost": {
            "value": "powdered mithral and rare grave dirt worth 10,000 gp"
        },
        "damage": {
            "value": {}
        },
        "description": {
            "value": "<p>You anoint the <em>@Compendium[pf2e.equipment-srd.Final Blade]{Final Blade}</em> with powdered mithral and grave dirt while speaking softly and carefully to the souls trapped within it. You create a mystical pathway for the souls to escape through and urge them to draw out the magic of the final blade with them as they depart.</p>\n<hr />\n<p><strong>Critical Success</strong> As success, and the souls also grant a boon; the primary and secondary casters gain a +2 status bonus to saves against death and fear effects for the next year.</p>\n<p>@Compendium[pf2e.spell-effects.Spell Effect: Blunt the Final Blade (Critical Success)]{Spell Effect: Blunt the Final Blade (Critical Success)}</p>\n<p><strong>Success</strong> The souls escape the <em>final blade</em> and peacefully pass on to their eternal rewards, as appropriate for each soul. The final blade is no longer magical; it can't store anymore souls and can be destroyed as a normal guillotine.</p>\n<p><strong>Failure</strong> The ritual has no effect.</p>\n<p><strong>Critical Failure</strong> The ritual goes horribly wrong. The souls within the <em>final blade</em> are released in a furious rush as a gray death that does its best to slay the ritual's casters and run amok among the living. The <em>final blade</em> retains it abilities and can continue to store souls.</p>"
        },
        "duration": {
            "value": ""
        },
        "hasCounteractCheck": {
            "value": false
        },
        "level": {
            "value": 9
        },
        "location": {
            "value": ""
        },
        "materials": {
            "value": ""
        },
        "primarycheck": {
            "value": "Occultism or Religion (legendary)"
        },
        "range": {
            "value": "touch"
        },
        "rules": [],
        "save": {
            "basic": "",
            "value": ""
        },
        "school": {
            "value": "necromancy"
        },
        "secondarycasters": {
            "value": "3"
        },
        "secondarycheck": {
            "value": "Arcana, Crafting, Society, and the other skill not used for the primary check"
        },
        "source": {
            "value": "Pathfinder Adventure: Night of the Gray Death"
        },
        "spellType": {
            "value": "utility"
        },
        "sustained": {
            "value": false
        },
        "target": {
            "value": "1 final blade"
        },
        "time": {
            "value": "1 day"
        },
        "traditions": {
            "value": []
        },
        "traits": {
            "custom": "",
            "rarity": "rare",
            "value": [
                "death"
            ]
        }
    },
    "effects": [],
    "flags": {},
    "img": "systems/pf2e/icons/default-icons/spell.svg",
    "name": "Blunt the Final Blade",
    "type": "spell"
}
