{
    "_id": "NBSBFHxBm88qxQUy",
    "data": {
        "ability": {
            "value": ""
        },
        "area": {
            "areaType": "",
            "value": ""
        },
        "autoHeightenLevel": {
            "value": null
        },
        "category": {
            "value": "spell"
        },
        "components": {
            "focus": false,
            "material": false,
            "somatic": true,
            "verbal": true
        },
        "cost": {
            "value": ""
        },
        "damage": {
            "value": {}
        },
        "description": {
            "value": "<p>You wrap the target in armor made of sheets of colored light. The armor sheds bright light for 20 feet (and dim light for the next 20 feet). Whenever a creature attacks the target and is adjacent to it, the attacker must attempt a Will save at the end of its action. On a failure, it becomes @Compendium[pf2e.conditionitems.Dazzled]{Dazzled} until the end of its next turn. Regardless of the result of the save, the attacker is temporarily immune until the end of its next turn. The dazzling effect has the light and visual traits.</p>\n<p>When you cast the spell, roll [[/r 2d8]]{1d8 twice} on the table below to see the armor's colors (rerolling any duplicates). Each color grants resistance 5 to the indicated damage type. If you spend three actions to Cast the Spell, roll [[/r 3d8]]{three} times instead.</p>\n<ol>\n<li><strong>Red</strong> fire</li>\n<li><strong>Orange</strong> acid</li>\n<li><strong>Yellow</strong> electricity</li>\n<li><strong>Green</strong> poison</li>\n<li><strong>Blue</strong> sonic</li>\n<li><strong>Indigo</strong> mental</li>\n<li><strong>Violet</strong> force</li>\n<li><strong>Matching Color</strong> The armor becomes the color matching the type of damage the target took most recently in the past minute. If it didn't take any of those seven types of damage or the armor is already that color, roll again, rerolling any results of 8.</li>\n</ol>\n<hr />\n<p><strong>Heightened (+3)</strong> The resistance is increased by 5.</p>"
        },
        "duration": {
            "value": "1 minute"
        },
        "hasCounteractCheck": {
            "value": false
        },
        "level": {
            "value": 4
        },
        "location": {
            "value": ""
        },
        "materials": {
            "value": ""
        },
        "prepared": {
            "value": ""
        },
        "range": {
            "value": "touch"
        },
        "rules": [],
        "save": {
            "basic": "",
            "value": ""
        },
        "school": {
            "value": "abjuration"
        },
        "source": {
            "value": "Pathfinder Secrets of Magic"
        },
        "spellType": {
            "value": "utility"
        },
        "sustained": {
            "value": false
        },
        "target": {
            "value": "1 willing creature"
        },
        "time": {
            "value": "2 or 3"
        },
        "traditions": {
            "custom": "",
            "value": [
                "arcane",
                "occult"
            ]
        },
        "traits": {
            "custom": "",
            "rarity": "common",
            "value": [
                "light"
            ]
        }
    },
    "effects": [],
    "flags": {},
    "img": "systems/pf2e/icons/spells/chromatic-armor.webp",
    "name": "Chromatic Armor",
    "type": "spell"
}
