{
    "_id": "sFwoKj0TsacsmoWj",
    "data": {
        "ability": {
            "value": ""
        },
        "area": {
            "areaType": "burst",
            "value": "20"
        },
        "autoHeightenLevel": {
            "value": null
        },
        "category": {
            "value": "focus"
        },
        "components": {
            "focus": false,
            "material": true,
            "somatic": true,
            "verbal": true
        },
        "cost": {
            "value": ""
        },
        "damage": {
            "value": {
                "0": {
                    "applyMod": false,
                    "type": {
                        "categories": [],
                        "subtype": "",
                        "value": "bludgeoning"
                    },
                    "value": "2d6"
                },
                "1": {
                    "applyMod": false,
                    "type": {
                        "categories": [],
                        "subtype": "",
                        "value": "negative"
                    },
                    "value": "2d6"
                }
            }
        },
        "description": {
            "value": "<p>Shadows pour forth from your eyes, creating a field of darkness that prevents light from emanating within the area. Light doesn't enter the area; any non-magical light sources, such as a torches or lanterns, don't emanate any light while inside the area, even if their light radius would extend beyond the darkness. The spell similarly suppresses magical light of the spell's level or lower.</p>\n<p>Light can't pass through, so creatures in the area can't see outside. Even creatures with darkvision (but not greater darkvision) can barely see through the darkness; any creatures seen through the darkness are @Compendium[pf2e.conditionitems.Concealed]{Concealed} to them. Creatures with greater darkvision can see through the darkness normally.</p>\n<p>Creatures who move into the field or start their turn within the field have some of the life and light sucked out of them, taking 2d6 bludgeoning damage and 2d6 negative damage, with a basic Fortitude save.</p>\n<p>When you cast this spell, choose up to four allies in the area to spare from <em>darklight's</em> effects. Until the spell ends, they're immune to damage from <em>darklight</em> spells and can see through <em>darklight</em> (but not other darkness) as though they had greater darkvision.</p>\n<hr />\n<p><strong>Heightened (10th)</strong> The bludgeoning and negative damage both increase to 3d6.</p>"
        },
        "duration": {
            "value": "1 minute"
        },
        "hasCounteractCheck": {
            "value": false
        },
        "level": {
            "value": 7
        },
        "location": {
            "value": ""
        },
        "materials": {
            "value": ""
        },
        "range": {
            "value": "120 feet"
        },
        "rules": [],
        "save": {
            "basic": "basic",
            "value": "fortitude"
        },
        "scaling": {
            "damage": {
                "0": "1d6",
                "1": "1d6"
            },
            "interval": 3
        },
        "school": {
            "value": "evocation"
        },
        "source": {
            "value": "Pathfinder Secrets of Magic"
        },
        "spellType": {
            "value": "utility"
        },
        "sustained": {
            "value": false
        },
        "target": {
            "value": ""
        },
        "time": {
            "value": "3"
        },
        "traditions": {
            "value": []
        },
        "traits": {
            "custom": "",
            "rarity": "uncommon",
            "value": [
                "darkness",
                "shadow"
            ]
        }
    },
    "effects": [],
    "flags": {},
    "img": "systems/pf2e/icons/default-icons/spell.svg",
    "name": "Darklight",
    "type": "spell"
}
