{
    "_id": "57ulIxg3Of2wCbEh",
    "data": {
        "ability": {
            "value": ""
        },
        "area": {
            "areaType": "",
            "value": null
        },
        "areasize": {
            "value": ""
        },
        "category": {
            "value": "focus"
        },
        "components": {
            "material": false,
            "somatic": true,
            "verbal": false
        },
        "cost": {
            "value": ""
        },
        "damage": {
            "value": {
                "0": {
                    "type": {
                        "categories": [],
                        "value": "electricity"
                    },
                    "value": "3d12"
                }
            }
        },
        "description": {
            "value": "<p>You create an @Compendium[pf2e.hazards.Electric Latch Rune]{Electric Latch Rune} hazard on the target, creating a special crystalline lock on the object. You can also substitute your spell DC for any of the hazard's listed DCs. You can have only one such hazard active at a time, and if you cast this spell while a previous <em>electric latch rune</em> is active, the older hazard discharges harmlessly.</p>\n<hr />\n<p><strong>Heightened (+2)</strong> The hazard's damage increases by 1d12.</p>"
        },
        "duration": {
            "value": ""
        },
        "hasCounteractCheck": {
            "value": false
        },
        "level": {
            "value": 3
        },
        "location": {
            "value": ""
        },
        "materials": {
            "value": ""
        },
        "prepared": {
            "value": ""
        },
        "primarycheck": {
            "value": ""
        },
        "range": {
            "value": ""
        },
        "rules": [],
        "save": {
            "basic": "",
            "value": ""
        },
        "scaling": {
            "damage": {
                "0": "1d12"
            },
            "interval": 2
        },
        "school": {
            "value": "evocation"
        },
        "secondarycasters": {
            "value": ""
        },
        "secondarycheck": {
            "value": ""
        },
        "source": {
            "value": "Pathfinder #148: Fires of the Haunted City"
        },
        "spellType": {
            "value": "attack"
        },
        "sustained": {
            "value": false
        },
        "target": {
            "value": "1 hinge or latch"
        },
        "time": {
            "value": "2"
        },
        "traditions": {
            "custom": "",
            "value": []
        },
        "traits": {
            "custom": "",
            "rarity": "rare",
            "value": [
                "electricity"
            ]
        }
    },
    "effects": [],
    "flags": {},
    "img": "systems/pf2e/icons/spells/electrified-crystal-ward.webp",
    "name": "Electrified Crystal Ward",
    "type": "spell"
}
