{
    "_id": "kuoYff1csM5eAcAP",
    "data": {
        "ability": {
            "value": ""
        },
        "area": {
            "areaType": "",
            "value": null
        },
        "areasize": {
            "value": ""
        },
        "category": {
            "value": "spell"
        },
        "components": {
            "material": false,
            "somatic": true,
            "verbal": true
        },
        "cost": {
            "value": ""
        },
        "damage": {
            "value": {
                "0": {
                    "type": {
                        "categories": [],
                        "value": "fire"
                    },
                    "value": "4d6"
                }
            }
        },
        "description": {
            "value": "<p>Four acorns grow in your hand, their shells streaked with pulsing red and orange patterns. You or anyone else who has one of the acorns can toss it up to 30 feet with an Interact action. It explodes in a 5-foot burst, dealing 4d6 fire damage. The save uses your spell DC, even if someone else throws the acorn. Flames continue to burn on the ground in the burst for 1 minute, dealing 2d6 fire damage to any creature that enters the flames or ends its turn within them. A creature can take damage from the continuing flames only once per round, even if it's in overlapping areas of fire created by different acorns. When the spell ends, any remaining acorns rot and turn to ordinary soil.</p>\n<hr />\n<p><strong>Heightened (8th)</strong> The burst's damage increases to 5d6, and the continuing flames damage increases to 3d6.</p>\n<p><strong>Heightened (9th)</strong> The burst's damage increases to 6d6, and the continuing flames damage increases to 3d6.</p>"
        },
        "duration": {
            "value": "1 minute"
        },
        "hasCounteractCheck": {
            "value": false
        },
        "level": {
            "value": 6
        },
        "location": {
            "value": ""
        },
        "materials": {
            "value": ""
        },
        "prepared": {
            "value": ""
        },
        "primarycheck": {
            "value": ""
        },
        "range": {
            "value": ""
        },
        "rules": [],
        "save": {
            "basic": "basic",
            "value": "reflex"
        },
        "school": {
            "value": "evocation"
        },
        "secondarycasters": {
            "value": ""
        },
        "secondarycheck": {
            "value": ""
        },
        "source": {
            "value": "Pathfinder Core Rulebook"
        },
        "spellType": {
            "value": "save"
        },
        "sustained": {
            "value": false
        },
        "target": {
            "value": ""
        },
        "time": {
            "value": "2"
        },
        "traditions": {
            "value": [
                "primal"
            ]
        },
        "traits": {
            "custom": "",
            "rarity": "common",
            "value": [
                "fire",
                "plant"
            ]
        }
    },
    "effects": [],
    "flags": {},
    "img": "systems/pf2e/icons/spells/fire-seeds.webp",
    "name": "Fire Seeds",
    "type": "spell"
}
