{
    "_id": "6nTBr5XNuKOuPM5m",
    "data": {
        "ability": {
            "value": ""
        },
        "area": {
            "areaType": "",
            "value": null
        },
        "areasize": {
            "value": ""
        },
        "category": {
            "value": "focus"
        },
        "components": {
            "material": false,
            "somatic": true,
            "verbal": true
        },
        "cost": {
            "value": ""
        },
        "damage": {
            "value": {}
        },
        "description": {
            "value": "<p>You multiply the disease within a creature, drawing it into an infectious mist outside their body where it can spread to other creatures. The target must attempt a Will save. If the target is willing, it can choose to take the effects of critical failure.</p>\n<hr />\n<p><strong>Critical Success</strong> The target receives the benefit of a successful save against the lowest-level disease affecting it.</p>\n<p><strong>Success</strong> The target is unaffected.</p>\n<p><strong>Failure</strong> One randomly chosen disease affecting the target fills the air in a 15-foot emanation centered on the target. For the spell's duration, any creature that enters or ends its turn within the area is exposed to that disease.</p>\n<p><strong>Critical Failure</strong> As failure, except the miasma contains all the diseases affecting the target.</p>"
        },
        "duration": {
            "value": "1 minute"
        },
        "hasCounteractCheck": {
            "value": false
        },
        "level": {
            "value": 4
        },
        "location": {
            "value": ""
        },
        "materials": {
            "value": ""
        },
        "prepared": {
            "value": ""
        },
        "primarycheck": {
            "value": ""
        },
        "range": {
            "value": "30 feet"
        },
        "rules": [],
        "save": {
            "basic": "",
            "value": "will"
        },
        "school": {
            "value": "necromancy"
        },
        "secondarycasters": {
            "value": ""
        },
        "secondarycheck": {
            "value": ""
        },
        "source": {
            "value": "Pathfinder Lost Omens: Gods & Magic"
        },
        "spellType": {
            "value": "save"
        },
        "sustained": {
            "value": false
        },
        "target": {
            "value": "1 creature affected by a disease"
        },
        "time": {
            "value": "2"
        },
        "traditions": {
            "custom": "",
            "value": []
        },
        "traits": {
            "custom": "",
            "rarity": "uncommon",
            "value": [
                "cleric",
                "disease"
            ]
        }
    },
    "effects": [],
    "flags": {},
    "img": "systems/pf2e/icons/spells/foul-miasma.webp",
    "name": "Foul Miasma",
    "type": "spell"
}
