{
    "_id": "i88Vi47PDDoP6gQv",
    "data": {
        "ability": {
            "value": ""
        },
        "area": {
            "areaType": "burst",
            "value": "10"
        },
        "autoHeightenLevel": {
            "value": null
        },
        "category": {
            "value": "spell"
        },
        "components": {
            "focus": false,
            "material": false,
            "somatic": true,
            "verbal": true
        },
        "cost": {
            "value": ""
        },
        "damage": {
            "applyMod": false,
            "value": {
                "0": {
                    "applyMod": false,
                    "type": {
                        "subtype": "",
                        "value": "bludgeoning"
                    },
                    "value": "3d6"
                },
                "1": {
                    "applyMod": false,
                    "type": {
                        "subtype": "",
                        "value": "fire"
                    },
                    "value": "4d6"
                }
            }
        },
        "description": {
            "value": "<p><strong>Area</strong> 10-foot radius, 50-foot-tall cylinder</p>\n<hr />\n<p>A powerful geyser blasts up from the ground, potentially pushing creatures on top of it into the air. The bottom of this spell's area must be on solid ground. Each creature in the area takes 3d6 bludgeoning damage and 4d6 fire damage, with a Reflex save. A creature pushed into the air by the geyser can't be pushed beyond the top of the geyser. After being pushed into the air, a creature falls unless it's flying or has some other means of staying aloft, taking falling damage (normally equal to half the distance it fell). After the geyser erupts, its area is filled with a cloud of steam for 1 round. All creatures in the steam are concealed, and all creatures outside the steam are concealed to creatures within it.</p>\n<hr />\n<p><strong>Critical Success</strong> The creature is unaffected.</p>\n<p><strong>Success</strong> The creature takes half damage and isn't pushed into the air.</p>\n<p><strong>Failure</strong> The creature takes full damage and is pushed 20 feet into the air. ([[/r {10}[bludgeoning]]]{10 falling damage})</p>\n<p><strong>Critical Failure</strong> The creature takes double damage and is pushed 40 feet into the air. ([[/r {20}[bludgeoning]]]{20 falling damage})</p>\n<hr />\n<p><strong>Heightened (+1)</strong> The damage increases by 1d6 bludgeoning and 1d6 fire.</p>"
        },
        "duration": {
            "value": "1 round"
        },
        "hasCounteractCheck": {
            "value": false
        },
        "level": {
            "value": 5
        },
        "location": {
            "value": ""
        },
        "materials": {
            "value": ""
        },
        "range": {
            "value": "500 feet"
        },
        "rules": [],
        "save": {
            "basic": "",
            "value": "reflex"
        },
        "scaling": {
            "damage": {
                "0": "1d6",
                "1": "1d6"
            },
            "interval": 1
        },
        "school": {
            "value": "evocation"
        },
        "source": {
            "value": "Pathfinder Secrets of Magic"
        },
        "spellType": {
            "value": "save"
        },
        "sustained": {
            "value": false
        },
        "target": {
            "value": ""
        },
        "time": {
            "value": "2"
        },
        "traditions": {
            "custom": "",
            "value": [
                "arcane",
                "primal"
            ]
        },
        "traits": {
            "custom": "",
            "rarity": "common",
            "value": [
                "fire",
                "water"
            ]
        }
    },
    "effects": [],
    "flags": {},
    "img": "systems/pf2e/icons/spells/geyser.webp",
    "name": "Geyser",
    "type": "spell"
}
