{
    "_id": "gSUQlTDYoLDGAsCP",
    "data": {
        "ability": {
            "value": ""
        },
        "area": {
            "value": ""
        },
        "areasize": {
            "value": ""
        },
        "category": {
            "value": "focus"
        },
        "components": {
            "material": false,
            "somatic": false,
            "verbal": true
        },
        "cost": {
            "value": ""
        },
        "damage": {
            "value": {
                "0": {
                    "type": {
                        "categories": [],
                        "value": "temphp"
                    },
                    "value": "2"
                }
            }
        },
        "description": {
            "value": "<p>Your divine singing mends wounds and provides a temporary respite from harm. The target gains @Compendium[pf2e.bestiary-ability-glossary-srd.Fast Healing]{Fast Healing} 2.</p>\n<p>When you Cast this Spell and each time you Sustain the Spell, the target gains 2 temporary Hit Points, which last for 1 round.</p>\n<hr />\n<p><strong>Heightened (+1)</strong> The fast healing and temporary Hit Points</p>\n<p>each increase by 2.</p>"
        },
        "duration": {
            "value": "sustained up to 4 rounds"
        },
        "hasCounteractCheck": {
            "value": false
        },
        "level": {
            "value": 1
        },
        "location": {
            "value": ""
        },
        "materials": {
            "value": ""
        },
        "prepared": {
            "value": ""
        },
        "primarycheck": {
            "value": ""
        },
        "range": {
            "value": "30 feet"
        },
        "rules": [],
        "save": {
            "basic": "",
            "value": ""
        },
        "scaling": {
            "damage": {
                "0": "2"
            },
            "interval": 1
        },
        "school": {
            "value": "necromancy"
        },
        "secondarycasters": {
            "value": ""
        },
        "secondarycheck": {
            "value": ""
        },
        "source": {
            "value": "Pathfinder Advanced Player's Guide"
        },
        "spellType": {
            "value": "heal"
        },
        "sustained": {
            "value": false
        },
        "target": {
            "value": "you or 1 ally"
        },
        "time": {
            "value": "2"
        },
        "traditions": {
            "custom": "",
            "value": [
                "occult"
            ]
        },
        "traits": {
            "custom": "",
            "rarity": "uncommon",
            "value": [
                "bard",
                "composition",
                "healing",
                "positive"
            ]
        }
    },
    "effects": [],
    "flags": {},
    "img": "systems/pf2e/icons/spells/hymn-of-healing.webp",
    "name": "Hymn of Healing",
    "type": "spell"
}
