{
    "_id": "IhwREVWG0OzzrbWA",
    "data": {
        "ability": {
            "value": ""
        },
        "area": {
            "areaType": "",
            "value": null
        },
        "areasize": {
            "value": ""
        },
        "category": {
            "value": "spell"
        },
        "components": {
            "material": true,
            "somatic": true,
            "verbal": false
        },
        "cost": {
            "value": ""
        },
        "damage": {
            "value": {}
        },
        "description": {
            "value": "<p>Your mouth, esophagus, and stomach become incredibly elastic and tougher than metal. For the duration of the spell, you can reach down your throat to store or retrieve a single object of light or negligible Bulk in your stomach, as though your stomach were a backpack or other container. Storing and retrieving an item in this way requires an Interact action. The object must be small enough to reasonably fit within your stomach. It is very difficult for other creatures to notice that you are hiding an object in this way; passive observers can't possibly notice and you gain a +4 circumstance bonus to your Stealth checks to @Compendium[pf2e.actionspf2e.Conceal an Object]{Conceal an Object} unless the searcher specifically searches your mouth and stomach. If at the end of the spell's duration you still have an object stored in your stomach, it is violently expelled, dealing 1d6 damage to you.</p>\n<hr />\n<p><strong>Heightened (3rd)</strong> The duration increases to 8 hours.</p>"
        },
        "duration": {
            "value": "1 hour"
        },
        "hasCounteractCheck": {
            "value": false
        },
        "level": {
            "value": 2
        },
        "location": {
            "value": ""
        },
        "materials": {
            "value": ""
        },
        "prepared": {
            "value": ""
        },
        "primarycheck": {
            "value": ""
        },
        "range": {
            "value": ""
        },
        "rules": [],
        "save": {
            "basic": "",
            "value": ""
        },
        "school": {
            "value": "transmutation"
        },
        "secondarycasters": {
            "value": ""
        },
        "secondarycheck": {
            "value": ""
        },
        "source": {
            "value": "Pathfinder Lost Omens: Gods & Magic"
        },
        "spellType": {
            "value": "utility"
        },
        "sustained": {
            "value": false
        },
        "target": {
            "value": ""
        },
        "time": {
            "value": "2"
        },
        "traditions": {
            "custom": "",
            "value": [
                "arcane",
                "primal"
            ]
        },
        "traits": {
            "custom": "",
            "rarity": "common",
            "value": []
        }
    },
    "effects": [],
    "flags": {},
    "img": "systems/pf2e/icons/spells/iron-gut.webp",
    "name": "Iron Gut",
    "type": "spell"
}
