{
    "_id": "8bdt1TvNKzsCu9Ct",
    "data": {
        "ability": {
            "value": ""
        },
        "area": {
            "areaType": "",
            "value": null
        },
        "areasize": {
            "value": ""
        },
        "category": {
            "value": "spell"
        },
        "components": {
            "material": false,
            "somatic": true,
            "verbal": false
        },
        "cost": {
            "value": ""
        },
        "damage": {
            "value": {}
        },
        "description": {
            "value": "<p>With touches to the targets' foreheads, you bring them into mental communion. The targets can share thoughts and experiences, but not words. When one target attempts to Recall Knowledge, the other can Aid the first target's skill check, using any Lore skill (even if that Lore wouldn't normally apply) without having made any preparations to Aid.</p>\n<hr />\n<p><strong>Heightened (+1)</strong> You can touch one additional target t include them in the spell's effects. Multiple targets can attempt checks to Aid the target who is attempting to Recall Knowledge.</p>"
        },
        "duration": {
            "value": "1 round"
        },
        "hasCounteractCheck": {
            "value": false
        },
        "level": {
            "value": 1
        },
        "location": {
            "value": ""
        },
        "materials": {
            "value": ""
        },
        "prepared": {
            "value": ""
        },
        "primarycheck": {
            "value": ""
        },
        "range": {
            "value": "touch"
        },
        "rules": [],
        "save": {
            "basic": "",
            "value": ""
        },
        "school": {
            "value": "divination"
        },
        "secondarycasters": {
            "value": ""
        },
        "secondarycheck": {
            "value": ""
        },
        "source": {
            "value": "Pathfinder #147: Tomorrow Must Burn"
        },
        "spellType": {
            "value": "utility"
        },
        "sustained": {
            "value": false
        },
        "target": {
            "value": "2 willing creatures"
        },
        "time": {
            "value": "1"
        },
        "traditions": {
            "custom": "",
            "value": [
                "occult"
            ]
        },
        "traits": {
            "custom": "",
            "rarity": "uncommon",
            "value": [
                "mental",
                "cantrip"
            ]
        }
    },
    "effects": [],
    "flags": {},
    "img": "systems/pf2e/icons/spells/join-pasts.webp",
    "name": "Join Pasts",
    "type": "spell"
}
