{
    "_id": "NIop4eI2i7cKFGad",
    "data": {
        "ability": {
            "value": ""
        },
        "area": {
            "areaType": "",
            "value": ""
        },
        "autoHeightenLevel": {
            "value": null
        },
        "category": {
            "value": "spell"
        },
        "components": {
            "focus": false,
            "material": false,
            "somatic": true,
            "verbal": true
        },
        "cost": {
            "value": ""
        },
        "damage": {
            "value": {
                "b8s5znrsrnbdwuie": {
                    "applyMod": false,
                    "type": {
                        "categories": [],
                        "subtype": "",
                        "value": "mental"
                    },
                    "value": "2d8"
                }
            }
        },
        "description": {
            "value": "<p>You wrap the targeted creatures in thin, sickly green shrouds that sap information from attackers. The shroud settles about each target's shoulders, granting a +1 status bonus to AC and a +2 status bonus to Stealth checks, both only while the target is in dim light or darkness.</p>\n<p>If a creature deals damage in melee to or touches a cloaked creature, the cloak wraps around the attacker, temporarily connecting the psyches of the cloaked creature and the attacker and violently prying a random piece of interesting information from the attacker's mind. The attacker takes 2d8 mental damage and must attempt a Will save.</p>\n<p>Afterward, the spell ends for the cloaked creature, and the attacker is temporarily immune to <em>mirecloak</em> for 24 hours.</p>\n<hr />\n<p><strong>Critical Success</strong> The attacker is unaffected.</p>\n<p><strong>Success</strong> The attacker takes half damage.</p>\n<p><strong>Failure</strong> The attacker takes full damage and is @Compendium[pf2e.conditionitems.Sickened]{Sickened 1}. In addition, the cloaked creature gleans a piece of information from the attacker's mind. The details and extent of this information are at the GM's discretion.</p>\n<p><strong>Critical Failure</strong> As failure, but the attacker takes double damage and is @Compendium[pf2e.conditionitems.Sickened]{Sickened 2}.</p>\n<hr />\n<p>@Compendium[pf2e.spell-effects.Spell Effect: Mirecloak]{Spell Effect: Mirecloak}</p>"
        },
        "duration": {
            "value": "up to 1 minute"
        },
        "hasCounteractCheck": {
            "value": false
        },
        "level": {
            "value": 5
        },
        "location": {
            "value": ""
        },
        "materials": {
            "value": ""
        },
        "range": {
            "value": "30 feet"
        },
        "rules": [],
        "save": {
            "basic": "",
            "value": "will"
        },
        "school": {
            "value": "divination"
        },
        "source": {
            "value": "Pathfinder #171: Hurricane's Howl"
        },
        "spellType": {
            "value": "save"
        },
        "sustained": {
            "value": false
        },
        "target": {
            "value": "up to 4 creatures"
        },
        "time": {
            "value": "2"
        },
        "traditions": {
            "custom": "",
            "value": [
                "divine",
                "occult"
            ]
        },
        "traits": {
            "custom": "",
            "rarity": "uncommon",
            "value": [
                "mental"
            ]
        }
    },
    "effects": [],
    "flags": {},
    "img": "systems/pf2e/icons/default-icons/spell.svg",
    "name": "Mirecloak",
    "type": "spell"
}
