{
    "_id": "ZXwxs5tRjEGrjAJT",
    "data": {
        "ability": {
            "value": ""
        },
        "area": {
            "areaType": "",
            "value": ""
        },
        "areasize": {
            "value": ""
        },
        "autoHeightenLevel": {
            "value": null
        },
        "category": {
            "value": "spell"
        },
        "components": {
            "focus": false,
            "material": false,
            "somatic": true,
            "verbal": true
        },
        "cost": {
            "value": ""
        },
        "damage": {
            "value": {}
        },
        "description": {
            "value": "<p>The primal power of the world flows through you. You transform into an incarnation of nature, either a green man or a kaiju. Your battle form is Medium for a green man or Gargantuan (30-foot-by-30-foot space) for a kaiju. You must have enough space to expand into or the spell is lost. While in this form, you gain the plant trait (for a green man) or the beast trait (for a kaiju). You can Dismiss the spell.</p>\n<p>You gain the following statistics and abilities regardless of which battle form you choose:</p>\n<ul>\n<li>AC = 25 + your level. Ignore your armor's check penalty and Speed reduction.</li>\n<li>30 temporary Hit Points.</li>\n<li>Darkvision.</li>\n<li>One or more attacks specific to the battle form you choose, which are the only attacks you can use. You're trained with them. Your attack modifier is +34, and you use the listed damage. These attacks are Strength based (for the purpose of the @Compendium[pf2e.conditionitems.Enfeebled]{Enfeebled} condition, for example). If your unarmed attack modifier is higher, you can use it instead.</li>\n<li>Athletics modifier of +36, unless your own modifier is higher.</li>\n</ul>\n<p>You also gain specific abilities based on the type of incarnation you choose:</p>\n<ul>\n<li><strong>Green Man</strong>\n<ul>\n<li>Speed 40 feet, climb Speed 40 feet;</li>\n<li><strong>Melee</strong> <span class=\"pf2-icon\">1 </span>vines (reach 30 feet, versatile P), <strong>Damage</strong> 6d8+12 bludgeoning;</li>\n<li><strong>Ranged</strong> <span class=\"pf2-icon\">1 </span>thorns (range 100 feet), <strong>Damage</strong> 6d6+6 piercing;</li>\n<li><strong>Green Caress</strong> (aura, primal, transmutation) 60 feet. Enemies other than plants must succeed at a Fortitude save against your spell DC or become @Compendium[pf2e.conditionitems.Clumsy]{Clumsy 1} for 1 round Clumsy 2 on a critical failure).</li>\n</ul>\n</li>\n</ul>\n<p>@Compendium[pf2e.spell-effects.Spell Effect: Nature Incarnate (Green Man)]{Spell Effect: Nature Incarnate (Green Man)}</p>\n<ul>\n<li><strong>Kaiju</strong> Speed 50 feet; resistance 5 to physical damage;\n<ul>\n<li><strong>Melee</strong> <span class=\"pf2-icon\">1 </span>jaws (reach 30 feet), <strong>Damage</strong> 6d10+10 piercing;</li>\n<li><strong>Melee</strong> <span class=\"pf2-icon\">1 </span>claws (agile, reach 30 feet), <strong>Damage</strong> 6d8+8 slashing;</li>\n<li><strong>Melee</strong> <span class=\"pf2-icon\">1 </span>foot (agile, reach 15 feet), <strong>Damage</strong> 6d6+10 bludgeoning;</li>\n<li><strong>Unstoppable</strong> You are immune to being @Compendium[pf2e.conditionitems.Immobilized]{Immobilized} and ignore difficult terrain and greater difficult terrain;</li>\n<li><strong>Trample</strong> <span class=\"pf2-icon\">3</span> You move up to double your Speed and move through the spaces of Huge or smaller creatures, trampling each creature whose space you enter. A trampled creature takes foot damage with a basic Reflex save against your spell DC.</li>\n</ul>\n</li>\n</ul>\n<p>@Compendium[pf2e.spell-effects.Spell Effect: Nature Incarnate (Kaiju)]{Spell Effect: Nature Incarnate (Kaiju)}</p>"
        },
        "duration": {
            "value": "1 minute"
        },
        "hasCounteractCheck": {
            "value": false
        },
        "level": {
            "value": 10
        },
        "location": {
            "value": ""
        },
        "materials": {
            "value": ""
        },
        "prepared": {
            "value": ""
        },
        "primarycheck": {
            "value": ""
        },
        "range": {
            "value": ""
        },
        "rules": [],
        "save": {
            "basic": "",
            "value": ""
        },
        "school": {
            "value": "transmutation"
        },
        "secondarycasters": {
            "value": ""
        },
        "secondarycheck": {
            "value": ""
        },
        "source": {
            "value": "Pathfinder Core Rulebook"
        },
        "spellType": {
            "value": "utility"
        },
        "sustained": {
            "value": false
        },
        "target": {
            "value": ""
        },
        "time": {
            "value": "2"
        },
        "traditions": {
            "value": [
                "primal"
            ]
        },
        "traits": {
            "custom": "",
            "rarity": "common",
            "value": [
                "polymorph"
            ]
        }
    },
    "effects": [],
    "flags": {},
    "img": "systems/pf2e/icons/spells/nature-incarnate.webp",
    "name": "Nature Incarnate",
    "type": "spell"
}
