{
    "_id": "TbYqDhlNRiWHe146",
    "data": {
        "ability": {
            "value": ""
        },
        "area": {
            "areaType": "",
            "value": ""
        },
        "autoHeightenLevel": {
            "value": null
        },
        "category": {
            "value": "spell"
        },
        "components": {
            "focus": false,
            "material": false,
            "somatic": true,
            "verbal": true
        },
        "cost": {
            "value": ""
        },
        "damage": {
            "value": {}
        },
        "description": {
            "value": "<p>You merge with an adjacent natural feature with enough volume to fit you and your worn and held possessions, such as the ground or a large tree. Your merged form is visible within the feature, and creatures can target and attack you normally, though you have cover and can use it to Hide or Take Cover within the feature. You can cast spells while in the feature as long as they don't require line of effect beyond the feature. You can Dismiss the spell. While merged, you gain the following additional benefits.</p>\n<p>@Compendium[pf2e.spell-effects.Spell Effect: One With the Land]{Spell Effect: One With the Land}</p>\n<ul>\n<li>You immediately become aware of the surrounding terrain features, and you gain tremorsense as an imprecise sense with a range of 200 feet.</li>\n<li>You can make terrain vengeance Strikes by commanding plants, rocks, and other natural features to attack your foes. These are melee Strikes that use your spell attack roll, can target any creature within 60 feet of you, and deal [[/r 5d12]] bludgeoning, piercing, or slashing damage. You choose the damage type each time you make a terrain vengeance Strike.</li>\n<li>By spending a single action, which has the concentrate trait, you can increase or decrease the environmental temperature changing it to either one step warmer than normal, one step colder than normal, or the normal temperature.</li>\n<li>As a 2-action activity that has the concentrate trait, you can create or remove difficult terrain caused by natural terrain in a 20-foot burst within 200 feet. All of your alterations to the land end when the spell ends. Significant physical damage to the natural feature while you are inside it expels you and deals [[/r {10d6}]]{10d6 damage} to you.</li>\n</ul>"
        },
        "duration": {
            "value": "1 minute"
        },
        "hasCounteractCheck": {
            "value": false
        },
        "level": {
            "value": 9
        },
        "location": {
            "value": ""
        },
        "materials": {
            "value": ""
        },
        "range": {
            "value": ""
        },
        "rules": [],
        "save": {
            "basic": "",
            "value": ""
        },
        "school": {
            "value": "transmutation"
        },
        "source": {
            "value": "Pathfinder Secrets of Magic"
        },
        "spellType": {
            "value": "utility"
        },
        "sustained": {
            "value": false
        },
        "target": {
            "value": ""
        },
        "time": {
            "value": "2"
        },
        "traditions": {
            "custom": "",
            "value": [
                "primal"
            ]
        },
        "traits": {
            "custom": "",
            "rarity": "common",
            "value": [
                "earth",
                "plant"
            ]
        }
    },
    "effects": [],
    "flags": {},
    "img": "systems/pf2e/icons/spells/one-with-the-land.webp",
    "name": "One With the Land",
    "type": "spell"
}
