{
    "_id": "ZhJ8d9Uk4lwIx86b",
    "data": {
        "ability": {
            "value": ""
        },
        "area": {
            "value": ""
        },
        "areasize": {
            "value": "1/2-mile-radius circle centered on you"
        },
        "category": {
            "value": "ritual"
        },
        "components": {
            "material": false,
            "somatic": false,
            "verbal": false
        },
        "cost": {
            "value": ""
        },
        "damage": {
            "value": {}
        },
        "description": {
            "value": "<p>You cause the plants within the area to be healthier and more fruitful. In addition to other benefits of healthy plants, this increases the crop yield for farms, depending on your success. If you cast it in the area of a <em>@Compendium[pf2e.spells-srd.Blight]{Blight}</em>, <em>plant growth</em> attempts to counteract the <em>blight</em> instead of producing its usual effect.</p>\n<hr />\n<p><strong>Critical Success</strong> Double the crop yield in the area, or increase the area to a 1-mile radius.</p>\n<p><strong>Success</strong> Increase the crop yield in the area by one-third.</p>\n<p><strong>Failure</strong> The ritual has no effect.</p>\n<p><strong>Critical Failure</strong> The flora in the area changes in an unanticipated way, determined by the GM but generally as contradictory to your true desires as possible (for instance, blighting crops when you would prefer to enrich them).</p>"
        },
        "duration": {
            "value": "1 year"
        },
        "hasCounteractCheck": {
            "value": false
        },
        "level": {
            "value": 4
        },
        "location": {
            "value": ""
        },
        "materials": {
            "value": ""
        },
        "prepared": {
            "value": ""
        },
        "primarycheck": {
            "value": "Nature (expert)"
        },
        "range": {
            "value": ""
        },
        "rules": [],
        "save": {
            "basic": "",
            "value": ""
        },
        "school": {
            "value": "necromancy"
        },
        "secondarycasters": {
            "value": "1"
        },
        "secondarycheck": {
            "value": "Farming Lore or Survival"
        },
        "source": {
            "value": "Pathfinder Core Rulebook"
        },
        "spellType": {
            "value": "utility"
        },
        "sustained": {
            "value": false
        },
        "target": {
            "value": ""
        },
        "time": {
            "value": "1 day"
        },
        "traditions": {
            "value": []
        },
        "traits": {
            "custom": "",
            "rarity": "uncommon",
            "value": [
                "plant",
                "positive"
            ]
        }
    },
    "effects": [],
    "flags": {},
    "img": "systems/pf2e/icons/spells/plant-growth.webp",
    "name": "Plant Growth",
    "type": "spell"
}
