{
    "_id": "02J0rDTk37KN2sjt",
    "data": {
        "ability": {
            "value": ""
        },
        "area": {
            "value": ""
        },
        "areasize": {
            "value": "20-foot burst"
        },
        "category": {
            "value": "spell"
        },
        "components": {
            "material": false,
            "somatic": true,
            "verbal": true
        },
        "cost": {
            "value": ""
        },
        "damage": {
            "value": {
                "0": {
                    "type": {
                        "categories": [],
                        "value": "untyped"
                    },
                    "value": "4d8"
                }
            }
        },
        "description": {
            "value": "<p>You cause the air in the area to become supersaturated with water vapor. Non-magical fires within the area are automatically extinguished. Fire creatures within the area take [[/r 4d8]] damage (basic Fortitude save). Choose one magical fire, fire spell, or fire item in the area and attempt to counteract it. If you succeed against an item, the item loses its fire properties for 10 minutes (for instance, a <em>+1 @Compendium[pf2e.equipment-srd.Flaming]{Flaming} @Compendium[pf2e.equipment-srd.Longsword]{Longsword} </em>would become a <em>+1 Longsword</em>). If the target is an artifact or similarly powerful item, you automatically fail to counteract it.</p>\n<p>When you @Compendium[pf2e.actionspf2e.Sustain a Spell]{Sustain this Spell}, you can move the area of vapor anywhere within range, but the only effect when you do so is to automatically extinguish non-magical fires.</p>\n<p>If you have the Counterspell reaction, you can use <em>quench </em>to counter any spell with the fire trait instead of needing to have the triggering fire spell prepared or in your repertoire.</p>\n<hr />\n<p><strong>Heightened (+1)</strong> Increase the damage to fire creatures by [[/r 2d8]].</p>"
        },
        "duration": {
            "value": "sustained"
        },
        "hasCounteractCheck": {
            "value": true
        },
        "level": {
            "value": 2
        },
        "location": {
            "value": ""
        },
        "materials": {
            "value": ""
        },
        "prepared": {
            "value": false
        },
        "primarycheck": {
            "value": ""
        },
        "range": {
            "value": "120 feet"
        },
        "rules": [],
        "save": {
            "basic": "",
            "value": "fortitude"
        },
        "scaling": {
            "damage": {
                "0": "2d8"
            },
            "interval": 1
        },
        "school": {
            "value": "abjuration"
        },
        "secondarycasters": {
            "value": ""
        },
        "secondarycheck": {
            "value": ""
        },
        "source": {
            "value": "Pathfinder Advanced Player's Guide"
        },
        "spellType": {
            "value": "attack"
        },
        "sustained": {
            "value": false
        },
        "target": {
            "value": ""
        },
        "time": {
            "value": "2"
        },
        "traditions": {
            "value": [
                "primal"
            ]
        },
        "traits": {
            "custom": "",
            "rarity": "common",
            "value": [
                "water"
            ]
        }
    },
    "effects": [],
    "flags": {},
    "img": "systems/pf2e/icons/spells/quench.webp",
    "name": "Quench",
    "type": "spell"
}
