{
    "_id": "TYbCj4dgXDOZou9k",
    "data": {
        "ability": {
            "value": ""
        },
        "area": {
            "areaType": "",
            "value": ""
        },
        "autoHeightenLevel": {
            "value": null
        },
        "category": {
            "value": "spell"
        },
        "components": {
            "focus": false,
            "material": false,
            "somatic": false,
            "verbal": true
        },
        "cost": {
            "value": ""
        },
        "damage": {
            "value": {}
        },
        "description": {
            "value": "<p>You focus deeply on the link between you and your eidolon and reinforce your eidolon's defenses. Your eidolon gains a +1 status bonus to AC and saving throws, plus resistance to all damage equal to half the spell's level. Your eidolon can benefit from either <em>@Compendium[pf2e.spells-srd.Boost Eidolon]{Boost Eidolon}</em> or Reinforce Eidolon, but not both; if you cast one of these spells during the other's duration, the newer spell replaces the older one.</p>\n<p>@Compendium[pf2e.spell-effects.Spell Effect: Reinforce Eidolon]{Spell Effect: Reinforce Eidolon}</p>"
        },
        "duration": {
            "value": "1 round"
        },
        "hasCounteractCheck": {
            "value": false
        },
        "level": {
            "value": 1
        },
        "location": {
            "value": ""
        },
        "materials": {
            "value": ""
        },
        "range": {
            "value": "100 feet"
        },
        "rules": [],
        "save": {
            "basic": "",
            "value": ""
        },
        "school": {
            "value": "abjuration"
        },
        "source": {
            "value": "Pathfinder Secrets of Magic"
        },
        "spellType": {
            "value": "utility"
        },
        "sustained": {
            "value": false
        },
        "target": {
            "value": "your eidolon"
        },
        "time": {
            "value": "1"
        },
        "traditions": {
            "value": []
        },
        "traits": {
            "custom": "",
            "rarity": "uncommon",
            "value": [
                "cantrip",
                "summoner"
            ]
        }
    },
    "effects": [],
    "flags": {},
    "img": "systems/pf2e/icons/default-icons/spell.svg",
    "name": "Reinforce Eidolon",
    "type": "spell"
}
