{
    "_id": "DgcSiOCR1uDXGaEA",
    "data": {
        "ability": {
            "value": ""
        },
        "area": {
            "areaType": "",
            "value": ""
        },
        "autoHeightenLevel": {
            "value": null
        },
        "category": {
            "value": "spell"
        },
        "components": {
            "focus": false,
            "material": false,
            "somatic": true,
            "verbal": true
        },
        "cost": {
            "value": ""
        },
        "damage": {
            "value": {}
        },
        "description": {
            "value": "<p>You harmlessly place your unique magic sigil, which is about 1 square inch in size, on your targets. When you Cast the Spell, you set the duration by choosing a time at which point the sigil flashes dimly three times. After that point, the spell ends. Even though spell durations aren't normally exact, the effects of synchronize are precise to the second. The timer is based on the place where the spell was cast, so entering a plane or area where time flows differently changes how the time elapses.</p>\n<hr />\n<p><strong>Heightened (2nd)</strong> The spell can target up to 20 willing creatures.</p>"
        },
        "duration": {
            "value": "up to 24 hours"
        },
        "hasCounteractCheck": {
            "value": false
        },
        "level": {
            "value": 1
        },
        "location": {
            "value": ""
        },
        "materials": {
            "value": ""
        },
        "range": {
            "value": "touch"
        },
        "rules": [],
        "save": {
            "basic": "",
            "value": ""
        },
        "school": {
            "value": "divination"
        },
        "source": {
            "value": "Pathfinder Secrets of Magic"
        },
        "spellType": {
            "value": "utility"
        },
        "sustained": {
            "value": false
        },
        "target": {
            "value": "up to 5 willing creatures"
        },
        "time": {
            "value": "2"
        },
        "traditions": {
            "custom": "",
            "value": [
                "arcane",
                "divine",
                "occult",
                "primal"
            ]
        },
        "traits": {
            "custom": "",
            "rarity": "common",
            "value": []
        }
    },
    "effects": [],
    "flags": {},
    "img": "systems/pf2e/icons/spells/synchronize.webp",
    "name": "Synchronize",
    "type": "spell"
}
