{
    "_id": "s7ILzY2xh1tc9U1v",
    "data": {
        "ability": {
            "value": ""
        },
        "area": {
            "areaType": "",
            "value": ""
        },
        "autoHeightenLevel": {
            "value": null
        },
        "category": {
            "value": "spell"
        },
        "components": {
            "focus": false,
            "material": false,
            "somatic": true,
            "verbal": true
        },
        "cost": {
            "value": ""
        },
        "damage": {
            "value": {}
        },
        "description": {
            "value": "<p>As you make comforting sounds and gestures, you approach the target in a friendly manner combining caution and confidence. You improve the target's attitude to you by one step (unfriendly to neutral, neutral to friendly, friendly to helpful) for the duration of the spell unless it succeeds at a Will save. Afterward, the target is temporarily immune for 1 day.</p>\n<p>This spell works on only domesticated animals; for example, you could use it on guard dogs or stray dogs, but not feral dogs or wolves. If the socialization of the animal is in question, the decision is up to the GM.</p>\n<hr />\n<p><strong>Heightened (3rd)</strong> The duration becomes 10 minutes.</p>\n<p><strong>Heightened (6th)</strong> The duration becomes 1 hour.</p>"
        },
        "duration": {
            "value": "1 minute"
        },
        "hasCounteractCheck": {
            "value": false
        },
        "level": {
            "value": 1
        },
        "location": {
            "value": ""
        },
        "materials": {
            "value": ""
        },
        "range": {
            "value": "10 feet"
        },
        "rules": [],
        "save": {
            "basic": "",
            "value": "will"
        },
        "school": {
            "value": "enchantment"
        },
        "source": {
            "value": "Pathfinder Secrets of Magic"
        },
        "spellType": {
            "value": "save"
        },
        "sustained": {
            "value": false
        },
        "target": {
            "value": "1 non-hostile domesticated animal"
        },
        "time": {
            "value": "2"
        },
        "traditions": {
            "custom": "",
            "value": [
                "occult",
                "primal"
            ]
        },
        "traits": {
            "custom": "",
            "rarity": "common",
            "value": [
                "auditory",
                "cantrip",
                "mental"
            ]
        }
    },
    "effects": [],
    "flags": {},
    "img": "systems/pf2e/icons/spells/tame.webp",
    "name": "Tame",
    "type": "spell"
}
