{
    "_id": "JLdbyGKhjwAAoRLs",
    "data": {
        "ability": {
            "value": ""
        },
        "area": {
            "areaType": "",
            "value": ""
        },
        "autoHeightenLevel": {
            "value": null
        },
        "category": {
            "value": "spell"
        },
        "components": {
            "focus": false,
            "material": true,
            "somatic": true,
            "verbal": true
        },
        "cost": {
            "value": ""
        },
        "damage": {
            "value": {}
        },
        "description": {
            "value": "<p>You channel the forces of undeath to briefly call forth an amalgam of the vengeful dead slain by your enemies and allies alike. This amalgam manifests as a large tornado of insubstantial, howling faces. It occupies the space of a Huge creature and has a Speed of 60 feet.</p>\n<p><strong>Arrive</strong> (negative) <em>Vortex of Death</em> Each enemy creature within a 60-foot emanation must attempt a Fortitude save with the following effects.</p>\n<hr />\n<p><strong>Critical Success</strong> The creature is unaffected</p>\n<p><strong>Success</strong> The creature is @Compendium[pf2e.conditionitems.Drained]{Drained 1}.</p>\n<p><strong>Failure</strong> The creature is @Compendium[pf2e.conditionitems.Drained]{Drained 2}.</p>\n<p><strong>Critical Failure</strong> The creature is @Compendium[pf2e.conditionitems.Drained]{Drained 3}.</p>\n<hr />\n<p><strong>Depart</strong> (emotion, fear, mental) <em>Howl of Eternity</em> The vengeful dead lets out an anguished scream. All your enemies within a 100-foot emanation must attempt @Check[type:will|name:Tempest of Shades Depart|traits:necromancy,emotion,fear,mental] saves with the following effects.</p>\n<hr />\n<p><strong>Critical Success</strong> The creature is unaffected.</p>\n<p><strong>Success</strong> The creature is @Compendium[pf2e.conditionitems.Frightened]{Frightened 1}.</p>\n<p><strong>Failure</strong> The creature is @Compendium[pf2e.conditionitems.Frightened]{Frightened 3}.</p>\n<p><strong>Critical Failure</strong> The creature is frightened 3. It's also @Compendium[pf2e.conditionitems.Fleeing]{Fleeing} for 1 round or until it's no longer frightened, whichever comes first.</p>"
        },
        "duration": {
            "value": "until the end of your next turn"
        },
        "hasCounteractCheck": {
            "value": false
        },
        "level": {
            "value": 7
        },
        "location": {
            "value": ""
        },
        "materials": {
            "value": ""
        },
        "range": {
            "value": "100 feet"
        },
        "rules": [],
        "save": {
            "basic": "",
            "value": "fortitude"
        },
        "school": {
            "value": "necromancy"
        },
        "source": {
            "value": "Pathfinder Secrets of Magic"
        },
        "spellType": {
            "value": "save"
        },
        "sustained": {
            "value": false
        },
        "target": {
            "value": ""
        },
        "time": {
            "value": "3"
        },
        "traditions": {
            "custom": "",
            "value": [
                "arcane",
                "divine",
                "occult"
            ]
        },
        "traits": {
            "custom": "",
            "rarity": "common",
            "value": [
                "incarnate"
            ]
        }
    },
    "effects": [],
    "flags": {},
    "img": "systems/pf2e/icons/spells/tempest-of-shades.webp",
    "name": "Tempest of Shades",
    "type": "spell"
}
