{
    "_id": "xxhS66k68u5iIOHC",
    "data": {
        "ability": {
            "value": ""
        },
        "area": {
            "value": ""
        },
        "areasize": {
            "value": "150-foot burst"
        },
        "category": {
            "value": "spell"
        },
        "components": {
            "material": false,
            "somatic": true,
            "verbal": true
        },
        "cost": {
            "value": ""
        },
        "damage": {
            "value": {}
        },
        "description": {
            "value": "<p>The ground in the area shudders and crumbles as huge pillars of stone erupt into the air, rending the terrain around them.</p>\n<p>The GM might add additional effects in certain areas. Cliffs might collapse, causing creatures to fall, or a river might be blocked and flood the surrounding area.</p>\n<ul>\n<li><strong>Stone Debris</strong> The area becomes difficult terrain.</li>\n<li><strong>Rising Pillars</strong> Pillars of smooth stone rise from your chosen number of 10-foot squares on a surface in the area, ascending up to 60 feet in height. Each pillar stops when it hits a structure or ceiling unless that structure collapses (see below). The DC to Climb or Grab an Edge on a pillar is 30. Each creature on a pillar after it rises must succeed at a Reflex saving throw or fall off the nearest edge (the creature can choose which edge, if several are equally close). A creature on a pillar that is stopped by a structure falls without attempting a save.</li>\n<li><strong>Structural Collapse</strong> Structures and ceilings might collapse. The GM rolls a flat check for each (DC 14 for a sturdy structure, DC 9 for an average structure and most natural formations, all adjusted higher or lower as the GM sees fit). In general, shoddy structures automatically collapse. A collapse deals 11d6 bludgeoning damage to creatures beneath it; each creature caught in a collapse must attempt a Reflex save to avoid it. If the creature is forced to attempt a Reflex save because it was on a rising pillar, it uses the same result.</li>\n</ul>\n<hr />\n<p><strong>Critical Success</strong> The creature takes half collapse damage.</p>\n<p><strong>Success</strong> The creature takes half the collapse damage and falls @Compendium[pf2e.conditionitems.Prone]{Prone}.</p>\n<p><strong>Failure</strong> The creature takes the full collapse damage and falls prone.</p>\n<p><strong>Critical Failure</strong> The creature takes the full collapse damage and is @Compendium[pf2e.conditionitems.Restrained]{Restrained} by debris until it successfully Escapes (DC equal to the spell's save DC).</p>"
        },
        "duration": {
            "value": ""
        },
        "hasCounteractCheck": {
            "value": false
        },
        "level": {
            "value": 9
        },
        "location": {
            "value": "Vz29XsR9yz4BEMgr"
        },
        "materials": {
            "value": ""
        },
        "prepared": {
            "value": ""
        },
        "primarycheck": {
            "value": ""
        },
        "range": {
            "value": "500 feet"
        },
        "rules": [],
        "save": {
            "basic": "",
            "value": ""
        },
        "school": {
            "value": "conjuration"
        },
        "secondarycasters": {
            "value": ""
        },
        "secondarycheck": {
            "value": ""
        },
        "source": {
            "value": "Pathfinder #156: The Apocalypse Prophet"
        },
        "spellType": {
            "value": "save"
        },
        "sustained": {
            "value": false
        },
        "target": {
            "value": ""
        },
        "time": {
            "value": "2"
        },
        "traditions": {
            "custom": "",
            "value": [
                "arcane",
                "primal"
            ]
        },
        "traits": {
            "custom": "",
            "rarity": "uncommon",
            "selected": [],
            "value": [
                "earth"
            ]
        }
    },
    "effects": [],
    "flags": {},
    "img": "systems/pf2e/icons/spells/upheaval.webp",
    "name": "Upheaval",
    "type": "spell"
}
