{
    "_id": "Wz2F0qk4rxZeH311",
    "data": {
        "actionCategory": {
            "value": ""
        },
        "actionType": {
            "value": "passive"
        },
        "actions": {
            "value": null
        },
        "description": {
            "value": "<p><strong>[Heroic]</strong></p>\n<p><strong>Prerequisites</strong> Tier 3 with the Horizon Hunters</p>\n<p><strong>Cost</strong> 4 Fame</p>\n<p><span style=\"color: #ff0000;\"><strong>(Parts of this boon may not work as expected under the rules)</strong></span></p>\n<p><strong>Effect</strong> In moments of true heroism, you can always move to where the action is. When you spend a Hero Point to reroll a check, you also gain a +10-foot status bonus to your Speed until the end of your next turn.</p>\n<p>When you spend a Hero Point to avoid death, you can also @Compendium[pf2e.actionspf2e.Stand]{Stand} as a free action as you become conscious.</p>"
        },
        "featType": {
            "value": "pfsboon"
        },
        "level": {
            "value": 0
        },
        "prerequisites": {
            "value": []
        },
        "rules": [],
        "source": {
            "value": ""
        },
        "traits": {
            "custom": "",
            "rarity": "common",
            "value": []
        }
    },
    "effects": [],
    "flags": {},
    "img": "systems/pf2e/icons/default-icons/mystery-man.webp",
    "name": "Heroic Hustle",
    "type": "feat"
}
