{
    "_id": "0r2V1nK5pV31IUPY",
    "data": {
        "description": {
            "value": "<p><strong>Effect</strong> While working with less experienced Pathfinder allies, you shield your more fragile wards from the threat of death. For any PCs benefiting from a Level Bump and whose levels are lower than yours, you increase their current and maximum Hit Points by an additional amount equal to 3 times your Radiant Oath reputation tier.</p>\n<p><strong>Normal</strong> A Level Bump increases a PC's Hit Points by 10% or 10, whichever is higher.</p>\n<p><strong>Special</strong> A PC can only benefit from two mentor boons.</p>"
        },
        "duration": {
            "expiry": "turn-start",
            "sustained": false,
            "unit": "unlimited",
            "value": -1
        },
        "level": {
            "value": 1
        },
        "rules": [
            {
                "key": "FlatModifier",
                "label": "Protective Mentor Adjustment (Revered)",
                "selector": "hp",
                "value": 9
            }
        ],
        "source": {
            "value": ""
        },
        "start": {
            "initiative": null,
            "value": 0
        },
        "target": null,
        "tokenIcon": {
            "show": true
        },
        "traits": {
            "custom": "",
            "rarity": "common",
            "value": []
        }
    },
    "effects": [],
    "flags": {},
    "img": "systems/pf2e/icons/default-icons/effect.svg",
    "name": "Effect: Protective Mentor Boon (Revered) (PFS)",
    "type": "effect"
}
