{
    "_id": "TjRZbd52qWPjTbNT",
    "data": {
        "description": {
            "value": "<p>The captain orders their shipmates to fight without mercy. All allied creatures of equal or lower level within 20 feet of the ship captain gain a+1 status bonus to attack rolls and damage rolls until the end of the ship captain's next turn.</p>"
        },
        "duration": {
            "expiry": "turn-start",
            "sustained": false,
            "unit": "rounds",
            "value": 1
        },
        "level": {
            "value": 1
        },
        "rules": [
            {
                "key": "FlatModifier",
                "selector": "attack",
                "type": "status",
                "value": 1
            },
            {
                "key": "FlatModifier",
                "selector": "damage",
                "type": "status",
                "value": 1
            }
        ],
        "source": {
            "value": "Pathfinder Gamemastery Guide"
        },
        "start": {
            "initiative": null,
            "value": 0
        },
        "target": null,
        "tokenIcon": {
            "show": true
        },
        "traits": {
            "custom": "",
            "rarity": "common",
            "value": []
        }
    },
    "effects": [],
    "flags": {},
    "img": "systems/pf2e/icons/spells/heroic-feat.webp",
    "name": "Effect: No Quarter!",
    "type": "effect"
}
