{
    "_id": "APv5cRi4bKES4Cil",
    "data": {
        "badge": null,
        "description": {
            "value": "<p>The creature gains a +3 circumstance bonus to AC.</p>"
        },
        "duration": {
            "expiry": "turn-start",
            "sustained": false,
            "unit": "rounds",
            "value": 1
        },
        "level": {
            "value": 17
        },
        "rules": [
            {
                "key": "FlatModifier",
                "selector": "ac",
                "type": "circumstance",
                "value": 3
            }
        ],
        "source": {
            "value": "Pathfinder Bestiary"
        },
        "start": {
            "initiative": null,
            "value": 0
        },
        "target": null,
        "tokenIcon": {
            "show": true
        },
        "traits": {
            "custom": "",
            "rarity": "common",
            "value": []
        }
    },
    "effects": [],
    "flags": {},
    "img": "systems/pf2e/icons/features/classes/master-strike.webp",
    "name": "Effect: Defensive Assault (3 Weapons)",
    "type": "effect"
}
