{
    "_id": "SA5f54t1dVah5fJm",
    "data": {
        "description": {
            "value": "<p>The creature gains a +2 status bonus to attack rolls, damage rolls, saving throws, and skill checks.</p>"
        },
        "duration": {
            "expiry": "turn-start",
            "sustained": false,
            "unit": "rounds",
            "value": 1
        },
        "level": {
            "value": 4
        },
        "rules": [
            {
                "key": "FlatModifier",
                "selector": "attack",
                "type": "status",
                "value": 2
            },
            {
                "key": "FlatModifier",
                "selector": "damage",
                "type": "status",
                "value": 2
            },
            {
                "key": "FlatModifier",
                "selector": "skill-check",
                "type": "status",
                "value": 2
            },
            {
                "key": "FlatModifier",
                "selector": "saving-throw",
                "type": "status",
                "value": 2
            }
        ],
        "source": {
            "value": "Pathfinder Bestiary"
        },
        "start": {
            "initiative": null,
            "value": 0
        },
        "target": null,
        "tokenIcon": {
            "show": true
        },
        "traits": {
            "custom": "",
            "rarity": "common",
            "value": []
        }
    },
    "effects": [],
    "flags": {},
    "img": "systems/pf2e/icons/spells/monstrosity-form.webp",
    "name": "Effect: Revert Form",
    "type": "effect"
}
