{
    "_id": "dRe8n1nBWMIXd8jh",
    "data": {
        "badge": null,
        "description": {
            "value": "<p>The creature becomes one size larger, increases its reach by 5 feet, and increases the damage of its jaws Strike (or a similar Strike) by 2.</p>"
        },
        "duration": {
            "expiry": "turn-start",
            "sustained": false,
            "unit": "unlimited",
            "value": -1
        },
        "level": {
            "value": 1
        },
        "rules": [
            {
                "key": "CreatureSize",
                "value": 1
            },
            {
                "key": "Note",
                "selector": "attack",
                "text": "<p class='compact-text' data-visibility='gm'><strong>{item|name}</strong> @Localize[PF2E.NPCAbility.IncreasedReach5]</p>"
            },
            {
                "key": "FlatModifier",
                "selector": "jaws-damage",
                "value": 2
            },
            {
                "key": "FlatModifier",
                "selector": "tusk-damage",
                "value": 2
            },
            {
                "key": "FlatModifier",
                "selector": "fangs-damage",
                "value": 2
            }
        ],
        "source": {
            "value": "Pathfinder Bestiary"
        },
        "start": {
            "initiative": null,
            "value": 0
        },
        "target": null,
        "tokenIcon": {
            "show": true
        },
        "traits": {
            "custom": "",
            "rarity": "common",
            "value": []
        }
    },
    "effects": [],
    "flags": {},
    "img": "systems/pf2e/icons/spells/darkness.webp",
    "name": "Effect: Moon Frenzy",
    "type": "effect"
}
