{
    "_id": "im7c5Vs4dXSN7383",
    "content": "<p>Play during your turn.</p>\n<hr />\n<p>Make a Strike, ignoring the multiple attack penalty. If you roll a critical success, you get a normal success instead. If the attack fails, you release your weapon, or drop @Compendium[pf2e.conditionitems.Prone]{Prone} if you were using an unarmed attack or otherwise can't release your weapon.</p>",
    "flags": {},
    "name": "Desperate Swing",
    "permission": {
        "default": 0
    }
}
