{
    "_id": "hjD9eWrqowr7zxBU",
    "content": "<p>Play when you or an ally is Casting a Spell.</p>\n<hr />\n<p>Heighten that spell by 1 level. This can't heighten a spell above the highest level of spell you or the ally can cast.</p>",
    "flags": {},
    "name": "Stoke the Magical Flame",
    "permission": {
        "default": 0
    }
}
