{
    "_id": "MAHxEeGf31wqv3jp",
    "author": "oxKN2HrOvz2sSqlF",
    "command": "/**\n * @typedef {{data: {data: {details: {level: number|string|undefined|null, isComplex: boolean}}, type: string}}} Hazard\n */\n\n/**\n * @param actors {Array<Hazard>}\n * @param type {string}\n * @returns {Array<HazardLevel>}\n */\nfunction getHazardLevels(actors) {\n    return actors.filter((a) => a.data.type === \"hazard\");\n}\n\n/**\n * @typedef {{data: {data: {details: {level: {value: number|string|undefined|null}}}, type: string}}} Actor\n */\n\n/**\n * @param actors {Array<Actor>}\n * @param type {string}\n * @returns {Array<number>}\n */\nfunction getLevels(actors, type) {\n    return actors.filter((a) => a.data.type === type).map((a) => parseInt(a.data.data.details.level.value ?? \"1\", 10));\n}\n\n/**\n * @param xp {XP}\n * @returns {string}\n */\nfunction dialogTemplate(xp) {\n    return `\n<h2>XP</h2>\n<table>\n    <tr>\n        <th>${game.i18n.localize(\"PF2E.Encounter.Budget.PartySize\")}</th>\n        <td>${xp.partySize}</td>\n    </tr>\n    <tr>\n        <th>${game.i18n.localize(\"PF2E.Encounter.Budget.PartyLevel\")}</th>\n        <td>${xp.partyLevel}</td>\n    </tr>\n    <tr>\n        <th>${game.i18n.localize(\"PF2E.Encounter.Budget.Threat\")}</th>\n        <td>${game.i18n.localize(\"PF2E.Encounter.Budget.Threats.\"+xp.rating)} (${xp.totalXP} XP)</td>\n    </tr>\n    <tr>\n        <th>${game.i18n.localize(\"PF2E.Encounter.Budget.Reward\")}</th>\n        <td>${xp.xpPerPlayer} XP</td>\n    </tr>\n</table>\n<h2>${game.i18n.localize(\"PF2E.Encounter.Budget.EncounterBudget\")}</h2>\n<table class=\"pf2-table\">\n    <tr>\n        <th>${game.i18n.localize(\"PF2E.Encounter.Budget.Threat\")}</th>\n        <th>${game.i18n.localize(\"PF2E.Encounter.Budget.XPBudget\")}</th>\n        <th>${game.i18n.localize(\"PF2E.Encounter.Budget.XPNeeded\")}</th>\n        <th>${game.i18n.localize(\"PF2E.Encounter.Budget.Reward\")}</th>\n    </tr>\n    <tr>\n        <td>${game.i18n.localize(\"PF2E.Encounter.Budget.Threats.trivial\")}</td>\n        <td>${xp.encounterBudgets.trivial}</td>\n        <td>${xp.encounterBudgets.trivial - xp.totalXP}</td>\n        <td>40</td>\n    </tr>\n    <tr>\n        <td>${game.i18n.localize(\"PF2E.Encounter.Budget.Threats.low\")}</td>\n        <td>${xp.encounterBudgets.low}</td>\n        <td>${xp.encounterBudgets.low - xp.totalXP}</td>\n        <td>60</td>\n    </tr>\n    <tr>\n        <td>${game.i18n.localize(\"PF2E.Encounter.Budget.Threats.moderate\")}</td>\n        <td>${xp.encounterBudgets.moderate}</td>\n        <td>${xp.encounterBudgets.moderate - xp.totalXP}</td>\n        <td>80</td>\n    </tr>\n    <tr>\n        <td>${game.i18n.localize(\"PF2E.Encounter.Budget.Threats.severe\")}</td>\n        <td>${xp.encounterBudgets.severe}</td>\n        <td>${xp.encounterBudgets.severe - xp.totalXP}</td>\n        <td>120</td>\n    </tr>\n    <tr>\n        <td>${game.i18n.localize(\"PF2E.Encounter.Budget.Threats.extreme\")}</td>\n        <td>${xp.encounterBudgets.extreme}</td>\n        <td>${xp.encounterBudgets.extreme - xp.totalXP}</td>\n        <td>160</td>\n    </tr>\n</table>\n<h2>${game.i18n.localize(\"PF2E.Encounter.CreatureXPAndRole.CreatureXPAndRole\")}</h2>\n<table class=\"pf2-table\">\n    <tr>\n        <th>${game.i18n.localize(\"PF2E.Encounter.CreatureXPAndRole.CreatureLevel\")}</th>\n        <th>XP</th>\n        <th>${game.i18n.localize(\"PF2E.Encounter.CreatureXPAndRole.SuggestedRole\")}</th>\n    </tr>\n    <tr>\n        <td>${xp.partyLevel - 4}</td>\n        <td>10</td>\n        <td>${game.i18n.localize(\"PF2E.Encounter.CreatureXPAndRole.CreatureLevels.-4\")}</td>\n    </tr>\n    <tr>\n        <td>${xp.partyLevel - 3}</td>\n        <td>15</td>\n        <td>${game.i18n.localize(\"PF2E.Encounter.CreatureXPAndRole.CreatureLevels.-3\")}</td>\n    </tr>\n    <tr>\n        <td>${xp.partyLevel - 2}</td>\n        <td>20</td>\n        <td>${game.i18n.localize(\"PF2E.Encounter.CreatureXPAndRole.CreatureLevels.-2\")}</td>\n    </tr>\n    <tr>\n        <td>${xp.partyLevel - 1}</td>\n        <td>30</td>\n        <td>${game.i18n.localize(\"PF2E.Encounter.CreatureXPAndRole.CreatureLevels.-1\")}</td>\n    </tr>\n    <tr>\n        <td>${xp.partyLevel}</td>\n        <td>40</td>\n        <td>${game.i18n.localize(\"PF2E.Encounter.CreatureXPAndRole.CreatureLevels.0\")}</td>\n    </tr>\n    <tr>\n        <td>${xp.partyLevel + 1}</td>\n        <td>60</td>\n        <td>${game.i18n.localize(\"PF2E.Encounter.CreatureXPAndRole.CreatureLevels.1\")}</td>\n    </tr>\n    <tr>\n        <td>${xp.partyLevel + 2}</td>\n        <td>80</td>\n        <td>${game.i18n.localize(\"PF2E.Encounter.CreatureXPAndRole.CreatureLevels.2\")}</td>\n    </tr>\n    <tr>\n        <td>${xp.partyLevel + 3}</td>\n        <td>120</td>\n        <td>${game.i18n.localize(\"PF2E.Encounter.CreatureXPAndRole.CreatureLevels.3\")}</td>\n    </tr>\n    <tr>\n        <td>${xp.partyLevel + 4}</td>\n        <td>160</td>\n        <td>${game.i18n.localize(\"PF2E.Encounter.CreatureXPAndRole.CreatureLevels.4\")}</td>\n    </tr>\n</table>`;\n}\n\nconst askLevelPopupTemplate = () => {\n    const partySize = parseInt(localStorage.getItem(\"xpMacroPartySize\") ?? 4, 10);\n    const partyLevel = parseInt(localStorage.getItem(\"xpMacroPartyLevel\") ?? 1, 10);\n    return `\n    <form>\n    <div class=\"form-group\">\n        <label>${game.i18n.localize(\"PF2E.Encounter.Budget.PartySize\")}</label>\n        <input id=\"party-size\" name=\"party-size\" type=\"number\" value=\"${partySize}\">\n    </div>\n    <div class=\"form-group\">\n        <label>${game.i18n.localize(\"PF2E.Encounter.Budget.PartyLevel\")}</label>\n        <input id=\"party-level\" name=\"party-level\" type=\"number\" value=\"${partyLevel}\">\n    </div>\n    </form>\n    `;\n};\n\n/**\n * @param partyLevel {number}\n * @param partySize {number}\n * @param npcLevels {Array<number>}\n * @param hazardLevels {Array<HazardLevel>}\n */\nfunction showXP(partyLevel, partySize, npcLevels, hazardLevels) {\n    const xp = game.pf2e.gm.calculateXP(partyLevel, partySize, npcLevels, hazardLevels, {\n        proficiencyWithoutLevel: game.settings.get(\"pf2e\", \"proficiencyVariant\") === \"ProficiencyWithoutLevel\",\n    });\n    new Dialog({\n        title: \"XP\",\n        content: dialogTemplate(xp),\n        buttons: {},\n    }).render(true);\n}\n\n/**\n * @param npcLevels {Array<number>}\n * @param hazardLevels {Array<HazardLevel>}\n */\nfunction askPartyLevelAndSize(npcLevels, hazardLevels) {\n    new Dialog({\n        title: \"Party Information\",\n        content: askLevelPopupTemplate,\n        buttons: {\n            no: {\n                icon: '<i class=\"fas fa-times\"></i>',\n                label: \"Cancel\",\n            },\n            yes: {\n                icon: '<i class=\"fas fa-calculator\"></i>',\n                label: \"Calculate XP\",\n                callback: ($html) => {\n                    const partySize = parseInt($html[0].querySelector('[name=\"party-size\"]').value, 10) ?? 1;\n                    const partyLevel = parseInt($html[0].querySelector('[name=\"party-level\"]').value, 10) ?? 1;\n                    // persist for future uses\n                    localStorage.setItem(\"xpMacroPartySize\", partySize);\n                    localStorage.setItem(\"xpMacroPartyLevel\", partyLevel);\n                    showXP(partyLevel, partySize, npcLevels, hazardLevels);\n                },\n            },\n        },\n        default: \"yes\",\n    }).render(true);\n}\n\nfunction main() {\n    const actors = canvas.tokens.controlled.map((a) => a.actor);\n    const npcLevels = getLevels(actors, \"npc\");\n    const pcLevels = getLevels(actors, \"character\");\n    const hazardLevels = getHazardLevels(actors);\n    if (npcLevels.length === 0 && hazardLevels.length === 0) {\n        ui.notifications.error(`You must select at least one npc and/or hazard token and optionally all PC tokens`);\n        return;\n    }\n\n    if (pcLevels.length === 0) {\n        askPartyLevelAndSize(npcLevels, hazardLevels);\n    } else {\n        showXP(pcLevels[0], pcLevels.length, npcLevels, hazardLevels);\n    }\n}\n\nmain();",
    "flags": {},
    "img": "systems/pf2e/icons/spells/athletic-rush.webp",
    "name": "XP",
    "permission": {
        "default": 0
    },
    "scope": "global",
    "type": "script"
}
