{
    "_id": "MCU4ZiNNAX7GQNJb",
    "data": {
        "attributes": {
            "ac": {
                "check": 0,
                "details": "",
                "value": 17
            },
            "collisionDC": {
                "value": 19
            },
            "collisionDamage": {
                "value": "2d10"
            },
            "hardness": 5,
            "hp": {
                "brokenThreshold": 5,
                "details": "",
                "max": 70,
                "temp": 0,
                "value": 70
            }
        },
        "customModifiers": {},
        "details": {
            "AC": 0,
            "crew": "1 pilot",
            "description": "",
            "level": {
                "value": 4
            },
            "passengers": "0",
            "pilotingCheck": "Crafting (DC 21) or Piloting Lore (DC 19)",
            "price": 300,
            "space": {
                "high": 5,
                "long": 5,
                "wide": 5
            },
            "speed": "Jump Jet (Alchemical)"
        },
        "saves": {
            "fortitude": {
                "item": 0,
                "rank": 0,
                "saveDetail": "",
                "value": 11
            }
        },
        "source": {
            "value": "Pathfinder Lost Omens: The Grand Bazaar"
        },
        "traits": {
            "ci": [],
            "di": {
                "custom": "",
                "value": [
                    "object-immunities"
                ]
            },
            "dr": [],
            "dv": [
                {
                    "type": "fire",
                    "value": 10
                }
            ],
            "rarity": "uncommon",
            "size": {
                "value": "med"
            },
            "traits": {
                "custom": "",
                "value": []
            }
        }
    },
    "effects": [],
    "flags": {},
    "img": "systems/pf2e/icons/default-icons/vehicle.svg",
    "items": [
        {
            "_id": "V0Iw3ZOvbTqoxlvz",
            "data": {
                "actionCategory": {
                    "value": ""
                },
                "actionType": {
                    "value": "passive"
                },
                "actions": {
                    "value": null
                },
                "description": {
                    "value": "<p>The firework pgo moves exclusively via @Compendium[pf2e.actionspf2e.Leap]{Leaping}. For each action spent to @Compendium[pf2e.actionspf2e.Drive]{Drive}, the pogo Leaps 20 feet horizontally or 10 feet vertically.</p>"
                },
                "requirements": {
                    "value": ""
                },
                "rules": [],
                "slug": null,
                "source": {
                    "value": ""
                },
                "traits": {
                    "custom": "",
                    "rarity": "common",
                    "value": []
                },
                "trigger": {
                    "value": ""
                }
            },
            "effects": [],
            "flags": {},
            "img": "systems/pf2e/icons/actions/Passive.webp",
            "name": "Jump Jet",
            "sort": 0,
            "type": "action"
        },
        {
            "_id": "W01aasqmTJL5TpkW",
            "data": {
                "actionCategory": {
                    "value": ""
                },
                "actionType": {
                    "value": "passive"
                },
                "actions": {
                    "value": null
                },
                "description": {
                    "value": "<p>When the pilot uses a 3-action activity to recklessly @Compendium[pf2e.actionspf2e.Drive]{Drive} the firework pogo, it emits a burst of flames on launch that deals [[/r {3d6}[fire]]]{3d6 fire damage} to the pilot, the pogo itself, and each creature in a 10‑foot radius (@Check[type:reflex|dc:19|basic:true] save).</p>"
                },
                "requirements": {
                    "value": ""
                },
                "rules": [],
                "slug": null,
                "source": {
                    "value": ""
                },
                "traits": {
                    "custom": "",
                    "rarity": "common",
                    "value": []
                },
                "trigger": {
                    "value": ""
                }
            },
            "effects": [],
            "flags": {},
            "img": "systems/pf2e/icons/actions/Passive.webp",
            "name": "Unstable Launch",
            "sort": 0,
            "type": "action"
        }
    ],
    "name": "Firework Pogo",
    "token": {
        "disposition": 0,
        "height": 1,
        "img": "systems/pf2e/icons/default-icons/vehicle.svg",
        "name": "Firework Pogo",
        "width": 1
    },
    "type": "vehicle"
}
