{
    "_id": "l0RfYgabnbNoHnkS",
    "data": {
        "attributes": {
            "ac": {
                "check": 0,
                "details": "",
                "value": 10
            },
            "collisionDC": {
                "value": 14
            },
            "collisionDamage": {
                "value": "2d4"
            },
            "hardness": 5,
            "hp": {
                "brokenThreshold": 5,
                "details": "",
                "max": 16,
                "temp": 0,
                "value": 16
            }
        },
        "details": {
            "AC": 0,
            "crew": "1 pilot",
            "description": "",
            "level": {
                "value": 0
            },
            "passengers": "2",
            "pilotingCheck": "Athletics (DC 16) or Sailing Lore (DC 14)",
            "price": "15",
            "space": {
                "high": 3,
                "long": 10,
                "wide": 5
            },
            "speed": "swim 20 feet (rowed)"
        },
        "saves": {
            "fortitude": {
                "item": 0,
                "rank": 0,
                "saveDetail": "",
                "value": 6
            }
        },
        "source": {
            "value": "Pathfinder Gamemastery Guide"
        },
        "traits": {
            "ci": [],
            "di": {
                "custom": "",
                "value": [
                    "critical-hits",
                    "object-immunities",
                    "precision"
                ]
            },
            "dr": [],
            "dv": [],
            "rarity": "common",
            "size": {
                "value": "lg"
            },
            "traits": {
                "custom": "",
                "value": []
            }
        }
    },
    "effects": [],
    "flags": {},
    "img": "systems/pf2e/icons/default-icons/vehicle.svg",
    "items": [
        {
            "_id": "9UcPAPPrzEhaoWgY",
            "data": {
                "actionCategory": {
                    "value": "interaction"
                },
                "actionType": {
                    "value": "passive"
                },
                "actions": {
                    "value": null
                },
                "description": {
                    "value": "<p>The rowboat can be carried overland by 2 Medium creatures or 1 Large creature. Those creatures are encumbered when doing so.</p>"
                },
                "requirements": {
                    "value": ""
                },
                "rules": [],
                "slug": null,
                "source": {
                    "value": ""
                },
                "traits": {
                    "custom": "",
                    "rarity": "common",
                    "value": []
                },
                "trigger": {
                    "value": ""
                },
                "weapon": {
                    "value": ""
                }
            },
            "effects": [],
            "flags": {},
            "img": "systems/pf2e/icons/actions/Passive.webp",
            "name": "Portaged",
            "sort": 0,
            "type": "action"
        }
    ],
    "name": "Rowboat",
    "token": {
        "disposition": 0,
        "height": 2,
        "img": "systems/pf2e/icons/default-icons/vehicle.svg",
        "name": "Rowboat",
        "width": 1
    },
    "type": "vehicle"
}
