{
    "_id": "w6auGNQQ2VyMT001",
    "data": {
        "attributes": {
            "ac": {
                "check": 0,
                "details": "",
                "value": 14
            },
            "collisionDC": {
                "value": 18
            },
            "collisionDamage": {
                "value": "2d10"
            },
            "hardness": 5,
            "hp": {
                "brokenThreshold": 5,
                "details": "",
                "max": 42,
                "temp": 0,
                "value": 42
            }
        },
        "details": {
            "AC": 0,
            "crew": "1 pilot",
            "description": "<p>A sand diver is a vaguely scorpion-shaped vehicle that uses alchemical reactions to propel itself. The tail-like structure acts as a heat sink and releases alchemical fumes behind the diver as it burrows. Instead of pincers, it has two burrowing mechanisms in front that allow it to dig through sand.</p>",
            "level": {
                "value": 3
            },
            "passengers": "2",
            "pilotingCheck": "Driving Lore (DC 18) or Crafting (DC 20)",
            "price": 155,
            "space": {
                "high": 6,
                "long": 15,
                "wide": 6
            },
            "speed": "20 feet, burrow 10 feet (alchemical)"
        },
        "saves": {
            "fortitude": {
                "item": 0,
                "rank": 0,
                "saveDetail": "",
                "value": 9
            }
        },
        "source": {
            "value": "Pathfinder Guns & Gears"
        },
        "traits": {
            "ci": [],
            "di": {
                "custom": "",
                "value": [
                    "critical-hits",
                    "object-immunities",
                    "precision"
                ]
            },
            "dr": [],
            "dv": [],
            "rarity": "uncommon",
            "size": {
                "value": "lg"
            },
            "traits": {
                "custom": "",
                "value": []
            }
        }
    },
    "effects": [],
    "flags": {},
    "img": "systems/pf2e/icons/default-icons/vehicle.svg",
    "items": [
        {
            "_id": "PqsmKTcXOM0aNYo8",
            "data": {
                "actionCategory": {
                    "value": ""
                },
                "actionType": {
                    "value": "passive"
                },
                "actions": {
                    "value": null
                },
                "description": {
                    "value": "<p>A sand diver can only @Compendium[pf2e.actionspf2e.Burrow]{Burrow} through sand, using the heat and flame from its alchemical core to slowly dig its way through. The alchemical fumes left behind become trapped belowground as it Burrows, temporarily catalyzing fragments of sand into a glass-like byproduct. Creatures that Burrow through a space this vehicle has Burrowed through within the last 24 hours take [[/r {1d12}[piercing]]]{1d12 Piercing Damage} from the shards (@Check[type:fortitude|dc:17|basic:true|name:Avoid shards]). A creature that continues Burrowing through a stretch of the same space the sand diver recently Burrowed through must continue to attempt this save the first time each round that it Burrows through the shards.</p>"
                },
                "requirements": {
                    "value": ""
                },
                "rules": [],
                "slug": null,
                "source": {
                    "value": ""
                },
                "traits": {
                    "custom": "",
                    "rarity": "common",
                    "value": []
                },
                "trigger": {
                    "value": ""
                }
            },
            "effects": [],
            "flags": {},
            "img": "systems/pf2e/icons/actions/Passive.webp",
            "name": "Shard Trail",
            "sort": 0,
            "type": "action"
        },
        {
            "_id": "rDwfQJPnK5YyRx7v",
            "data": {
                "actionCategory": {
                    "value": ""
                },
                "actionType": {
                    "value": "passive"
                },
                "actions": {
                    "value": null
                },
                "description": {
                    "value": "<p>This vehicle must move twice its length for each 90-degree turn it makes.</p>"
                },
                "requirements": {
                    "value": ""
                },
                "rules": [],
                "slug": null,
                "source": {
                    "value": ""
                },
                "traits": {
                    "custom": "",
                    "rarity": "common",
                    "value": []
                },
                "trigger": {
                    "value": ""
                }
            },
            "effects": [],
            "flags": {},
            "img": "systems/pf2e/icons/actions/Passive.webp",
            "name": "Sluggish",
            "sort": 0,
            "type": "action"
        }
    ],
    "name": "Sand Diver",
    "token": {
        "disposition": 0,
        "height": 3,
        "img": "systems/pf2e/icons/default-icons/vehicle.svg",
        "name": "Sand Diver",
        "width": 1
    },
    "type": "vehicle"
}
